<?xml version="1.0" encoding="UTF-8" standalone="no"?>
<svg
   xmlns:dc="http://purl.org/dc/elements/1.1/"
   xmlns:cc="http://creativecommons.org/ns#"
   xmlns:rdf="http://www.w3.org/1999/02/22-rdf-syntax-ns#"
   xmlns:svg="http://www.w3.org/2000/svg"
   xmlns="http://www.w3.org/2000/svg"
   xmlns:sodipodi="http://sodipodi.sourceforge.net/DTD/sodipodi-0.dtd"
   xmlns:inkscape="http://www.inkscape.org/namespaces/inkscape"
   width="148.53819mm"
   height="13.249002mm"
   viewBox="0 0 526.31643 46.94528"
   id="svg4305"
   version="1.1"
   inkscape:version="0.92.3 (2405546, 2018-03-11)"
   sodipodi:docname="gouge-insert_wood-comfortaa.svg">
  <defs
     id="defs4307" />
  <sodipodi:namedview
     id="base"
     pagecolor="#ffffff"
     bordercolor="#666666"
     borderopacity="1.0"
     inkscape:pageopacity="0.0"
     inkscape:pageshadow="2"
     inkscape:zoom="1.0624063"
     inkscape:cx="365.38659"
     inkscape:cy="205.7418"
     inkscape:document-units="mm"
     inkscape:current-layer="layer1"
     showgrid="false"
     inkscape:window-width="1920"
     inkscape:window-height="996"
     inkscape:window-x="0"
     inkscape:window-y="27"
     inkscape:window-maximized="1"
     inkscape:snap-bbox="true"
     inkscape:snap-bbox-midpoints="false"
     inkscape:bbox-paths="false"
     inkscape:bbox-nodes="true"
     inkscape:snap-bbox-edge-midpoints="false"
     inkscape:snap-object-midpoints="true"
     inkscape:snap-center="true"
     inkscape:object-paths="true"
     inkscape:snap-intersection-paths="true"
     inkscape:object-nodes="true"
     inkscape:snap-smooth-nodes="true"
     inkscape:snap-midpoints="true"
     inkscape:document-rotation="0"
     inkscape:snap-nodes="false"
     inkscape:snap-others="false"
     fit-margin-top="0"
     fit-margin-left="0"
     fit-margin-right="0"
     fit-margin-bottom="0" />
  <metadata
     id="metadata4310">
    <rdf:RDF>
      <cc:Work
         rdf:about="">
        <dc:format>image/svg+xml</dc:format>
        <dc:type
           rdf:resource="http://purl.org/dc/dcmitype/StillImage" />
        <dc:title></dc:title>
      </cc:Work>
    </rdf:RDF>
  </metadata>
  <g
     inkscape:label="cut in 3mm wood"
     inkscape:groupmode="layer"
     id="layer1"
     transform="translate(-23.776618,-687.52999)">
    <path
       style="font-style:normal;font-variant:normal;font-weight:normal;font-stretch:normal;font-size:medium;line-height:125%;font-family:Comfortaa;-inkscape-font-specification:'Comfortaa, Normal';text-align:start;letter-spacing:0px;word-spacing:0px;writing-mode:lr-tb;text-anchor:start;fill:none;fill-opacity:1;stroke:#150000;stroke-width:0.35433099;stroke-linecap:butt;stroke-linejoin:miter;stroke-miterlimit:4;stroke-dasharray:none;stroke-opacity:1"
       d="M 468.03438,693.20121 460.73762,710.82694 H 475.33113 Z"
       id="path6665"
       inkscape:connector-curvature="0" />
    <path
       style="font-style:normal;font-variant:normal;font-weight:normal;font-stretch:normal;font-size:medium;line-height:125%;font-family:Comfortaa;-inkscape-font-specification:'Comfortaa, Normal';text-align:start;letter-spacing:0px;word-spacing:0px;writing-mode:lr-tb;text-anchor:start;fill:none;fill-opacity:1;stroke:#150000;stroke-width:0.35433099;stroke-linecap:butt;stroke-linejoin:miter;stroke-miterlimit:4;stroke-dasharray:none;stroke-opacity:1"
       d="M 449.04729,695.42444 V 710.20471 H 442.36577 C 440.81417,710.20471 439.43971,709.89594 438.22026,709.28735 436.96334,708.64355 436.02264,707.78964 435.36015,706.70556 L 435.35616,706.69956 435.35415,706.69356 C 434.66199,705.61021 434.31596,704.39042 434.31596,702.98385 434.31596,701.5086 434.66345,700.21742 435.35966,699.06722 L 435.36366,699.06322 435.36566,699.05722 C 436.03191,697.90643 436.95764,697.02553 438.17633,696.38571 439.39392,695.74648 440.78122,695.42258 442.36578,695.42258 Z"
       id="path6663"
       inkscape:connector-curvature="0" />
    <path
       style="font-style:normal;font-variant:normal;font-weight:normal;font-stretch:normal;font-size:medium;line-height:125%;font-family:Comfortaa;-inkscape-font-specification:'Comfortaa, Normal';text-align:start;letter-spacing:0px;word-spacing:0px;writing-mode:lr-tb;text-anchor:start;fill:none;fill-opacity:1;stroke:#150000;stroke-width:0.35433099;stroke-linecap:butt;stroke-linejoin:miter;stroke-miterlimit:4;stroke-dasharray:none;stroke-opacity:1"
       d="M 236.62012,697.29758 C 239.44961,697.29758 241.97535,697.95499 244.23548,699.26779 L 244.23748,699.26979 C 246.46996,700.58536 248.21519,702.37578 249.50178,704.67324 L 249.50377,704.67724 C 250.78767,706.93936 251.43187,709.45252 251.43187,712.25232 251.43187,715.08375 250.78767,717.63085 249.50377,719.92444 L 249.50178,719.92644 C 248.21577,722.1913 246.47072,723.9681 244.23748,725.2841 L 244.23548,725.2861 C 241.97553,726.59879 239.44984,727.25265 236.62012,727.25265 233.60259,727.25264 231.0145,726.44141 228.73011,724.98031 L 233.28945,720.41916 C 233.74768,719.96093 234.01638,719.3779 234.01638,718.76023 234.01638,718.14254 233.74708,717.56075 233.28945,717.10312 232.85644,716.6701 232.28574,716.42196 231.67995,716.42196 231.05065,716.42198 230.45857,716.66369 230.01919,717.10312 L 225.23096,721.89133 C 224.24842,720.65635 223.39478,719.32441 222.8213,717.76779 222.17834,716.02263 221.85816,714.18884 221.85816,712.25265 221.85816,709.45262 222.49697,706.93951 223.78077,704.67758 L 223.78278,704.67358 C 225.06893,702.37686 226.83147,700.58629 229.0965,699.27013 L 229.0985,699.26813 C 231.327,697.95547 233.82265,697.29792 236.62047,697.29792 Z"
       id="path6661"
       inkscape:connector-curvature="0" />
    <path
       style="font-style:normal;font-variant:normal;font-weight:normal;font-stretch:normal;font-size:medium;line-height:125%;font-family:Comfortaa;-inkscape-font-specification:'Comfortaa, Normal';text-align:start;letter-spacing:0px;word-spacing:0px;writing-mode:lr-tb;text-anchor:start;fill:none;fill-opacity:1;stroke:#150000;stroke-width:0.35433099;stroke-linecap:butt;stroke-linejoin:miter;stroke-miterlimit:4;stroke-dasharray:none;stroke-opacity:1"
       d="M 351.81437,697.29757 V 727.48433 H 346.53544 C 343.65856,727.48433 341.12752,726.83718 338.90545,725.5544 H 338.90344 C 336.67755,724.23622 334.9481,722.44652 333.69227,720.15462 332.43751,717.86464 331.80994,715.27828 331.80994,712.36531 331.80994,709.45235 332.43751,706.86599 333.69227,704.57601 334.94878,702.28292 336.67684,700.50964 338.90344,699.22383 341.12572,697.94057 343.65752,697.29757 346.53528,697.29757 Z"
       id="path6659"
       inkscape:connector-curvature="0" />
    <path
       style="font-style:normal;font-variant:normal;font-weight:normal;font-stretch:normal;font-size:medium;line-height:125%;font-family:Comfortaa;-inkscape-font-specification:'Comfortaa, Normal';text-align:start;letter-spacing:0px;word-spacing:0px;writing-mode:lr-tb;text-anchor:start;fill:none;fill-opacity:1;stroke:#150000;stroke-width:0.35433099;stroke-linecap:butt;stroke-linejoin:miter;stroke-miterlimit:4;stroke-dasharray:none;stroke-opacity:1"
       d="M 268.42368,697.29758 C 271.25408,697.29758 273.78391,697.9542 276.04453,699.26779 H 276.03853 C 278.27215,700.58348 280.01943,702.37663 281.30647,704.6749 H 281.30848 V 704.6769 C 282.59228,706.93884 283.23474,709.45014 283.23474,712.25014 283.23474,715.0818 282.59228,717.62885 281.30848,719.92227 L 281.30647,719.92427 C 280.02074,722.18867 278.27659,723.96603 276.04402,725.28194 273.78358,726.59545 271.2538,727.25398 268.42316,727.25398 265.40498,727.25398 262.81606,726.44155 260.53132,724.97982 L 265.09431,720.41866 C 265.55314,719.95984 265.82124,719.37605 265.82124,718.75972 265.82124,718.1434 265.55253,717.55902 265.09431,717.10078 264.66064,716.66713 264.08926,716.42513 263.48481,716.42513 262.8568,716.42513 262.26412,716.66074 261.82405,717.10078 L 257.03584,721.89266 C 256.05332,720.65768 255.19785,719.32574 254.62434,717.76912 253.98129,716.02365 253.6612,714.18619 253.6612,712.25032 253.6612,709.45054 254.30175,706.9392 255.58564,704.67708 L 255.58764,704.67508 C 256.87381,702.37838 258.63634,700.58413 260.90136,699.26797 H 260.90336 260.90537 C 263.13394,697.95524 265.62584,697.29776 268.42368,697.29776 Z"
       id="path6639"
       inkscape:connector-curvature="0" />
    <path
       style="font-style:normal;font-variant:normal;font-weight:normal;font-stretch:normal;font-size:medium;line-height:125%;font-family:Comfortaa;-inkscape-font-specification:'Comfortaa, Normal';text-align:start;letter-spacing:0px;word-spacing:0px;writing-mode:lr-tb;text-anchor:start;fill:none;fill-opacity:1;stroke:#150000;stroke-width:0.35433099;stroke-linecap:butt;stroke-linejoin:miter;stroke-miterlimit:4;stroke-dasharray:none;stroke-opacity:1"
       d="M 329.58062,697.29757 V 727.48252 H 324.30168 C 321.42391,727.48252 318.89396,726.83768 316.67167,725.55442 314.44511,724.23616 312.71658,722.44516 311.46049,720.1528 310.20571,717.86281 309.57452,715.27828 309.57452,712.36533 309.57452,709.45236 310.20571,706.86602 311.46049,704.57602 312.71698,702.28295 314.44508,700.50964 316.67167,699.22385 318.89396,697.94058 321.42391,697.29757 324.30168,697.29757 Z"
       id="path6637"
       inkscape:connector-curvature="0" />
    <path
       style="font-style:normal;font-variant:normal;font-weight:normal;font-stretch:normal;font-size:medium;line-height:125%;font-family:Comfortaa;-inkscape-font-specification:'Comfortaa, Normal';text-align:start;letter-spacing:0px;word-spacing:0px;writing-mode:lr-tb;text-anchor:start;fill:none;fill-opacity:1;stroke:#150000;stroke-width:0.35433099;stroke-linecap:butt;stroke-linejoin:miter;stroke-miterlimit:4;stroke-dasharray:none;stroke-opacity:1"
       d="M 141.25511,697.29759 C 138.42541,697.29759 135.89972,697.95144 133.63975,699.26414 L 133.63776,699.26614 C 131.40518,700.58177 129.6563,702.37232 128.36981,704.66958 V 704.67158 704.67358 C 127.08602,706.93551 126.44354,709.44862 126.44354,712.24865 126.44354,715.08056 127.08578,717.6272 128.36981,719.92077 V 719.92277 C 129.65576,722.18792 131.40408,723.96418 133.63776,725.28044 L 133.63975,725.28244 C 135.89972,726.59514 138.4254,727.25083 141.25511,727.25083 144.05317,727.25083 146.54502,726.59507 148.77342,725.28244 H 148.77742 L 148.77942,725.28044 C 151.0461,723.96331 152.80942,722.18601 154.09497,719.92094 155.37878,717.62754 156.01942,715.08047 156.01942,712.24882 156.01942,709.44879 155.37878,706.93568 154.09497,704.67375 L 154.09297,704.67175 V 704.66975 C 152.80692,702.37324 151.04437,700.58254 148.77925,699.26631 H 148.77726 L 148.77325,699.26431 C 146.54485,697.95169 144.05301,697.29775 141.25494,697.29775 Z"
       id="path6617"
       inkscape:connector-curvature="0" />
    <path
       style="font-style:normal;font-variant:normal;font-weight:normal;font-stretch:normal;font-size:medium;line-height:125%;font-family:Comfortaa;-inkscape-font-specification:'Comfortaa, Normal';text-align:start;letter-spacing:0px;word-spacing:0px;writing-mode:lr-tb;text-anchor:start;fill:none;fill-opacity:1;stroke:#150000;stroke-width:0.35433099;stroke-linecap:butt;stroke-linejoin:miter;stroke-miterlimit:4;stroke-dasharray:none;stroke-opacity:1"
       d="M 415.1238,695.42425 V 710.20452 H 408.44044 C 406.88816,710.20452 405.51496,709.89638 404.29495,709.28717 L 404.29294,709.28517 H 404.29095 C 403.03573,708.64145 402.09614,707.78791 401.4345,706.70522 L 401.43251,706.70122 401.4285,706.69722 C 400.73625,705.61375 400.39213,704.39 400.39213,702.98384 400.39213,701.50899 400.73941,700.21774 401.43583,699.06722 L 401.43782,699.06322 401.44382,699.05722 C 402.11027,697.90609 403.03051,697.02543 404.249,696.38571 405.46662,695.74646 406.85572,695.42258 408.44028,695.42258 Z"
       id="path6591"
       inkscape:connector-curvature="0" />
    <path
       style="font-style:normal;font-variant:normal;font-weight:normal;font-stretch:normal;font-size:medium;line-height:125%;font-family:Comfortaa;-inkscape-font-specification:'Comfortaa, Normal';text-align:start;letter-spacing:0px;word-spacing:0px;writing-mode:lr-tb;text-anchor:start;fill:none;fill-opacity:1;stroke:#150000;stroke-width:0.35433099;stroke-linecap:butt;stroke-linejoin:miter;stroke-miterlimit:4;stroke-dasharray:none;stroke-opacity:1"
       d="M 456.78441,709.58678 449.48949,727.21801 H 464.08116 Z"
       id="path6561"
       inkscape:connector-curvature="0" />
    <path
       style="font-style:normal;font-variant:normal;font-weight:normal;font-stretch:normal;font-size:medium;line-height:125%;font-family:Comfortaa;-inkscape-font-specification:'Comfortaa, Normal';text-align:start;letter-spacing:0px;word-spacing:0px;writing-mode:lr-tb;text-anchor:start;fill:none;fill-opacity:1;stroke:#150000;stroke-width:0.35433099;stroke-linecap:butt;stroke-linejoin:miter;stroke-miterlimit:4;stroke-dasharray:none;stroke-opacity:1"
       d="M 415.12327,712.43592 V 727.21801 H 408.43809 C 406.88579,727.21801 405.51259,726.90805 404.29258,726.29882 L 404.29058,726.29682 H 404.28857 C 403.03335,725.65308 402.09558,724.79955 401.43395,723.71686 L 401.43195,723.71286 401.42595,723.70686 C 400.73378,722.62351 400.38958,721.40189 400.38958,719.99532 400.38958,718.52005 400.73903,717.22869 401.43511,716.07868 L 401.43712,716.07268 401.43912,716.06868 C 402.10534,714.9179 403.03111,714.03698 404.24979,713.39717 405.46758,712.75783 406.85287,712.43404 408.4374,712.43404 Z"
       id="path6559"
       inkscape:connector-curvature="0" />
    <path
       style="font-style:normal;font-variant:normal;font-weight:normal;font-stretch:normal;font-size:medium;line-height:125%;font-family:Comfortaa;-inkscape-font-specification:'Comfortaa, Normal';text-align:start;letter-spacing:0px;word-spacing:0px;writing-mode:lr-tb;text-anchor:start;fill:none;fill-opacity:1;stroke:#150000;stroke-width:0.35433099;stroke-linecap:butt;stroke-linejoin:miter;stroke-miterlimit:4;stroke-dasharray:none;stroke-opacity:1"
       d="M 204.81708,697.29759 C 207.64677,697.29759 210.17245,697.95145 212.43244,699.26414 L 212.43443,699.26614 C 214.6669,700.58171 216.41398,702.37579 217.70056,704.67324 L 217.70255,704.67524 C 218.9864,706.93725 219.62884,709.45234 219.62884,712.25214 219.62884,715.08357 218.98652,717.62691 217.70255,719.9206 L 217.70056,719.9246 C 216.41457,722.18944 214.66765,723.96444 212.43443,725.28043 L 212.43244,725.28243 C 210.17245,726.59514 207.64677,727.25266 204.81708,727.25265 201.79874,727.25265 199.20981,726.44169 196.92522,724.98031 L 201.48639,720.41732 C 201.94461,719.95909 202.21331,719.37609 202.21331,718.75839 202.21331,718.1407 201.944,717.55707 201.48639,717.09945 201.05271,716.66578 200.48132,716.42196 199.87689,716.42196 199.24886,716.42196 198.658,716.65939 198.21795,717.09945 L 193.42609,721.89315 C 192.44359,720.65794 191.58997,719.32458 191.01641,717.76779 190.37343,716.02251 190.05327,714.18885 190.05327,712.25265 190.05327,709.45263 190.69581,706.93756 191.97954,704.67575 V 704.67375 C 193.26569,702.37705 195.02826,700.58282 197.29327,699.26665 L 197.29527,699.26465 C 199.5236,697.9521 202.01919,697.29811 204.81725,697.29811 Z"
       id="path6557"
       inkscape:connector-curvature="0" />
    <path
       style="font-style:normal;font-variant:normal;font-weight:normal;font-stretch:normal;font-size:medium;line-height:125%;font-family:Comfortaa;-inkscape-font-specification:'Comfortaa, Normal';text-align:start;letter-spacing:0px;word-spacing:0px;writing-mode:lr-tb;text-anchor:start;fill:none;fill-opacity:1;stroke:#150000;stroke-width:0.35433099;stroke-linecap:butt;stroke-linejoin:miter;stroke-miterlimit:4;stroke-dasharray:none;stroke-opacity:1"
       d="M 374.0498,697.29757 V 727.48251 H 368.77088 C 365.89473,727.4825 363.3641,726.83989 361.14271,725.55806 358.91381,724.23954 357.18483,722.44864 355.92785,720.15462 354.67306,717.86464 354.0437,715.2801 354.0437,712.36715 354.0437,709.45418 354.67306,706.86782 355.92785,704.57784 357.18434,702.28476 358.91245,700.51329 361.13905,699.22749 363.36151,697.94412 365.89333,697.29757 368.77088,697.29757 Z"
       id="path6555"
       inkscape:connector-curvature="0" />
    <path
       style="font-style:normal;font-variant:normal;font-weight:normal;font-stretch:normal;font-size:medium;line-height:125%;font-family:Comfortaa;-inkscape-font-specification:'Comfortaa, Normal';text-align:start;letter-spacing:0px;word-spacing:0px;writing-mode:lr-tb;text-anchor:start;fill:none;fill-opacity:1;stroke:#150000;stroke-width:0.35433099;stroke-linecap:butt;stroke-linejoin:miter;stroke-miterlimit:4;stroke-dasharray:none;stroke-opacity:1"
       d="M 307.34519,697.29758 V 727.48252 H 302.06626 C 299.18869,727.48252 296.65687,726.83779 294.43442,725.55442 292.20784,724.23616 290.47934,722.44515 289.22324,720.1528 287.96845,717.8628 287.33908,715.27828 287.33908,712.36533 287.33908,709.45236 287.96845,706.86601 289.22324,704.57602 290.47974,702.28292 292.20781,700.51149 294.43442,699.22568 296.65668,697.94241 299.18848,697.29758 302.06626,697.29758 Z"
       id="path6553"
       inkscape:connector-curvature="0" />
    <path
       style="font-style:normal;font-variant:normal;font-weight:normal;font-stretch:normal;font-size:medium;line-height:125%;font-family:Comfortaa;-inkscape-font-specification:'Comfortaa, Normal';text-align:start;letter-spacing:0px;word-spacing:0px;writing-mode:lr-tb;text-anchor:start;fill:none;fill-opacity:1;stroke:#150000;stroke-width:0.35433099;stroke-linecap:butt;stroke-linejoin:miter;stroke-miterlimit:4;stroke-dasharray:none;stroke-opacity:1"
       d="M 542.83463,694.79105 V 711.03435 H 536.93315 C 535.35579,711.03435 533.97593,710.69828 532.762,710.03276 531.54109,709.33071 530.60871,708.38387 529.93852,707.16532 L 529.93652,707.16132 529.93252,707.15732 C 529.23363,705.94194 528.88332,704.56393 528.88332,702.98618 528.88332,701.3744 529.23473,699.97724 529.93252,698.76377 L 529.93652,698.75777 529.94052,698.75077 C 530.61159,697.50012 531.54395,696.53988 532.76217,695.8394 533.9774,695.14064 535.35562,694.7902 536.93332,694.7902 Z"
       id="path6525"
       inkscape:connector-curvature="0" />
    <path
       style="font-style:normal;font-variant:normal;font-weight:normal;font-stretch:normal;font-size:medium;line-height:125%;font-family:Comfortaa;-inkscape-font-specification:'Comfortaa, Normal';text-align:start;letter-spacing:0px;word-spacing:0px;writing-mode:lr-tb;text-anchor:start;fill:none;fill-opacity:1;stroke:#150000;stroke-width:0.35433099;stroke-linecap:butt;stroke-linejoin:miter;stroke-miterlimit:4;stroke-dasharray:none;stroke-opacity:1"
       d="M 173.01221,697.29759 C 175.84126,697.29759 178.36616,697.95389 180.62574,699.26598 L 180.62975,699.26798 C 182.86166,700.58355 184.61148,702.37462 185.89768,704.67142 V 704.67342 704.67542 C 187.18143,706.93724 187.82394,709.45232 187.82394,712.25233 187.82394,715.08424 187.18177,717.62892 185.89768,719.92261 V 719.92461 C 184.612,722.1893 182.86275,723.96609 180.62975,725.28227 178.36918,726.59583 175.84318,727.25066 173.01255,727.25066 169.99483,727.25066 167.4068,726.43911 165.12253,724.97832 L 169.68552,720.41716 C 170.14374,719.95893 170.40878,719.37639 170.40878,718.76006 170.40878,718.14373 170.14434,717.55995 169.68552,717.10112 169.2512,716.66681 168.67681,716.4218 168.07236,716.4218 167.44435,716.4218 166.85466,716.66174 166.41526,717.10112 L 161.6234,721.89299 C 160.64126,720.65817 159.78733,719.32453 159.21372,717.76763 158.57067,716.02215 158.24875,714.18836 158.24875,712.25249 158.24875,709.45248 158.88945,706.9374 160.1732,704.67559 L 160.17519,704.67359 V 704.67159 C 161.46124,702.37506 163.2256,700.58439 165.49074,699.26815 L 165.49274,699.26615 H 165.49475 C 167.72315,697.95353 170.21501,697.29776 173.01306,697.29776 Z"
       id="path6523"
       inkscape:connector-curvature="0" />
    <path
       style="font-style:normal;font-variant:normal;font-weight:normal;font-stretch:normal;font-size:medium;line-height:125%;font-family:Comfortaa;-inkscape-font-specification:'Comfortaa, Normal';text-align:start;letter-spacing:0px;word-spacing:0px;writing-mode:lr-tb;text-anchor:start;fill:none;fill-opacity:1;stroke:#150000;stroke-width:0.35433099;stroke-linecap:butt;stroke-linejoin:miter;stroke-miterlimit:4;stroke-dasharray:none;stroke-opacity:1"
       d="M 432.08663,695.42428 V 710.20638 H 425.40145 C 423.84915,710.20638 422.47778,709.89643 421.25776,709.28719 L 421.25577,709.28519 H 421.25377 C 419.99854,708.64144 419.05897,707.78793 418.39733,706.70523 L 418.39532,706.70123 418.39133,706.69723 C 417.69895,705.61354 417.35312,704.39184 417.35312,702.98569 417.35312,701.51085 417.70239,700.21756 418.39866,699.06723 L 418.40265,699.06123 418.40666,699.05723 C 419.0731,697.90608 419.99333,697.02541 421.21183,696.38572 422.42944,695.74647 423.81674,695.42258 425.40129,695.42258 Z"
       id="path6497"
       inkscape:connector-curvature="0" />
    <path
       style="font-style:normal;font-variant:normal;font-weight:normal;font-stretch:normal;font-size:medium;line-height:125%;font-family:Comfortaa;-inkscape-font-specification:'Comfortaa, Normal';text-align:start;letter-spacing:0px;word-spacing:0px;writing-mode:lr-tb;text-anchor:start;fill:none;fill-opacity:1;stroke:#150000;stroke-width:0.35433099;stroke-linecap:butt;stroke-linejoin:miter;stroke-miterlimit:4;stroke-dasharray:none;stroke-opacity:1"
       d="M 109.45009,697.29759 C 106.61945,697.29759 104.09345,697.9524 101.8329,699.26597 99.599814,700.58167 97.851634,702.37542 96.564964,704.67308 V 704.67508 H 96.562964 C 95.279224,706.93691 94.640364,709.45014 94.640364,712.25016 94.640364,715.08114 95.279704,717.62735 96.562964,719.92044 V 719.92244 L 96.564964,719.92444 C 97.850974,722.18881 99.599514,723.96625 101.8329,725.28211 H 101.8349 C 104.09503,726.59507 106.62027,727.25049 109.45025,727.25049 112.2483,727.25049 114.74199,726.59474 116.97039,725.28211 H 116.97239 C 119.23897,723.96504 121.00043,722.18602 122.28611,719.92078 V 719.92478 C 123.5709,717.63051 124.21421,715.08316 124.21421,712.25083 124.21422,709.45104 123.56995,706.93776 122.28611,704.67575 V 704.67375 C 120.99997,702.37704 119.23741,700.58281 116.97239,699.26664 H 116.97039 C 114.74199,697.95401 112.2483,697.29826 109.45025,697.29826 Z"
       id="path6495"
       inkscape:connector-curvature="0" />
    <path
       style="font-style:normal;font-variant:normal;font-weight:normal;font-stretch:normal;font-size:medium;line-height:125%;font-family:Comfortaa;-inkscape-font-specification:'Comfortaa, Normal';text-align:start;letter-spacing:0px;word-spacing:0px;writing-mode:lr-tb;text-anchor:start;fill:none;fill-opacity:1;stroke:#150000;stroke-width:0.35433099;stroke-linecap:butt;stroke-linejoin:miter;stroke-miterlimit:4;stroke-dasharray:none;stroke-opacity:1"
       d="M 77.647084,697.29357 C 74.817364,697.29357 72.289764,697.94933 70.029894,699.26196 L 70.027894,699.26396 C 67.795424,700.57955 66.050184,702.36995 64.763624,704.66741 L 64.759624,704.66941 V 704.67141 C 63.475884,706.93324 62.837014,709.4483 62.837014,712.24832 62.837014,715.07997 63.475774,717.6251 64.759624,719.91861 L 64.763624,719.92061 C 66.049594,722.18546 67.794674,723.96228 70.027894,725.27827 L 70.029894,725.28027 C 72.289954,726.593 74.817584,727.25049 77.647084,727.25049 80.444914,727.25049 82.938644,726.59299 85.167214,725.28027 L 85.169214,725.27827 C 87.435004,723.96168 89.195544,722.18469 90.481104,719.92061 91.765904,717.62634 92.411034,715.08083 92.411034,712.24849 92.411034,709.44869 91.766784,706.93358 90.482934,704.67158 V 704.66958 L 90.480934,704.66758 C 89.194784,702.37087 87.434084,700.58032 85.169034,699.26413 H 85.167034 V 699.26213 C 82.938644,697.9495 80.444944,697.29374 77.646894,697.29374 Z"
       id="path6469"
       inkscape:connector-curvature="0" />
    <path
       style="font-style:normal;font-variant:normal;font-weight:normal;font-stretch:normal;font-size:medium;line-height:125%;font-family:Comfortaa;-inkscape-font-specification:'Comfortaa, Normal';text-align:start;letter-spacing:0px;word-spacing:0px;writing-mode:lr-tb;text-anchor:start;fill:none;fill-opacity:1;stroke:#150000;stroke-width:0.35433099;stroke-linecap:butt;stroke-linejoin:miter;stroke-miterlimit:4;stroke-dasharray:none;stroke-opacity:1"
       d="M 396.28525,697.29758 V 727.48251 H 391.00632 C 388.1304,727.48251 385.60154,726.84 383.37996,725.55808 381.15089,724.23945 379.42208,722.44856 378.16513,720.15464 376.91035,717.86466 376.27914,715.27829 376.27914,712.36533 376.27914,709.45236 376.91035,706.86967 378.16513,704.57968 379.42161,702.28659 381.14788,700.51148 383.37448,699.22568 385.59694,697.9423 388.12876,697.29758 391.00632,697.29758 Z"
       id="path6467"
       inkscape:connector-curvature="0" />
    <path
       style="font-style:normal;font-variant:normal;font-weight:normal;font-stretch:normal;font-size:medium;line-height:125%;font-family:Comfortaa;-inkscape-font-specification:'Comfortaa, Normal';text-align:start;letter-spacing:0px;word-spacing:0px;writing-mode:lr-tb;text-anchor:start;fill:none;fill-opacity:1;stroke:#150000;stroke-width:0.35433099;stroke-linecap:butt;stroke-linejoin:miter;stroke-miterlimit:4;stroke-dasharray:none;stroke-opacity:1"
       d="M 45.843735,697.29357 C 43.014015,697.29357 40.486414,697.94933 38.226544,699.26196 L 38.224545,699.26396 C 35.992075,700.57955 34.246834,702.36995 32.960275,704.66741 L 32.956275,704.66941 V 704.67141 C 31.672535,706.93324 31.033665,709.4483 31.033665,712.24832 31.033665,715.07997 31.672425,717.6251 32.956275,719.91861 L 32.960275,719.92061 C 34.246245,722.18546 35.991325,723.96228 38.224545,725.27827 L 38.226544,725.28027 C 40.486605,726.593 43.014235,727.25049 45.843735,727.25049 48.641564,727.25049 51.135295,726.59299 53.363865,725.28027 L 53.365865,725.27827 C 55.631655,723.96168 57.392195,722.18469 58.677755,719.92061 59.962555,717.62634 60.607685,715.08083 60.607685,712.24849 60.607685,709.44869 59.963435,706.93358 58.679585,704.67158 V 704.66958 L 58.677585,704.66758 C 57.391435,702.37087 55.630735,700.58032 53.365685,699.26413 H 53.363685 V 699.26213 C 51.135295,697.9495 48.641594,697.29374 45.843545,697.29374 Z"
       id="path6469-6"
       inkscape:connector-curvature="0" />
    <path
       style="font-style:normal;font-variant:normal;font-weight:normal;font-stretch:normal;font-size:medium;line-height:125%;font-family:Comfortaa;-inkscape-font-specification:'Comfortaa, Normal';text-align:start;letter-spacing:0px;word-spacing:0px;writing-mode:lr-tb;text-anchor:start;fill:none;fill-opacity:1;stroke:#150000;stroke-width:0.35433099;stroke-linecap:butt;stroke-linejoin:miter;stroke-miterlimit:4;stroke-dasharray:none;stroke-opacity:1"
       d="M 449.04729,712.43571 V 727.21598 H 442.36394 C 440.81165,727.21598 439.43846,726.90784 438.21843,726.29863 L 438.21644,726.29663 H 438.21444 C 436.95922,725.65291 436.01963,724.79937 435.358,723.71668 L 435.356,723.71268 435.352,723.70868 C 434.65974,722.62521 434.31562,721.40146 434.31562,719.9953 434.31562,718.52045 434.66291,717.2292 435.35932,716.07868 L 435.36132,716.07468 435.36732,716.06868 C 436.03377,714.91755 436.95401,714.03689 438.17249,713.39717 439.39011,712.75792 440.7792,712.43404 442.36378,712.43404 Z"
       id="path6591-1"
       inkscape:connector-curvature="0" />
    <path
       style="font-style:normal;font-variant:normal;font-weight:normal;font-stretch:normal;font-size:medium;line-height:125%;font-family:Comfortaa;-inkscape-font-specification:'Comfortaa, Normal';text-align:start;letter-spacing:0px;word-spacing:0px;writing-mode:lr-tb;text-anchor:start;fill:none;fill-opacity:1;stroke:#150000;stroke-width:0.35433099;stroke-linecap:butt;stroke-linejoin:miter;stroke-miterlimit:4;stroke-dasharray:none;stroke-opacity:1"
       d="M 432.08628,712.43592 V 727.21801 H 425.40111 C 423.84881,727.21801 422.47561,726.90805 421.2556,726.29882 L 421.25359,726.29682 H 421.2516 C 419.99637,725.65308 419.0586,724.79955 418.39697,723.71686 L 418.39498,723.71286 418.38898,723.70686 C 417.69679,722.62351 417.3526,721.40189 417.3526,719.99532 417.3526,718.52005 417.70204,717.22869 418.39814,716.07868 L 418.40013,716.07268 418.40214,716.06868 C 419.06836,714.9179 419.99414,714.03698 421.21281,713.39717 422.4306,712.75783 423.81588,712.43404 425.40043,712.43404 Z"
       id="path6559-2"
       inkscape:connector-curvature="0" />
    <path
       style="font-style:normal;font-variant:normal;font-weight:normal;font-stretch:normal;font-size:medium;line-height:125%;font-family:Comfortaa;-inkscape-font-specification:'Comfortaa, Normal';text-align:start;letter-spacing:0px;word-spacing:0px;writing-mode:lr-tb;text-anchor:start;fill:none;fill-opacity:1;stroke:#150000;stroke-width:0.35433099;stroke-linecap:butt;stroke-linejoin:miter;stroke-miterlimit:4;stroke-dasharray:none;stroke-opacity:1"
       d="M 526.654,694.79105 V 711.03435 H 520.75252 C 519.17516,711.03435 517.7953,710.69828 516.58137,710.03276 515.36046,709.33071 514.42808,708.38387 513.75789,707.16532 L 513.75589,707.16132 513.75189,707.15732 C 513.053,705.94194 512.70269,704.56393 512.70269,702.98618 512.70269,701.3744 513.0541,699.97724 513.75189,698.76377 L 513.75589,698.75777 513.75988,698.75077 C 514.43096,697.50012 515.36332,696.53988 516.58154,695.8394 517.79677,695.14064 519.17499,694.7902 520.75269,694.7902 Z"
       id="path6525-9"
       inkscape:connector-curvature="0" />
    <path
       style="font-style:normal;font-variant:normal;font-weight:normal;font-stretch:normal;font-size:medium;line-height:125%;font-family:Comfortaa;-inkscape-font-specification:'Comfortaa, Normal';text-align:start;letter-spacing:0px;word-spacing:0px;writing-mode:lr-tb;text-anchor:start;fill:none;fill-opacity:1;stroke:#150000;stroke-width:0.35433099;stroke-linecap:butt;stroke-linejoin:miter;stroke-miterlimit:4;stroke-dasharray:none;stroke-opacity:1"
       d="M 477.53306,709.59228 470.23631,727.21801 H 484.82981 Z"
       id="path6665-3"
       inkscape:connector-curvature="0" />
    <path
       style="font-style:normal;font-variant:normal;font-weight:normal;font-stretch:normal;font-size:medium;line-height:125%;font-family:Comfortaa;-inkscape-font-specification:'Comfortaa, Normal';text-align:start;letter-spacing:0px;word-spacing:0px;writing-mode:lr-tb;text-anchor:start;fill:none;fill-opacity:1;stroke:#150000;stroke-width:0.35433099;stroke-linecap:butt;stroke-linejoin:miter;stroke-miterlimit:4;stroke-dasharray:none;stroke-opacity:1"
       d="M 510.47337,694.79105 V 711.03435 H 504.57189 C 502.99453,711.03435 501.61467,710.69828 500.40073,710.03276 499.17983,709.33071 498.24745,708.38387 497.57726,707.16532 L 497.57526,707.16132 497.57126,707.15732 C 496.87237,705.94194 496.52207,704.56393 496.52207,702.98618 496.52207,701.3744 496.87347,699.97724 497.57126,698.76377 L 497.57526,698.75777 497.57925,698.75077 C 498.25033,697.50012 499.18269,696.53988 500.40092,695.8394 501.61614,695.14064 502.99436,694.7902 504.57206,694.7902 Z"
       id="path6525-9-1"
       inkscape:connector-curvature="0" />
    <path
       style="font-style:normal;font-variant:normal;font-weight:normal;font-stretch:normal;font-size:medium;line-height:125%;font-family:Comfortaa;-inkscape-font-specification:'Comfortaa, Normal';text-align:start;letter-spacing:0px;word-spacing:0px;writing-mode:lr-tb;text-anchor:start;fill:none;fill-opacity:1;stroke:#150000;stroke-width:0.35433099;stroke-linecap:butt;stroke-linejoin:miter;stroke-miterlimit:4;stroke-dasharray:none;stroke-opacity:1"
       d="M 486.90806,693.20121 479.61131,710.82694 H 494.20481 Z"
       id="path6665-9"
       inkscape:connector-curvature="0" />
    <path
       id="rect6819"
       style="fill:none;stroke:#150000;stroke-width:0.35433099;stroke-linejoin:round;stroke-miterlimit:4;stroke-dasharray:none;stroke-opacity:1"
       d="M 23.954483,687.70716 H 549.9159 L 549.9152,734.29811 H 23.953783 Z"
       sodipodi:nodetypes="ccccc"
       inkscape:connector-curvature="0" />
  </g>
</svg>
