<?xml version="1.0" encoding="UTF-8" standalone="no"?>
<!-- Created with Inkscape (http://www.inkscape.org/) -->

<svg
   width="227.43352mm"
   height="189.70967mm"
   viewBox="0 0 227.43352 189.70967"
   version="1.1"
   id="svg148054"
   inkscape:version="1.1.2 (0a00cf5339, 2022-02-04)"
   sodipodi:docname="circles.svg"
   xmlns:inkscape="http://www.inkscape.org/namespaces/inkscape"
   xmlns:sodipodi="http://sodipodi.sourceforge.net/DTD/sodipodi-0.dtd"
   xmlns="http://www.w3.org/2000/svg"
   xmlns:svg="http://www.w3.org/2000/svg">
  <sodipodi:namedview
     id="namedview148056"
     pagecolor="#ffffff"
     bordercolor="#666666"
     borderopacity="1.0"
     inkscape:pageshadow="2"
     inkscape:pageopacity="0.0"
     inkscape:pagecheckerboard="0"
     inkscape:document-units="mm"
     showgrid="false"
     inkscape:zoom="1.5554293"
     inkscape:cx="245.26991"
     inkscape:cy="451.6438"
     inkscape:window-width="3840"
     inkscape:window-height="2096"
     inkscape:window-x="0"
     inkscape:window-y="27"
     inkscape:window-maximized="1"
     inkscape:current-layer="layer1" />
  <defs
     id="defs148051" />
  <g
     inkscape:label="Calque 1"
     inkscape:groupmode="layer"
     id="layer1"
     transform="translate(-84.639531,30.852192)">
    <path
       id="path3652"
       style="fill:none;stroke:#ff0000;stroke-width:0.1;stroke-linecap:round;stroke-linejoin:round;stroke-miterlimit:4;stroke-dasharray:none;stroke-opacity:1"
       d="m 84.689511,64.003287 c 0,9.069916 4.828381,17.453239 12.671954,22.006454 -4.516173,7.865797 -4.50506,17.540549 0.0291,25.396029 4.535495,7.85442 12.907965,12.70132 21.977885,12.72328 0.0212,9.06913 4.8686,17.44134 12.72222,21.97683 7.85495,4.53416 17.52918,4.5458 25.39498,0.0299 4.55374,7.84358 12.93706,12.6709 22.00698,12.67169 9.06965,0 17.4543,-4.82864 22.00778,-12.67275 7.86526,4.51591 17.53975,4.50507 25.39497,-0.0288 7.85442,-4.53576 12.70132,-12.9085 12.72275,-21.97841 9.06939,-0.0212 17.44213,-4.8686 21.97788,-12.72276 0.57732,-1.01388 1.08426,-2.06666 1.51712,-3.14986 0.38709,1.07024 0.84905,2.12328 1.41446,3.14986 7.02813,12.17322 22.5941,16.34384 34.76625,9.31572 12.17295,-7.0276 16.34332,-22.593302 9.31545,-34.765987 -2.22382,-3.850217 -5.41787,-7.050617 -9.26359,-9.282113 2.21456,-3.855508 3.38111,-8.22325 3.38111,-12.669572 0,-4.446059 -1.16655,-8.814329 -3.38111,-12.669838 3.84572,-2.23176 7.03977,-5.431896 9.26359,-9.282112 2.23362,-3.869002 3.40942,-8.258175 3.40942,-12.7254 0,-9.092671 -4.8506,-17.494514 -12.72487,-22.0405851 -12.17215,-7.02839159 -27.73785,-2.8575 -34.76572,9.3157141 -0.56541,1.026584 -1.0279,2.07989 -1.41499,3.150394 -0.43286,-1.083733 -0.9398,-2.13651 -1.51712,-3.150394 -4.53549,-7.8544204 -12.90849,-12.7007932 -21.97788,-12.7227537 -0.0212,-9.0699165 -4.8686,-17.4426563 -12.72275,-21.9784083 -7.85522,-4.534164 -17.52997,-4.545541 -25.3955,-0.02937 -4.55375,-7.843838 -12.93813,-12.671425 -22.00725,-12.672219 -9.06992,0 -17.45298,4.82891 -22.00646,12.672219 -7.86553,-4.516173 -17.54028,-4.505061 -25.3955,0.02937 -7.85415,4.535752 -12.70106,12.9084918 -12.72222,21.9784083 -9.06965,0.021167 -17.44213,4.8683333 -21.977885,12.7227537 -4.5339,7.85495 -4.545012,17.529704 -0.0291,25.394973 -7.843573,4.553744 -12.67116,12.937066 -12.671954,22.006983 z m 6.099439,0 c 0,-7.672388 4.484423,-14.276123 10.9646,-17.398206 l 1.71556,-6.403446 c -4.051303,-5.944394 -4.633122,-13.905442 -0.79666,-20.549923 3.83672,-6.64501 11.02307,-10.1232225 18.19671,-9.586647 l 4.68657,-4.6860358 c -0.53684,-7.1739125 2.93952,-14.3605249 9.58506,-18.1972482 6.64527,-3.836193 14.60712,-3.253316 20.55098,0.798248 l 6.40239,-1.715558 c 3.12208,-6.480969 9.72529,-10.966185 17.39847,-10.966185 7.67265,0 14.27718,4.485216 17.39926,10.966185 l 6.40213,1.715029 c 5.94465,-4.0513 13.9057,-4.634441 20.55071,-0.797719 6.64501,3.8367233 10.12243,11.0228066 9.58612,18.196719 l 4.68709,4.686565 c 7.17339,-0.5363109 14.35974,2.940579 18.19619,9.586118 3.8362,6.644217 14.52933,36.678393 14.52933,44.351575 0,7.672916 -10.6926,37.707622 -14.52933,44.352372 -3.83672,6.64474 -11.0228,10.12163 -18.19619,9.58506 l -4.68656,4.68656 c 0.53631,7.17391 -2.94031,14.36026 -9.58559,18.19672 -6.64501,3.83619 -14.60632,3.25411 -20.55072,-0.79693 l -6.40318,1.7153 c -3.12208,6.4807 -9.72529,10.96565 -17.399,10.96565 -7.67238,0 -14.27506,-4.48468 -17.39714,-10.96459 l -6.40398,-1.71583 c -5.94439,4.0513 -13.90518,4.63286 -20.55019,0.7964 -6.64421,-3.83646 -10.12084,-11.02175 -9.58479,-18.19513 l -4.68815,-4.68815 c -7.17365,0.53684 -14.35894,-2.93952 -18.19566,-9.58454 -3.835934,-6.64448 -3.25438,-14.606053 0.79613,-20.550182 l -1.71556,-6.403711 C 95.273373,78.279674 90.78948,71.676203 90.78948,64.003287 Z m 35.22319,-10.996613 c 2.1799,3.120761 3.47662,6.900598 3.47662,10.996613 0,4.096808 -1.29619,7.875323 -3.4761,10.995818 l 1.66688,6.221942 c 3.44805,1.6129 6.4598,4.237037 8.50821,7.784571 2.04787,3.547268 2.81543,7.467335 2.48814,11.260142 l 4.55427,4.55533 c 3.7928,-0.32782 7.71287,0.4392 11.26014,2.48708 3.5478,2.0484 6.17273,5.06042 7.78563,8.509 l 6.22141,1.66714 c 3.12049,-2.1799 6.89927,-3.47663 10.99529,-3.47663 4.09601,0 7.87638,1.2962 10.99714,3.4761 l 6.22141,-1.66688 c 1.6129,-3.44831 4.2373,-6.46033 7.78457,-8.50873 3.54648,-2.04788 7.46787,-2.81543 11.26014,-2.48814 l 4.5548,-4.5548 c -0.32702,-3.792012 0.44,-7.712344 2.48761,-11.259612 2.04841,-3.547534 5.0599,-6.172729 8.50848,-7.785629 l 1.66714,-6.221413 c -2.17991,-3.12076 -3.4761,-6.899804 -3.4761,-10.995818 0,-4.09628 1.29619,-7.875588 3.4761,-10.996084 l -1.66714,-6.221412 c -3.44805,-1.6129 -6.46007,-4.237567 -8.50848,-7.784571 -2.04813,-3.547798 -2.81516,-7.468393 -2.48761,-11.261195 l -4.5548,-4.554802 c -3.79254,0.327289 -7.71366,-0.439209 -11.26067,-2.487084 -3.54779,-2.048139 -6.17167,-5.059891 -7.78457,-8.508206 l -6.22141,-1.666875 c -3.12076,2.179373 -6.9006,3.476096 -10.99661,3.476096 -4.09575,0 -7.874,-1.296723 -10.99476,-3.476096 l -6.22194,1.667404 c -1.6129,3.447786 -4.2381,6.459538 -7.78563,8.507677 -3.54701,2.047875 -7.46707,2.814109 -11.25961,2.487084 l -4.55533,4.556389 c 0.32729,3.792008 -0.43974,7.712604 -2.48761,11.259608 -2.04841,3.547798 -5.06016,6.1722 -8.50927,7.7851 z m 6.19601,23.666186 c 2.2143,-3.855509 3.38005,-8.22378 3.38111,-12.670102 0,-4.445794 -1.16629,-8.8138 -3.38005,-12.668779 3.84519,-2.23229 7.03844,-5.433484 9.26174,-9.2837 2.22223,-3.850482 3.39725,-8.215842 3.40704,-12.661371 4.44632,-0.01058 8.81194,-1.185598 12.66295,-3.408627 3.84969,-2.223558 7.04983,-5.417079 9.28159,-9.261739 3.8555,2.214297 8.22378,3.379522 12.6701,3.380052 4.44579,0 8.81512,-1.16549 12.67089,-3.379259 2.23203,3.844925 5.43216,7.037917 9.28212,9.261475 3.85101,2.222236 8.21716,3.396986 12.66322,3.40704 0.0106,4.445793 1.18454,8.811683 3.40651,12.662429 2.22382,3.849952 5.41734,7.050352 9.26253,9.282112 -2.21403,3.855773 -3.37899,8.224308 -3.37952,12.670367 0,4.446322 1.16602,8.814329 3.37952,12.670102 -3.84519,2.232024 -7.03871,5.432424 -9.26253,9.282641 -2.22197,3.850481 -3.39646,8.216635 -3.40651,12.662429 -4.44606,0.01058 -8.81221,1.185069 -12.66322,3.40783 -3.84996,2.22383 -7.05009,5.41708 -9.28212,9.26254 -3.85577,-2.2143 -8.2251,-3.37979 -12.67089,-3.38058 -4.44606,0 -8.81433,1.16628 -12.66957,3.38058 -2.23176,-3.84546 -5.43216,-7.03871 -9.28212,-9.26254 -3.85101,-2.222761 -8.21663,-3.397776 -12.66295,-3.40783 -0.0106,-4.445794 -1.1856,-8.811948 -3.4081,-12.662429 -2.2233,-3.850217 -5.41655,-7.050617 -9.26174,-9.282641 z" />
    <path
       id="path155517-0-4"
       style="color:#000000;fill:none;stroke:#ff0000;stroke-width:0.1;stroke-linecap:square;stroke-miterlimit:4;stroke-dasharray:none;stroke-opacity:1"
       d="m 92.78992,64.00262 c 0,3.4618 1.0181,6.6868 2.7656,9.3943 l 0.2292,0.3535 6.3198,-4.5898 -0.1839,-0.3143 c -0.8411,-1.4232 -1.3316,-3.0721 -1.3316,-4.8437 0,-1.7705 0.4905,-3.4207 1.3316,-4.844 l 0.1839,-0.3143 -0.2929,-0.2127 -6.0269,-4.3792 -0.2292,0.3556 c -1.7475,2.7072 -2.7656,5.9338 -2.7656,9.3946 z m 3.6385,10.6407 0.2699,0.3281 c 3.1811,3.8941 8.0227,6.3812 13.4416,6.3812 1.5304,0 3.0133,-0.2003 4.4275,-0.5725 l 0.4099,-0.1077 -0.1302,-0.4024 -2.2836,-7.0271 -0.3535,0.078 c -0.6691,0.1479 -1.3602,0.2305 -2.0701,0.2305 -2.8503,0 -5.3959,-1.2512 -7.1469,-3.2303 l -0.2418,-0.2712 z m 0,-21.2812 6.3228,4.5935 0.2397,-0.2713 c 1.751,-1.9787 4.2966,-3.2323 7.1469,-3.2323 0.7094,0 1.3989,0.084 2.068,0.2321 l 0.3556,0.078 2.4138,-7.4295 -0.4099,-0.1077 c -1.4142,-0.3723 -2.8971,-0.5721 -4.4275,-0.5721 -5.4189,0 -10.2605,2.4876 -13.4416,6.381 z m 5.36,10.6405 c 0,4.607 3.742,8.3494 8.3494,8.3494 4.6067,0 8.3489,-3.7424 8.3492,-8.3494 0,-4.6064 -3.7425,-8.3497 -8.3492,-8.3497 -4.6074,0 -8.3494,3.7433 -8.3494,8.3497 z m 0.2939,34.4373 c -0.045,3.0258 0.6996,6.104 2.322,8.9141 1.7306,2.9979 4.2249,5.2823 7.0919,6.7533 l 0.3746,0.1915 3.1793,-7.135 -0.3167,-0.1802 c -1.4402,-0.812 -2.6895,-1.9949 -3.5751,-3.529 -0.8853,-1.5335 -1.2853,-3.2078 -1.2687,-4.8607 v -0.3638 l -0.3603,-0.038 -7.4091,-0.7787 -0.02,0.4223 c -0.01,0.2011 -0.016,0.4027 -0.02,0.6045 z m 0,-68.875 c 0,0.2019 0.01,0.4035 0.02,0.6047 l 0.021,0.4202 7.7686,-0.8145 v -0.3643 c -0.017,-1.6532 0.3824,-3.3267 1.2682,-4.8607 0.8856,-1.5335 2.1354,-2.717 3.5753,-3.529 l 0.3149,-0.1802 -0.1474,-0.3307 -3.0308,-6.8064 -0.3757,0.1936 c -2.867,1.4712 -5.3615,3.7558 -7.0919,6.7533 -1.6227,2.8104 -2.367,5.8883 -2.322,8.914 z m 0.1529,2.12 0.07,0.4196 c 0.808,4.9628 3.7573,9.5369 8.45,12.2462 1.3253,0.7652 2.7104,1.3335 4.1214,1.7183 l 0.4077,0.1121 0.088,-0.4138 1.5361,-7.2271 -0.345,-0.1095 c -0.6535,-0.2064 -1.2938,-0.4813 -1.9084,-0.8361 -2.4683,-1.425 -4.0466,-3.7811 -4.5733,-6.3706 l -0.075,-0.3563 z m 0,64.6342 7.7721,0.8171 0.072,-0.3551 c 0.527,-2.589 2.1045,-4.9478 4.5728,-6.3727 0.6144,-0.3548 1.2536,-0.6272 1.9074,-0.833 l 0.3466,-0.1101 -1.6235,-7.6414 -0.4088,0.1117 c -1.411,0.3847 -2.795,0.9533 -4.1206,1.7187 -4.6929,2.7094 -7.6414,7.2845 -8.4497,12.2467 z m 8.8461,2.1828 c -0.034,1.4771 0.3238,2.9813 1.1157,4.3527 2.3032,3.9897 7.416,5.3593 11.4059,3.0556 3.9894,-2.3031 5.3594,-7.4155 3.0562,-11.4054 -2.3034,-3.9894 -7.4165,-5.3594 -11.4061,-3.0562 -2.6184,1.5119 -4.108,4.2333 -4.1717,7.0533 z m 0,-68.9983 c 0.064,2.8199 1.5533,5.5409 4.1717,7.0527 3.9896,2.3032 9.1024,0.9341 11.4061,-3.0557 2.3032,-3.9893 0.9332,-9.1026 -3.0562,-11.4059 -3.9899,-2.3037 -9.1027,-0.9335 -11.4059,3.0562 -0.7919,1.3713 -1.1493,2.8755 -1.1157,4.3527 z m 1.7925,85.2463 0.398,0.1495 c 4.7019,1.7817 10.1385,1.5145 14.8312,-1.1948 1.3253,-0.7652 2.5095,-1.6804 3.548,-2.7099 l 0.3019,-0.2977 -0.3148,-0.2831 -5.4907,-4.944 -0.2672,0.244 c -0.5056,0.4625 -1.0631,0.88 -1.6777,1.235 -2.4683,1.4251 -5.2983,1.6143 -7.8042,0.7758 l -0.3458,-0.1138 z m 0,-101.4933 3.1787,7.1389 0.3437,-0.1148 c 2.5056,-0.8379 5.3369,-0.6514 7.8052,0.7737 0.6144,0.3548 1.17,0.772 1.6754,1.235 l 0.2685,0.2456 5.8055,-5.2271 -0.3013,-0.2982 c -1.0388,-1.0295 -2.2231,-1.9442 -3.5486,-2.7094 -4.6927,-2.7093 -10.1291,-2.976 -14.8307,-1.1948 z m 0.7313,41.8417 0.3337,0.1463 c 3.1149,1.3549 5.3652,4.3188 5.6994,7.846 l 0.033,0.3611 h 7.8067 l -0.024,-0.422 c -0.3833,-6.9435 -4.8511,-12.7963 -11.0426,-15.2011 l -0.3948,-0.1521 z m 6e-4,17.8067 2.4122,7.424 0.3942,-0.1527 c 6.1918,-2.4048 10.6598,-8.2595 11.0432,-15.2032 l 0.023,-0.4215 h -0.4214 -7.3832 l -0.035,0.3633 c -0.3342,3.5269 -2.585,6.4907 -5.6994,7.8454 z m 2.7516,8.695 1.6227,7.6332 0.3617,-0.04 c 3.375,-0.3839 6.8059,1.0575 8.8588,3.9452 l 0.2093,0.2961 6.7609,-3.9036 -0.2315,-0.354 c -3.8037,-5.8216 -10.5995,-8.6561 -17.1638,-7.643 z m 6e-4,-35.1941 0.4175,0.065 c 6.5648,1.0134 13.3617,-1.8235 17.1654,-7.6451 l 0.2309,-0.353 -0.3653,-0.2108 -6.394,-3.6912 -0.2119,0.2966 c -2.0529,2.8874 -5.4843,4.3291 -8.8588,3.9449 l -0.3611,-0.042 z m 10.5254,58.2481 5.8007,5.2228 0.2651,-0.3291 c 4.1598,-5.1784 5.102,-12.4828 1.9622,-18.6878 l -0.1908,-0.3768 -0.3654,0.2109 -6.3934,3.6915 0.1511,0.332 c 1.474,3.2216 1.0067,6.9136 -1.0128,9.6441 z m 5e-4,-81.3041 0.2162,0.2934 c 2.0198,2.7308 2.4868,6.4228 1.0128,9.6446 l -0.1522,0.3291 6.7609,3.9037 0.1903,-0.3773 c 3.1398,-6.205 2.1968,-13.5078 -1.9627,-18.6862 l -0.2656,-0.3291 z m 0.5773,100.8766 c 0.021,2.0534 0.4069,4.0844 1.1306,5.9944 l 0.1505,0.3964 7.139,-3.1788 -0.1148,-0.3436 c -0.838,-2.5057 -0.6509,-5.337 0.7742,-7.8053 0.3548,-0.6143 0.772,-1.1699 1.235,-1.6753 l 0.2456,-0.2685 -5.2271,-5.8055 -0.2982,0.3008 c -1.0295,1.0387 -1.9442,2.2236 -2.7094,3.5491 -1.6086,2.7863 -2.3566,5.8351 -2.3254,8.8363 z m 0,-120.4476 c -0.031,3.0012 0.7162,6.0494 2.3249,8.8358 0.7652,1.3253 1.6804,2.5101 2.7099,3.5486 l 0.2976,0.3013 0.2831,-0.3143 4.9446,-5.4912 -0.244,-0.2672 c -0.4625,-0.5056 -0.88,-1.0631 -1.2351,-1.6777 -1.425,-2.4683 -1.6142,-5.2983 -0.7757,-7.8042 l 0.1138,-0.3452 -7.139,-3.1787 -0.1495,0.3979 c -0.7237,1.91 -1.1094,3.9415 -1.1306,5.9949 z m 1.7291,127.843 0.1936,0.3757 c 1.4711,2.867 3.7558,5.362 6.7533,7.0924 2.9977,1.7309 6.2997,2.462 9.5181,2.3024 l 0.4207,-0.021 -0.8149,-7.7685 h -0.3638 c -1.6532,0.017 -3.3267,-0.3828 -4.8607,-1.2686 -1.5335,-0.8856 -2.7175,-2.135 -3.5295,-3.5748 l -0.1797,-0.3149 -0.3307,0.1474 z m 0,-135.2399 7.135,3.1787 0.1797,-0.3162 c 0.812,-1.4401 1.9949,-2.69 3.529,-3.5756 1.5335,-0.8853 3.2083,-1.2853 4.8612,-1.2687 h 0.3638 l 0.038,-0.3598 0.7782,-7.4096 -0.4223,-0.02 c -3.2184,-0.1596 -6.5212,0.5717 -9.5187,2.3024 -2.9977,1.7306 -5.2816,4.2254 -6.7527,7.0924 z m 4.4214,20.8163 0.3297,0.2651 c 5.1784,4.1598 12.4828,5.1015 18.6878,1.9616 l 0.3768,-0.1902 -0.2109,-0.3659 -3.6917,-6.3934 -0.3318,0.1516 c -3.2216,1.474 -6.9141,1.0062 -9.6446,-1.0133 l -0.2919,-0.2167 z m 6e-4,93.6093 5.2213,5.7992 0.2939,-0.2157 c 2.7308,-2.0198 6.4228,-2.487 9.6446,-1.0128 l 0.3291,0.1519 3.9037,-6.7607 -0.3778,-0.1907 c -6.205,-3.1398 -13.5073,-2.1969 -18.6857,1.9627 z m 2.8498,-107.0456 c -0.033,1.4771 0.3244,2.981 1.1163,4.3526 2.3032,3.9894 7.416,5.3594 11.4059,3.0562 3.9894,-2.3034 5.3594,-7.416 3.0562,-11.4056 -2.3035,-3.9899 -7.4165,-5.3594 -11.4059,-3.056 -2.6183,1.5116 -4.1085,4.2329 -4.1725,7.0528 z m 5e-4,120.4809 c 0.064,2.8199 1.5542,5.5412 4.1725,7.0527 3.9897,2.3038 9.1019,0.934 11.4054,-3.0559 2.3032,-3.9896 0.9334,-9.1019 -3.0562,-11.4057 -3.9894,-2.3031 -9.1027,-0.9331 -11.4059,3.0562 -0.7919,1.3716 -1.1494,2.8756 -1.1158,4.3527 z m 9.8894,9.244 0.817,7.7722 0.4191,-0.069 c 4.9628,-0.808 9.5374,-3.7568 12.2468,-8.4497 0.7651,-1.3253 1.3335,-2.7101 1.7182,-4.1211 l 0.1121,-0.4088 -0.4138,-0.088 -7.2276,-1.5361 -0.1095,0.3444 c -0.2064,0.6536 -0.4808,1.2939 -0.8356,1.9085 -1.425,2.4683 -3.7814,4.0471 -6.3706,4.5738 z m 0,-138.9679 0.3551,0.072 c 2.5889,0.527 4.9472,2.1045 6.3722,4.5728 0.3548,0.6143 0.6276,1.2536 0.8334,1.9074 l 0.1101,0.3471 7.6409,-1.6235 -0.1116,-0.4088 c -0.3847,-1.411 -0.9528,-2.7956 -1.7182,-4.1211 -2.7094,-4.6929 -7.2846,-7.6414 -12.2468,-8.4497 l -0.4181,-0.068 z m 3.7015,121.5591 0.2972,0.2125 c 2.8874,2.0529 4.3285,5.4837 3.9444,8.8582 l -0.042,0.3612 7.6353,1.6232 0.065,-0.4175 c 1.0133,-6.5648 -1.823,-13.3617 -7.6446,-17.1654 l -0.353,-0.2309 -0.2114,0.3653 z m 0,-104.1545 3.9037,6.7609 0.3535,-0.2315 c 5.8216,-3.8037 8.6566,-10.5995 7.6435,-17.1638 l -0.066,-0.4175 -7.6333,1.6221 0.04,0.3622 c 0.3836,3.3752 -1.0575,6.8055 -3.9452,8.8583 z m 12.082,121.4329 c 0,5.4189 2.4876,10.26 6.3809,13.4411 l 0.3289,0.2677 4.5934,-6.3222 -0.2712,-0.2402 c -1.9788,-1.751 -3.2324,-4.2961 -3.2324,-7.1464 0,-0.7094 0.084,-1.3994 0.2321,-2.0685 l 0.078,-0.3556 -7.4295,-2.4138 -0.1077,0.4098 c -0.3722,1.4142 -0.5725,2.8977 -0.5725,4.4281 z m 0,-138.7081 c 0,1.5304 0.2003,3.0139 0.5725,4.4281 l 0.1077,0.4098 0.4024,-0.1307 7.0271,-2.2831 -0.078,-0.3535 c -0.1479,-0.6691 -0.2305,-1.3607 -0.2305,-2.0706 0,-2.8503 1.2512,-5.3954 3.2303,-7.1464 l 0.2712,-0.2423 -4.5934,-6.3223 -0.3284,0.2699 c -3.8939,3.1811 -6.3809,8.0222 -6.3809,13.4411 z m 1.0231,5.8833 0.1532,0.3942 c 2.4048,6.1918 8.2595,10.6598 15.2032,11.0432 l 0.4215,0.023 v -0.422 -7.3827 l -0.3633,-0.035 c -3.5269,-0.3342 -6.4907,-2.585 -7.8454,-5.6994 l -0.1447,-0.3336 z m 5e-4,126.9426 7.4219,2.4116 0.1468,-0.3336 c 1.3549,-3.1149 4.3188,-5.3652 7.846,-5.6994 l 0.3606,-0.033 v -7.8073 l -0.4215,0.024 c -6.9435,0.3833 -12.7963,4.8511 -15.2011,11.0426 z m 6.5765,20.2374 0.3556,0.2291 c 2.7072,1.7476 5.9333,2.7652 9.394,2.7652 3.4619,0 6.6869,-1.0176 9.3943,-2.7652 l 0.3535,-0.2291 -4.5892,-6.3198 -0.3143,0.1833 c -1.4232,0.8411 -3.0726,1.3317 -4.8443,1.3317 -1.7705,0 -3.4202,-0.4906 -4.8434,-1.3317 l -0.3149,-0.1833 -0.2122,0.2923 z m 0,-167.4185 4.5892,6.3203 0.3149,-0.1838 c 1.4232,-0.8412 3.0721,-1.3317 4.8434,-1.3317 1.7709,0 3.4211,0.4905 4.8443,1.3317 l 0.3143,0.1838 0.2122,-0.2929 4.3797,-6.0274 -0.3562,-0.2286 c -2.7072,-1.7476 -5.9332,-2.7657 -9.3943,-2.7657 -3.4615,0 -6.6865,1.0181 -9.394,2.7657 z m 1.3984,153.0633 c 0,4.6074 3.7428,8.3494 8.3491,8.3494 4.607,0 8.35,-3.742 8.35,-8.3494 0,-4.6067 -3.743,-8.3495 -8.35,-8.3497 -4.6063,0 -8.3491,3.743 -8.3491,8.3497 z m 0,-138.7081 c 0,4.6067 3.7425,8.3495 8.3491,8.3497 4.6067,0 8.35,-3.743 8.35,-8.3497 0,-4.6074 -3.7433,-8.3494 -8.35,-8.3494 -4.6066,0 -8.3491,3.742 -8.3491,8.3494 z m 8.8987,129.1688 0.3633,0.035 c 3.5269,0.3342 6.4907,2.585 7.8454,5.6994 l 0.1447,0.3336 7.424,-2.4122 -0.1532,-0.3942 c -2.4048,-6.1918 -8.2595,-10.6598 -15.2033,-11.0432 l -0.4209,-0.023 v 0.422 z m 0,-111.8248 0.4215,-0.024 c 6.9434,-0.3833 12.7968,-4.8511 15.2016,-11.0426 l 0.1521,-0.3942 -7.4218,-2.4117 -0.1463,0.3331 c -1.3549,3.1149 -4.3188,5.3652 -7.846,5.6994 l -0.3611,0.033 z m 5.4962,128.7528 4.5934,6.3228 0.3286,-0.2704 c 3.8941,-3.1811 6.3807,-8.0222 6.3807,-13.4411 0,-1.5304 -0.1998,-3.0139 -0.572,-4.4281 l -0.1082,-0.4098 -0.4019,0.1307 -7.0276,2.2831 0.078,0.3535 c 0.1479,0.6692 0.2305,1.3608 0.2305,2.0706 0,2.8504 -1.2513,5.3954 -3.2303,7.1465 z m 0,-153.4834 0.2706,0.2402 c 1.9789,1.751 3.2324,4.2961 3.2324,7.1464 0,0.7094 -0.083,1.3994 -0.2315,2.0685 l -0.078,0.3556 7.429,2.4138 0.1082,-0.4098 c 0.3722,-1.4142 0.572,-2.8977 0.572,-4.4281 0,-5.4189 -2.4876,-10.26 -6.381,-13.4411 l -0.3283,-0.2677 z m 11.2826,16.4938 c -0.056,5.751 2.7519,11.3708 7.8459,14.699 l 0.3541,0.2309 0.2108,-0.3654 3.6912,-6.3933 -0.2966,-0.2125 c -2.8874,-2.0529 -4.3291,-5.4838 -3.9449,-8.8583 l 0.041,-0.3611 -7.6353,-1.6232 -0.065,0.4175 c -0.1265,0.8207 -0.1929,1.6449 -0.2008,2.4664 z m 3e-4,120.4937 c 0.01,0.8212 0.075,1.6459 0.2016,2.4664 l 0.066,0.4175 7.6337,-1.6221 -0.04,-0.3623 c -0.3839,-3.375 1.0575,-6.8058 3.9452,-8.8587 l 0.2961,-0.2088 -3.9042,-6.7614 -0.3535,0.232 c -5.0938,3.3282 -7.901,8.9469 -7.8446,14.6974 z m 0.4916,3.9608 0.1116,0.4088 c 0.3847,1.411 0.9533,2.7955 1.7187,4.1211 2.7094,4.6929 7.2845,7.6414 12.2468,8.4497 l 0.4181,0.068 0.817,-7.7716 -0.3551,-0.073 c -2.5889,-0.527 -4.9477,-2.1045 -6.3727,-4.5728 -0.3548,-0.6145 -0.6271,-1.2536 -0.8329,-1.9072 l -0.1106,-0.3473 z m 0,-128.4153 0.4138,0.088 7.2271,1.5361 0.1095,-0.345 c 0.2064,-0.6535 0.4813,-1.2933 0.8361,-1.9079 1.425,-2.4683 3.7811,-4.0476 6.3706,-4.5744 l 0.3561,-0.074 -0.817,-7.7716 -0.4191,0.07 c -4.9628,0.808 -9.5374,3.7568 -12.2468,8.4497 -0.7651,1.3253 -1.3335,2.7104 -1.7182,4.1212 z m 8.5084,124.092 c -0.034,1.4771 0.3244,2.9813 1.1163,4.3529 2.3035,3.9899 7.4165,5.3594 11.4059,3.0559 3.9897,-2.3034 5.3594,-7.4154 3.0557,-11.4054 -2.3035,-3.9893 -7.4157,-5.3594 -11.4054,-3.0562 -2.6183,1.5116 -4.1084,4.2329 -4.1725,7.0528 z m 0,-119.7692 c 0.064,2.8199 1.5537,5.5414 4.172,7.0532 3.9894,2.3032 9.1024,0.9332 11.4059,-3.0562 2.3035,-3.9899 0.9334,-9.1022 -3.0562,-11.4054 -3.9897,-2.3037 -9.1019,-0.9339 -11.4054,3.056 -0.7919,1.3716 -1.1496,2.8752 -1.1163,4.3524 z m 0.1508,104.6525 0.2109,0.3654 3.6912,6.3939 0.3323,-0.1516 c 3.2216,-1.474 6.9136,-1.0065 9.6441,1.0133 l 0.2924,0.2167 5.2228,-5.8012 -0.3291,-0.2651 c -5.1784,-4.1598 -12.4828,-5.1015 -18.6878,-1.9617 z m 0,-89.5348 0.3773,0.1908 c 6.205,3.1398 13.5078,2.1968 18.6862,-1.9627 l 0.3291,-0.2661 -5.2218,-5.7992 -0.2934,0.2157 c -2.731,2.0198 -6.4228,2.487 -9.6446,1.0128 l -0.3291,-0.1519 z m 6.9289,122.1367 0.4223,0.02 c 3.2184,0.1595 6.5214,-0.5713 9.5186,-2.3019 2.9978,-1.7306 5.2816,-4.2254 6.7527,-7.0924 l 0.1921,-0.3747 -7.135,-3.1787 -0.1802,0.3162 c -0.812,1.4401 -1.9949,2.6895 -3.529,3.5751 -1.5335,0.8855 -3.2075,1.2857 -4.8607,1.2686 h -0.3643 l -0.038,0.3599 z m 0,-154.7381 0.8144,7.7684 h 0.3643 c 1.6529,-0.017 3.3266,0.3829 4.8607,1.2687 1.5335,0.8853 2.717,2.1349 3.529,3.5748 l 0.1802,0.3149 0.3307,-0.1474 6.8064,-3.0303 -0.1936,-0.3762 c -1.4711,-2.867 -3.7558,-5.3615 -6.7533,-7.0919 -2.9977,-1.7309 -6.3002,-2.462 -9.5186,-2.3024 z m 8.0547,130.7119 0.244,0.2672 c 0.4625,0.5053 0.88,1.0631 1.2351,1.6777 1.425,2.4683 1.6139,5.2983 0.7754,7.8042 l -0.1135,0.3452 7.139,3.1787 0.1495,-0.3979 c 1.7817,-4.7019 1.5145,-10.138 -1.1948,-14.8307 -0.7652,-1.3253 -1.6804,-2.5101 -2.7099,-3.5486 l -0.2977,-0.3013 -0.2831,0.3143 z m 0,-106.6867 5.2271,5.8055 0.2982,-0.3013 c 1.0295,-1.0385 1.9442,-2.2231 2.7094,-3.5486 2.7093,-4.6927 2.9755,-10.1291 1.1943,-14.8307 l -0.1506,-0.3964 -7.1389,3.1787 0.1148,0.3437 c 0.8379,2.5056 0.6514,5.3369 -0.7737,7.8052 -0.3548,0.6144 -0.772,1.17 -1.235,1.6754 z m 1.2454,88.0923 c 0.02,3.8981 1.3563,7.7216 3.8262,10.7963 l 0.2656,0.3291 5.7997,-5.2218 -0.2162,-0.2934 c -2.0198,-2.7308 -2.4868,-6.4228 -1.0128,-9.6446 l 0.1519,-0.3291 -6.7607,-3.9037 -0.1902,0.3773 c -1.2756,2.5207 -1.8775,5.2229 -1.8635,7.8899 z m 6e-4,-69.4966 c -0.014,2.6676 0.5879,5.3698 1.8634,7.8907 l 0.1908,0.3763 0.3654,-0.2109 6.3939,-3.6915 -0.1516,-0.332 c -1.474,-3.2216 -1.0068,-6.9136 1.0128,-9.6441 l 0.2172,-0.2924 -5.8012,-5.2228 -0.2651,0.3291 c -2.4699,3.0747 -3.8055,6.8993 -3.8256,10.7976 z m 2.6035,60.2772 0.3653,0.2108 6.3934,3.6918 0.212,-0.2972 c 2.0529,-2.8874 5.4842,-4.3291 8.8587,-3.9449 l 0.3612,0.041 1.6232,-7.6359 -0.418,-0.065 c -6.5649,-1.0133 -13.3617,1.823 -17.1654,7.6446 z m 5e-4,-51.058 0.2315,0.354 c 3.8036,5.8216 10.5995,8.6561 17.1638,7.643 l 0.418,-0.066 -1.6221,-7.6338 -0.3623,0.04 c -3.375,0.3839 -6.8058,-1.0578 -8.8587,-3.9455 l -0.2093,-0.2961 z m 2.2198,72.223 0.3014,0.2982 c 1.0388,1.0295 2.223,1.9442 3.5486,2.7094 4.6926,2.7093 10.1296,2.976 14.8312,1.1948 l 0.3958,-0.1511 -3.1787,-7.139 -0.3437,0.1149 c -2.5056,0.8379 -5.3369,0.6514 -7.8052,-0.7737 -0.6143,-0.3548 -1.1694,-0.772 -1.6748,-1.235 l -0.2691,-0.2456 z m 6e-4,-93.3891 0.3143,0.2831 5.4906,4.944 0.2678,-0.244 c 0.5053,-0.4625 1.0631,-0.88 1.6777,-1.2351 2.4683,-1.425 5.2983,-1.6137 7.8042,-0.7752 l 0.3452,0.1133 3.1787,-7.139 -0.3979,-0.1495 c -4.7019,-1.7817 -10.138,-1.5145 -14.8307,1.1948 -1.3253,0.7652 -2.5101,1.6804 -3.5486,2.7099 z m 4.1775,81.5496 c 0.064,2.8199 1.5539,5.5411 4.1719,7.0527 3.9899,2.3037 9.1027,0.9334 11.4059,-3.0562 2.3038,-3.9897 0.934,-9.1019 -3.0559,-11.4054 -3.9896,-2.3032 -9.1025,-0.9335 -11.4062,3.0562 -0.7916,1.3713 -1.1491,2.8755 -1.1157,4.3527 z m 0,-69.7101 c -0.033,1.4772 0.3241,2.9814 1.1157,4.3527 2.3035,3.9894 7.4166,5.3594 11.4062,3.0562 3.9899,-2.3035 5.3594,-7.416 3.0559,-11.4054 -2.3032,-3.9899 -7.4154,-5.3599 -11.4053,-3.0562 -2.6181,1.5116 -4.1082,4.2328 -4.1725,7.0527 z m 0.2947,35.4058 0.024,0.422 c 0.3834,6.9434 4.8512,12.7963 11.0427,15.2011 l 0.3947,0.1521 2.4117,-7.4218 -0.3331,-0.1463 c -3.1149,-1.3549 -5.3652,-4.3188 -5.6994,-7.846 l -0.033,-0.3611 z m 0,-1.0999 h 0.422 7.3827 l 0.035,-0.3633 c 0.3342,-3.5269 2.585,-6.4907 5.6994,-7.8454 l 0.3331,-0.1447 -2.4122,-7.424 -0.3937,0.1527 c -6.1918,2.4048 -10.6598,8.2595 -11.0432,15.2032 z m 8.9943,0.549 c 0,4.6064 3.743,8.3497 8.3497,8.3497 4.6072,0 8.3494,-3.7433 8.3494,-8.3497 0,-4.6069 -3.7422,-8.3494 -8.3494,-8.3494 -4.6067,0 -8.3495,3.7425 -8.3497,8.3494 z m 1.5787,25.463 0.345,0.1095 c 0.6536,0.2064 1.2939,0.4808 1.9085,0.8356 2.4683,1.425 4.0471,3.7811 4.5738,6.3706 l 0.074,0.3561 7.7716,-0.817 -0.07,-0.4191 c -0.8081,-4.9628 -3.7574,-9.5374 -8.45,-12.2468 -1.3253,-0.7651 -2.7099,-1.3335 -4.1209,-1.7182 l -0.4077,-0.1121 -0.088,0.4138 z m 0,-50.9257 1.6235,7.6414 0.4088,-0.1116 c 1.411,-0.3847 2.795,-0.9533 4.1206,-1.7188 4.6929,-2.7093 7.6419,-7.2845 8.4502,-12.2467 l 0.068,-0.4181 -7.7716,-0.817 -0.072,0.3551 c -0.5271,2.5889 -2.1045,4.9477 -4.5728,6.3727 -0.6144,0.3548 -1.2536,0.6271 -1.9074,0.8329 z m 1.8576,68.6242 0.1474,0.3307 3.0303,6.8064 0.3757,-0.1936 c 2.867,-1.4711 5.362,-3.7558 7.0924,-6.7533 1.7309,-2.9977 2.4614,-6.2997 2.3019,-9.5181 l -0.021,-0.4207 -7.7685,0.8144 v 0.3643 c 0.017,1.6533 -0.3828,3.3266 -1.2686,4.8608 -0.8856,1.5335 -2.1355,2.717 -3.5753,3.529 z m 0,-86.3227 0.3162,0.1802 c 1.4401,0.812 2.6895,1.9949 3.5751,3.529 0.8853,1.5335 1.2853,3.2078 1.2686,4.8607 v 0.3643 l 0.3599,0.038 7.4096,0.7787 0.02,-0.4223 c 0.1595,-3.2184 -0.5713,-6.5212 -2.3019,-9.5186 -1.7306,-2.9978 -4.2254,-5.2822 -7.0924,-6.7533 l -0.3747,-0.1915 z m 0.074,59.8313 0.4098,0.1077 c 1.4142,0.3722 2.8977,0.572 4.4281,0.572 5.4189,0 10.26,-2.4876 13.4411,-6.381 l 0.2677,-0.3283 -6.3222,-4.5934 -0.2402,0.2712 c -1.751,1.9788 -4.2963,3.2324 -7.1464,3.2324 -0.7094,0 -1.3994,-0.084 -2.0685,-0.2321 l -0.3556,-0.078 z m 0,-33.3399 0.1307,0.4024 2.2831,7.0271 0.3535,-0.078 c 0.6691,-0.148 1.3607,-0.23 2.0706,-0.23 2.8501,0 5.3954,1.2512 7.1464,3.2303 l 0.2423,0.2707 6.3223,-4.5929 -0.2699,-0.3289 c -3.1811,-3.8939 -8.0222,-6.3809 -13.4411,-6.3809 -1.5304,0 -3.0139,0.2002 -4.4281,0.5725 z m 12.8728,21.8281 0.2928,0.2128 6.0275,4.3791 0.2286,-0.3556 c 1.7476,-2.7072 2.7657,-5.9338 2.7657,-9.3946 0,-3.4618 -1.0181,-6.6868 -2.7657,-9.3943 l -0.2286,-0.3535 -6.3203,4.5898 0.1838,0.3143 c 0.8411,1.4232 1.3317,3.0721 1.3317,4.8437 0,1.7706 -0.4906,3.4208 -1.3317,4.844 z" />
    <path
       style="fill:none;stroke:#ff0000;stroke-width:0.1;stroke-linecap:butt;stroke-linejoin:miter;stroke-miterlimit:4;stroke-dasharray:none;stroke-opacity:1"
       d="m 262.57212,34.55202 h 11.1329 l -2e-4,-2.9004 h 12.4002 v 2.9 h 1.6998 v -1.0004 h 1.9 v 1.0004 h 1.8997 v 58.8994 h -1.8997 v 0.9999 h -1.9 v -0.9999 h -1.6998 v 2.9001 h -12.4002 l 2e-4,-2.9001 h -11.1329"
       id="path112780-6-8-1-0-83-3-2-4"
       sodipodi:nodetypes="cccccccccccccccccccc" />
    <path
       id="path3330"
       style="fill:none;stroke:#ff0000;stroke-width:0.1;stroke-linecap:round;stroke-miterlimit:4;stroke-dasharray:none;stroke-opacity:1"
       d="m 120.63977,122.23146 a 0.64999996,0.64999996 0 0 0 0.19024,0.43498 0.64999996,0.64999996 0 0 0 0.91916,0 0.64999996,0.64999996 0 0 0 0,-0.91916 0.64999996,0.64999996 0 0 0 -0.91916,0 0.64999996,0.64999996 0 0 0 -0.19024,0.48418 z m 0,-116.4058142 a 0.64999996,0.64999996 0 0 0 0.19024,0.434975 0.64999996,0.64999996 0 0 0 0.91916,0 0.64999996,0.64999996 0 0 0 0,-0.9191625 0.64999996,0.64999996 0 0 0 -0.91916,0 0.64999996,0.64999996 0 0 0 -0.19024,0.4841875 z m 17.71835,98.6869342 a 0.64999996,0.64999996 0 0 0 0.18971,0.43551 0.64999996,0.64999996 0 0 0 0.91916,0 0.64999996,0.64999996 0 0 0 0,-0.91917 0.64999996,0.64999996 0 0 0 -0.91916,0 0.64999996,0.64999996 0 0 0 -0.18971,0.48366 z m 0,-80.97017 a 0.64999996,0.64999996 0 0 0 0.18971,0.434975 0.64999996,0.64999996 0 0 0 0.91916,0 0.64999996,0.64999996 0 0 0 0,-0.919162 0.64999996,0.64999996 0 0 0 -0.91916,0 0.64999996,0.64999996 0 0 0 -0.18971,0.484187 z m 3.90763,77.06281 a 0.64999996,0.64999996 0 0 0 0.18971,0.43524 0.64999996,0.64999996 0 0 0 0.91943,0 0.64999996,0.64999996 0 0 0 0,-0.91943 0.64999996,0.64999996 0 0 0 -0.91943,0 0.64999996,0.64999996 0 0 0 -0.18971,0.48419 z m 0,-73.155179 a 0.64999996,0.64999996 0 0 0 0.18971,0.43524 0.64999996,0.64999996 0 0 0 0.91943,0 0.64999996,0.64999996 0 0 0 0,-0.919427 0.64999996,0.64999996 0 0 0 -0.91943,0 0.64999996,0.64999996 0 0 0 -0.18971,0.484187 z m 86.54309,49.965504 a 0.64999996,0.64999996 0 0 0 0.18971,0.434975 0.64999996,0.64999996 0 0 0 0.91916,0 0.64999996,0.64999996 0 0 0 0,-0.919163 0.64999996,0.64999996 0 0 0 -0.91916,0 0.64999996,0.64999996 0 0 0 -0.18971,0.484188 z m 0,-26.777156 a 0.64999996,0.64999996 0 0 0 0.19024,0.434975 0.64999996,0.64999996 0 0 0 0.91916,0 0.64999996,0.64999996 0 0 0 0,-0.919162 0.64999996,0.64999996 0 0 0 -0.91916,0 0.64999996,0.64999996 0 0 0 -0.19024,0.484187 z m 31.43674,-8.068733 a 0.64999996,0.64999996 0 0 0 0.1897,0.434975 0.64999996,0.64999996 0 0 0 0.91943,0 0.64999996,0.64999996 0 0 0 0,-0.919163 0.64999996,0.64999996 0 0 0 -0.91943,0 0.64999996,0.64999996 0 0 0 -0.1897,0.484188 z m 0,42.914622 a 0.64999996,0.64999996 0 0 0 0.1897,0.435504 0.64999996,0.64999996 0 0 0 0.91943,0 0.64999996,0.64999996 0 0 0 0,-0.919162 0.64999996,0.64999996 0 0 0 -0.91943,0 0.64999996,0.64999996 0 0 0 -0.1897,0.483658 z m 8.44708,23.165592 a 0.64999996,0.64999996 0 0 0 0.18971,0.43498 0.64999996,0.64999996 0 0 0 0.91943,0 0.64999996,0.64999996 0 0 0 0,-0.91917 0.64999996,0.64999996 0 0 0 -0.91943,0 0.64999996,0.64999996 0 0 0 -0.18971,0.48419 z m 0,-89.243691 a 0.64999996,0.64999996 0 0 0 0.18971,0.435504 0.64999996,0.64999996 0 0 0 0.91943,0 0.64999996,0.64999996 0 0 0 0,-0.919162 0.64999996,0.64999996 0 0 0 -0.91943,0 0.64999996,0.64999996 0 0 0 -0.18971,0.483658 z m 27.82015,44.621449 a 0.64999996,0.64999996 0 0 0 0.18997,0.435769 0.64999996,0.64999996 0 0 0 0.91943,0 0.64999996,0.64999996 0 0 0 0,-0.919427 0.64999996,0.64999996 0 0 0 -0.91943,0 0.64999996,0.64999996 0 0 0 -0.18997,0.483658 z" />
  </g>
</svg>
