<?xml version="1.0" encoding="UTF-8" standalone="no"?>
<!-- Created with Inkscape (http://www.inkscape.org/) -->

<svg
   width="210mm"
   height="297mm"
   viewBox="0 0 210 297"
   version="1.1"
   id="svg24816"
   inkscape:version="1.1.2 (0a00cf5339, 2022-02-04)"
   sodipodi:docname="pcb-drawings.svg"
   xmlns:inkscape="http://www.inkscape.org/namespaces/inkscape"
   xmlns:sodipodi="http://sodipodi.sourceforge.net/DTD/sodipodi-0.dtd"
   xmlns="http://www.w3.org/2000/svg"
   xmlns:svg="http://www.w3.org/2000/svg">
  <sodipodi:namedview
     id="namedview24818"
     pagecolor="#ffffff"
     bordercolor="#666666"
     borderopacity="1.0"
     inkscape:pageshadow="2"
     inkscape:pageopacity="0.0"
     inkscape:pagecheckerboard="0"
     inkscape:document-units="mm"
     showgrid="false"
     inkscape:zoom="4.3994184"
     inkscape:cx="394.02936"
     inkscape:cy="442.21754"
     inkscape:window-width="3840"
     inkscape:window-height="2096"
     inkscape:window-x="0"
     inkscape:window-y="27"
     inkscape:window-maximized="1"
     inkscape:current-layer="layer1" />
  <defs
     id="defs24813">
    <inkscape:path-effect
       effect="spiro"
       id="path-effect859-91-0-2"
       is_visible="true"
       lpeversion="1" />
    <inkscape:path-effect
       effect="spiro"
       id="path-effect859-3-9-02-6"
       is_visible="true"
       lpeversion="1" />
    <inkscape:path-effect
       effect="spiro"
       id="path-effect859-3-7-6-26-9"
       is_visible="true"
       lpeversion="1" />
    <inkscape:path-effect
       effect="spiro"
       id="path-effect859-3-7-3-9-9-9"
       is_visible="true"
       lpeversion="1" />
    <inkscape:path-effect
       effect="spiro"
       id="path-effect859-3-7-3-6-3-03-2"
       is_visible="true"
       lpeversion="1" />
    <inkscape:path-effect
       effect="spiro"
       id="path-effect859-91-0"
       is_visible="true"
       lpeversion="1" />
    <inkscape:path-effect
       effect="spiro"
       id="path-effect859-3-9-02"
       is_visible="true"
       lpeversion="1" />
    <inkscape:path-effect
       effect="spiro"
       id="path-effect859-3-7-6-26"
       is_visible="true"
       lpeversion="1" />
    <inkscape:path-effect
       effect="spiro"
       id="path-effect859-3-7-3-9-9"
       is_visible="true"
       lpeversion="1" />
    <inkscape:path-effect
       effect="spiro"
       id="path-effect859-3-7-3-6-3-03"
       is_visible="true"
       lpeversion="1" />
  </defs>
  <g
     inkscape:label="Calque 1"
     inkscape:groupmode="layer"
     id="layer1">
    <path
       id="rect6994-5-5"
       style="fill:none;stroke:#00a100;stroke-width:0.0999998;stroke-linecap:round;stroke-linejoin:round"
       d="m 117.61737,95.338187 a 17.949795,17.95 18.006703 0 0 -15.11329,7.873443 l -0.94515,-0.25323 -1.28056,4.77853 a 17.949795,17.95 18.006703 0 0 0,0.003 17.949795,17.95 18.006703 0 0 -0.43304,1.61644 l -0.848016,3.16469 0.424789,0.11366 a 17.949795,17.95 18.006703 0 0 12.381147,17.72348 17.949795,17.95 18.006703 0 0 22.61775,-11.52487 17.949795,17.95 18.006703 0 0 0.85577,-6.20067 l 0.46818,-0.12557 -2.56212,-9.56273 -0.98753,0.26511 a 17.949795,17.95 18.006703 0 0 -9.29865,-6.994421 17.949795,17.95 18.006703 0 0 -5.27825,-0.876432 z m -7.6321,3.644742 2.87994,3.964121 -3.96409,2.87991 -2.87994,-3.96409 z m 14.72727,0 3.96412,2.880461 -2.88044,3.9641 -3.96412,-2.88044 z m -9.81387,11.853541 h 4.89997 v 4.89998 h -4.89997 z m -8.76845,3.51864 1.51413,4.66019 -4.66019,1.51463 -1.51413,-4.66016 z m 22.4374,0 4.66016,1.51414 -1.51463,4.66018 -4.66016,-1.51413 z m -13.66895,9.93119 h 4.89997 v 4.89995 h -4.89997 z" />
    <circle
       style="fill:none;stroke:#ff00ff;stroke-width:0.1;stroke-linecap:round;stroke-linejoin:round;stroke-miterlimit:4;stroke-dasharray:none;stroke-opacity:1"
       id="path21987-8"
       cx="117.34885"
       cy="113.2863"
       r="8.9499998" />
    <path
       id="path4254-9-5"
       style="fill:none;stroke:#ff0000;stroke-width:0.0999998;stroke-linecap:square;stroke-linejoin:round"
       d="m 117.3489,94.33646 a 18.95,18.950002 0 0 0 -18.95026,18.95027 18.95,18.950002 0 0 0 18.95026,18.94974 18.95,18.950002 0 0 0 18.94975,-18.94974 18.95,18.950002 0 0 0 -18.94975,-18.95027 z m -0.99942,2.07894 v 6.92206 a 1,1 0 0 0 0.005,0.0708 9.9499996,9.9500006 0 0 0 -8.10338,5.87251 1,1 0 0 0 -0.0553,-0.0196 l -6.58306,-2.13941 a 16.949998,16.95 0 0 1 14.73708,-10.70632 z m 2.00039,5.3e-4 a 16.949998,16.95 0 0 1 14.73502,10.70529 l -6.58306,2.13992 a 1,1 0 0 0 -0.0543,0.0217 9.9499996,9.9500006 0 0 0 -8.10235,-5.87458 1,1 0 0 0 0.005,-0.0708 z m -1.00097,8.9209 a 7.9499996,7.9499996 0 0 1 7.9499,7.94991 7.9499996,7.9499996 0 0 1 -7.9499,7.9499 7.9499996,7.9499996 0 0 1 -7.9499,-7.9499 7.9499996,7.9499996 0 0 1 7.9499,-7.94991 z m -16.35456,3.6866 6.58203,2.13992 a 1,1 0 0 0 0.0739,0.0191 9.9499996,9.9500006 0 0 0 -0.25115,2.10427 9.9499996,9.9500006 0 0 0 3.33106,7.4166 1,1 0 0 0 -0.0388,0.046 l -4.06849,5.59811 a 16.949998,16.95 0 0 1 -6.22391,-13.0607 16.949998,16.95 0 0 1 0.59531,-4.26331 z m 32.7086,0 a 16.949998,16.95 0 0 1 0.59583,4.26331 16.949998,16.95 0 0 1 -6.22391,13.0607 l -4.069,-5.59811 a 1,1 0 0 0 -0.0382,-0.046 9.9499996,9.9500006 0 0 0 3.33106,-7.4166 9.9499996,9.9500006 0 0 0 -0.25115,-2.10479 1,1 0 0 0 0.0739,-0.0186 z m -11.35176,12.83901 a 1,1 0 0 0 0.0377,0.061 l 4.06694,5.60069 a 16.949998,16.95 0 0 1 -9.10694,2.7125 16.949998,16.95 0 0 1 -9.10746,-2.71302 l 4.06746,-5.60017 a 1,1 0 0 0 0.0398,-0.06 9.9499996,9.9500006 0 0 0 5.00021,1.37305 9.9499996,9.9500006 0 0 0 5.00228,-1.37408 z" />
    <path
       id="rect6994-5"
       style="fill:none;stroke:#00a100;stroke-width:0.0999999;stroke-linecap:round;stroke-linejoin:round"
       d="m 114.89864,110.83647 h 4.9 v 4.9 h -4.9 z" />
    <path
       id="rect6994-0-3"
       style="fill:none;stroke:#00a100;stroke-width:0.0999999;stroke-linecap:round;stroke-linejoin:round"
       d="m 106.02076,101.86317 3.96418,-2.88015 2.88015,3.96419 -3.96418,2.88014 z" />
    <path
       id="rect6994-0-5-02"
       style="fill:none;stroke:#00a100;stroke-width:0.0999999;stroke-linecap:round;stroke-linejoin:round"
       d="m 102.98418,120.52991 -1.51419,-4.66018 4.66018,-1.51419 1.51419,4.66018 z" />
    <path
       id="rect6994-0-5-0-9"
       style="fill:none;stroke:#00a100;stroke-width:0.0999999;stroke-linecap:round;stroke-linejoin:round"
       d="m 119.79858,129.18631 h -4.90001 v -4.90001 h 4.90001 z" />
    <path
       id="rect6994-0-5-0-2-6"
       style="fill:none;stroke:#00a100;stroke-width:0.0999999;stroke-linecap:round;stroke-linejoin:round"
       d="m 133.22741,115.86962 -1.51419,4.66018 -4.66018,-1.51419 1.51419,-4.66018 z" />
    <path
       id="rect6994-0-5-0-2-9-0"
       style="fill:none;stroke:#00a100;stroke-width:0.0999999;stroke-linecap:round;stroke-linejoin:round"
       d="m 124.71223,98.98326 3.96418,2.88015 -2.88015,3.96418 -3.96418,-2.88015 z" />
    <circle
       style="fill:none;stroke:#ff00ff;stroke-width:0.1;stroke-linecap:round;stroke-linejoin:round;stroke-miterlimit:4;stroke-dasharray:none;stroke-opacity:1"
       id="path21987"
       cx="117.34863"
       cy="113.28648"
       r="8.9499998" />
  </g>
</svg>
