<?xml version="1.0" encoding="UTF-8" standalone="no"?>
<!-- Created with Inkscape (http://www.inkscape.org/) -->

<svg
   xmlns:dc="http://purl.org/dc/elements/1.1/"
   xmlns:cc="http://creativecommons.org/ns#"
   xmlns:rdf="http://www.w3.org/1999/02/22-rdf-syntax-ns#"
   xmlns:svg="http://www.w3.org/2000/svg"
   xmlns="http://www.w3.org/2000/svg"
   xmlns:sodipodi="http://sodipodi.sourceforge.net/DTD/sodipodi-0.dtd"
   xmlns:inkscape="http://www.inkscape.org/namespaces/inkscape"
   width="283.10034mm"
   height="197.10046mm"
   viewBox="0 0 283.10035 197.10046"
   version="1.1"
   id="svg8"
   inkscape:version="0.92.3 (2405546, 2018-03-11)"
   sodipodi:docname="wordclock-wood-cut.svg">
  <defs
     id="defs2" />
  <sodipodi:namedview
     id="base"
     pagecolor="#ffffff"
     bordercolor="#666666"
     borderopacity="1.0"
     inkscape:pageopacity="0.0"
     inkscape:pageshadow="2"
     inkscape:zoom="0.69222954"
     inkscape:cx="578.696"
     inkscape:cy="427.77978"
     inkscape:document-units="mm"
     inkscape:current-layer="layer5"
     showgrid="false"
     inkscape:window-width="1920"
     inkscape:window-height="996"
     inkscape:window-x="0"
     inkscape:window-y="27"
     inkscape:window-maximized="1"
     inkscape:snap-bbox="true"
     inkscape:bbox-paths="true"
     inkscape:bbox-nodes="true"
     inkscape:snap-bbox-edge-midpoints="true"
     inkscape:snap-bbox-midpoints="true"
     inkscape:object-paths="true"
     inkscape:snap-intersection-paths="true"
     inkscape:snap-midpoints="true"
     inkscape:snap-smooth-nodes="true"
     inkscape:snap-object-midpoints="true"
     inkscape:snap-center="true"
     inkscape:measure-start="699.402,660.728"
     inkscape:measure-end="710.74,660.728"
     inkscape:object-nodes="true"
     fit-margin-top="0"
     fit-margin-left="0"
     fit-margin-right="0"
     fit-margin-bottom="0"
     showguides="false" />
  <metadata
     id="metadata5">
    <rdf:RDF>
      <cc:Work
         rdf:about="">
        <dc:format>image/svg+xml</dc:format>
        <dc:type
           rdf:resource="http://purl.org/dc/dcmitype/StillImage" />
        <dc:title />
      </cc:Work>
    </rdf:RDF>
  </metadata>
  <g
     inkscape:groupmode="layer"
     id="layer4"
     inkscape:label="wood"
     style="display:inline"
     transform="translate(0,-99.899612)">
    <g
       inkscape:groupmode="layer"
       id="layer5"
       inkscape:label="cut"
       style="display:inline">
      <g
         transform="matrix(0.28222199,0,0,0.28222199,109.59989,29.468833)"
         id="g1300-2"
         style="display:inline;fill:none;stroke:#ff0000;stroke-width:0.35433099;stroke-miterlimit:4;stroke-dasharray:none;stroke-opacity:1" />
      <g
         transform="matrix(0,-0.28222199,-0.28222199,0,-6.6485177,149.2391)"
         id="g1308-3"
         style="display:inline;fill:none;stroke:#ff0000;stroke-width:0.35433099;stroke-miterlimit:4;stroke-dasharray:none;stroke-opacity:1" />
      <path
         style="display:inline;opacity:1;fill:none;fill-opacity:1;fill-rule:nonzero;stroke:#ff0000;stroke-width:0.1;stroke-linecap:square;stroke-linejoin:miter;stroke-miterlimit:4;stroke-dasharray:none;stroke-opacity:1"
         d="M 229.0001,117.24992 C 228.47543,117.24989 228.05043,116.82427 228.05041,116.29958 L 228.0505,110.29958 C 228.05043,109.77492 228.47543,109.34988 229.0001,109.34987 L 230.1011,109.35006 C 230.62577,109.34988 231.05105,109.77522 231.0508,110.29974 L 231.05057,113.35023 H 237.55096 L 237.55072,107.29901 C 237.5505,106.77432 237.97583,106.34929 238.50049,106.34927 H 248.49968 C 249.3005,106.34929 249.95,106.99918 249.95004,107.8 V 115.79958 C 249.95,116.60041 249.3005,117.24989 248.49968,117.24992"
         id="rect4185-10-4-5"
         inkscape:connector-curvature="0"
         sodipodi:nodetypes="cccccccccccccc" />
      <g
         transform="matrix(-0.28222199,0,0,0.28222199,186.16648,107.35406)"
         id="g1300-2-6-2"
         style="display:inline;fill:none;stroke:#ff0000;stroke-width:0.35433099;stroke-miterlimit:4;stroke-dasharray:none;stroke-opacity:1">
        <path
           style="fill:none;stroke:#ff0000;stroke-width:0.37795275;stroke-miterlimit:4;stroke-dasharray:none;stroke-opacity:1"
           d="M 2596.1699,262.61523 V 273.95312 H 2588.6113 L 2588.6094,306.08008 H 2577.2715 V 324.97852 H 2588.6094 L 2588.6113,357.10352 H 2596.1699 V 368.44141 H 2616.9551 V 357.10352 H 2647.1934 V 368.44141 H 2667.9805 V 357.10352 H 2686.8789 V 341.03906 H 2675.5391 V 324.97852 H 2686.8789 V 306.08008 H 2675.5391 V 290.01562 H 2686.8789 V 273.95312 H 2667.9805 V 262.61523 H 2647.1934 V 273.95312 H 2616.9551 V 262.61523 Z M 2651.3496,276.50391 H 2662.3105 V 287.46484 H 2651.3496 Z M 2599.9492,292.84961 H 2622.627 V 330.64453 H 2599.9492 Z M 2651.3496,343.5918 H 2662.3105 V 354.55273 H 2651.3496 Z"
           transform="matrix(-0.93750077,0,0,0.93750077,2175.6615,65.938444)"
           id="polygon1298-2-2-8"
           inkscape:connector-curvature="0"
           sodipodi:nodetypes="cccccccccccccccccccccccccccccccccccccccccccccccc" />
      </g>
      <path
         style="display:inline;fill:none;stroke:#ff0000;stroke-width:0.1;stroke-miterlimit:4;stroke-dasharray:none;stroke-opacity:1"
         d="M 62.049951,293.95026 C 62.049951,295.57956 63.420702,296.94999 65.0499,296.94999 H 93.07544 C 108.53698,296.94976 124.05033,271.96217 124.05033,220.94895 M 124.05033,175.94911 C 124.05033,124.93589 108.53698,99.949372 93.07544,99.949612 L 65.000132,99.950132 C 63.370931,99.950072 62.049951,101.27058 62.049951,102.89982 M 65.099541,102.99993 H 71.55013 L 71.550001,105.89973 H 68.000081 V 109.39977 H 65.100041 Z M 78.04999,102.99993 H 83.050221 V 105.89973 H 78.04999 Z M 89.550002,102.99993 H 95.999932 V 109.39977 H 93.100091 V 105.89973 H 89.550002 Z M 65.100041,115.99967 H 68.000081 V 120.89987 H 65.100041 Z M 93.100091,115.99967 H 95.999932 V 120.89987 H 93.100091 Z M 65.100041,126.0001 H 68.000081 V 130.89978 H 65.100041 Z M 93.100091,126.0001 H 95.999932 V 130.89978 H 93.100091 Z M 65.100041,136 H 68.000081 V 140.89969 H 65.100041 Z M 93.100091,136 H 95.999932 V 140.89969 H 93.100091 Z M 65.100041,145.99991 H 68.000081 V 150.90011 H 65.100041 Z M 93.100091,145.99991 H 95.999932 V 150.90011 H 93.100091 Z M 65.100041,155.99981 H 68.000081 V 160.90002 H 65.100041 Z M 93.100091,155.99981 H 95.999932 V 160.90002 H 93.100091 Z M 65.100041,166.00024 H 68.000081 V 170.89992 H 65.100041 Z M 93.100091,166.00024 H 95.999932 V 170.89992 H 93.100091 Z M 96.049941,175.99976 H 100.29981 V 178.89955 L 96.049941,178.90007 Z M 113.79973,175.99976 120.99942,176.00027 V 182.35011 H 118.1001 V 178.90007 H 113.79973 Z M 104.54968,176.00027 H 109.54988 V 178.90007 H 104.54968 Z M 65.100041,176.00014 H 68.000081 V 180.89983 H 65.100041 Z M 96.724311,182.79995 H 99.62438 V 185.70003 H 96.724311 Z M 114.47463,182.79995 H 117.37473 V 185.70003 H 114.47463 Z M 65.100041,186.00005 H 68.000081 V 190.90025 H 65.100041 Z M 118.1001,189.00002 H 120.99992 V 193.90022 H 118.1001 Z M 65.100041,195.99996 H 68.000081 V 200.90016 H 65.100041 Z M 118.1001,203.00004 H 120.99992 V 207.89973 H 118.1001 Z M 65.100041,205.99986 H 68.000081 V 210.90006 H 65.100041 Z M 65.100041,215.99977 H 68.000081 V 220.89997 H 65.100041 Z M 118.1001,214.50012 H 120.99992 L 120.99942,220.89994 H 113.79973 V 217.99962 H 118.1001 Z M 96.049941,217.99962 100.29981,218.00014 V 220.89994 H 96.049941 Z M 104.54968,218.00014 H 109.54988 V 220.89994 H 104.54968 Z M 65.100041,226.00019 H 68.000081 V 230.89988 H 65.100041 Z M 93.100091,226.00019 H 95.999932 V 230.89988 H 93.100091 Z M 65.100041,236.0001 H 68.000081 V 240.9003 H 65.100041 Z M 93.100091,236.0001 H 95.999932 V 240.9003 H 93.100091 Z M 65.100041,246 H 68.000081 V 250.90021 H 65.100041 Z M 93.100091,246 H 95.999932 V 250.90021 H 93.100091 Z M 65.100041,255.99991 H 68.000081 V 260.90011 H 65.100041 Z M 93.100091,255.99991 H 95.999932 V 260.90011 H 93.100091 Z M 65.100041,266.00033 H 68.000081 V 270.90002 H 65.100041 Z M 93.100091,266.00033 H 95.999932 V 270.90002 H 93.100091 Z M 65.100041,276.00024 H 68.000081 V 280.89993 H 65.100041 Z M 93.100091,276.00024 H 95.999932 V 280.89993 H 93.100091 Z M 65.099541,287.50031 H 68.000081 V 290.99982 H 71.55013 V 293.85012 H 65.099541 Z M 93.100091,287.50031 H 95.999932 V 293.85012 H 89.550081 V 290.99982 H 93.100091 Z M 83.050221,290.99982 V 293.85012 H 78.04999 V 291.00034 Z"
         id="path1281"
         inkscape:connector-curvature="0"
         sodipodi:nodetypes="cccccccccccccccccccccccccccccccccccccccccccccccccccccccccccccccccccccccccccccccccccccccccccccccccccccccccccccccccccccccccccccccccccccccccccccccccccccccccccccccccccccccccccccccccccccccccccccccccccccccccccccccccccccccccccccccsccccccccccccccccccccc" />
      <path
         inkscape:connector-curvature="0"
         id="polygon10-7-1-6-4-9-4"
         d="M 225.05001,192.94928 H 228.05002 V 177.94928 H 225.05001 M 225.05001,172.94927 H 228.05002 V 157.94926 H 225.05001 M 225.05001,152.94926 H 228.05002 V 138.94962 H 225.05002 V 123.94961 H 228.05002 V 118.94961 H 225.05002 L 225.04955,105.9496 H 223.05002 V 108.9496 H 217.55037 V 105.9496 H 209.55002 V 108.9496 H 204.05002 V 105.9496 H 199.05001 V 112.4496 H 202.05001 V 118.94961 H 199.05001 M 228.05048,139.94924 H 230.05002 V 142.94924 H 235.54967 V 139.94924 H 243.55002 V 142.94924 H 249.05002 V 139.94924 H 254.05004 V 146.44925 H 251.05002 V 152.94926 H 254.05004 V 157.94926 H 251.05002 V 162.94927 H 254.05004 V 167.94927 H 251.05002 V 172.94927 H 254.05004 V 177.94928 H 251.05002 V 182.94928 H 254.05004 V 187.94928 H 251.05002 V 192.94928 H 254.05004 V 197.94928 H 251.05002 V 202.9493 H 254.05004 V 207.9493 H 251.05002 L 251.04977,215.9495 M 249.05031,215.9495 V 212.94953 L 243.55031,212.9495 V 215.9495 M 235.54997,215.9495 V 212.9495 H 230.05032 V 215.9495 M 228.05002,215.9495 V 197.94928 H 225.05001"
         style="display:inline;fill:none;stroke:#ff0000;stroke-width:0.1;stroke-miterlimit:4;stroke-dasharray:none;stroke-opacity:1"
         sodipodi:nodetypes="cccccccccccccccccccccccccccccccccccccccccccccccccccccccccccccccccccccccccccccc" />
      <g
         transform="matrix(-0.28222199,0,0,0.28222199,186.16639,174.35416)"
         id="g1300-2-6-2-5"
         style="display:inline;fill:none;stroke:#ff0000;stroke-width:0.35433099;stroke-miterlimit:4;stroke-dasharray:none;stroke-opacity:1">
        <path
           style="fill:none;stroke:#ff0000;stroke-width:0.35433099;stroke-miterlimit:4;stroke-dasharray:none;stroke-opacity:1"
           d="M -251.16342,400.72273 H -258.24926 V 411.35266 H -277.73622 V 400.72273 H -306.08391 V 411.35266 H -325.57212 V 400.72273 H -343.28867 V 385.66366 H -332.65874 V 370.60555 H -343.28867 V 352.889 H -332.65874 V 337.82916 H -343.28867 V 322.77009 H -325.57212 V 312.14016 H -306.08391 V 322.77009 H -277.73622 V 312.14016 H -258.24926 V 322.77009 H -251.16342 L -251.16264,352.889 H -240.53271 V 370.60555 H -251.16264 Z"
           id="polygon1298-2-2-8-9"
           inkscape:connector-curvature="0"
           sodipodi:nodetypes="ccccccccccccccccccccccccccccccccc" />
      </g>
      <g
         transform="matrix(0,-0.28222199,0.28222199,0,-2.9500697,223.9498)"
         id="g1308-6"
         style="display:inline;fill:none;stroke:#ff0000;stroke-width:0.35433099;stroke-miterlimit:4;stroke-dasharray:none;stroke-opacity:1">
        <path
           id="polygon1306-9"
           style="fill:none;stroke:#ff0000;stroke-width:0.35433099;stroke-miterlimit:4;stroke-dasharray:none;stroke-opacity:1"
           d="M 10.628888,79.725421 H 21.081718 V 62.008871 H 10.628888 Z M 51.55509,21.525943 V 31.624342 H 68.917309 V 21.525943 Z M 111.79136,21.525943 V 31.624342 H 129.15358 V 21.525943 Z M 169.90074,62.008871 H 159.44791 V 79.725421 H 169.90074 Z M -258.66148,219.86246 C -258.66165,225.63536 -253.80473,230.31522 -248.03183,230.31522 H 428.9176 C 434.69072,230.31522 439.37058,225.63536 439.37058,219.86246 L 439.36973,120.38346 C 439.36892,65.598432 350.83056,10.630177 170.07505,10.630177 H 10.629652 C -170.12231,10.630178 -258.66067,65.598438 -258.66148,120.38346 Z M 223.40513,110.10852 V 120.20692 H 240.76738 V 110.10852 Z M 294.2714,110.10852 V 120.20692 H 311.63362 V 110.10852 Z M 365.13767,110.10852 V 120.20692 H 382.49989 V 110.10852 Z M -201.79243,110.10852 V 120.20692 H -184.43017 V 110.10852 Z M -130.92616,110.10852 V 120.20692 H -113.56394 V 110.10852 Z M -60.059887,110.10852 V 120.20692 H -42.697668 V 110.10852 Z M -248.03149,155.90564 H -237.57915 L -237.57866,173.62223 H -248.03149 Z M 428.56391,173.62223 H 418.11108 L 418.1103,155.90564 H 428.56391 Z M -204.94562,159.4492 H 385.65326 V 170.07913 H -204.94562 Z M 365.13763,219.4196 V 209.3212 H 382.49985 V 219.4196 Z M 294.27136,219.4196 V 209.3212 H 311.63362 V 219.4196 Z M 223.40513,219.4196 V 209.3212 H 240.76735 V 219.4196 Z M 152.53886,219.4196 V 209.3212 H 169.90111 V 219.4196 Z M 81.672619,219.4196 V 209.3212 H 99.034838 V 219.4196 Z M 10.806348,219.4196 V 209.3212 H 28.168567 V 219.4196 Z M -60.059923,219.4196 V 209.3212 H -42.697668 V 219.4196 Z M -130.92616,219.4196 V 209.3212 H -113.56394 V 219.4196 Z M -201.79243,219.41967 V 209.3212 H -184.43021 V 219.4196 Z"
           inkscape:connector-curvature="0"
           sodipodi:nodetypes="cccccccccccccccccccccssccsccccccccccccccccccccccccccccccccccccccccccccccccccccccccccccccccccccccccccccccccccccccccccccc" />
      </g>
      <path
         id="path3639-73-6-9"
         style="display:inline;fill:none;fill-opacity:1;stroke:#ff0000;stroke-width:0.1;stroke-miterlimit:4;stroke-dasharray:none;stroke-opacity:1"
         d="M 188.05,126.98249 V 122.18249 H 185.05 V 126.98249 Z M 188.05,133.92749 V 129.12749 H 185.05 V 133.92749 Z M 188.05,140.87249 V 136.07249 H 185.05 V 140.87249 Z M 188.05,147.81749 V 143.01749 H 185.05 V 147.81749 Z M 188.05,154.76249 V 149.96249 H 185.05 V 154.76249 Z M 188.05,161.70749 V 156.90749 H 185.05 V 161.70749 Z M 188.05,168.65249 V 163.85249 H 185.05 V 168.65249 Z M 188.05,175.59749 V 170.79749 H 185.05 V 175.59749 Z M 188.05,182.54249 V 177.74249 H 185.05 V 182.54249 Z M 188.05,189.48747 V 184.68748 H 185.05 V 189.48747 Z M 188.05,196.43248 V 191.63248 H 185.05 V 196.43248 Z M 188.05,203.37748 V 198.57748 H 185.05 V 203.37748 Z M 188.05,210.32248 V 205.52248 H 185.05 V 210.32248 Z M 188.05,217.26748 V 212.46748 H 185.05 V 217.26748 Z M 188.05,224.21248 V 219.41248 H 185.05 V 224.21248 Z M 188.05,231.15748 V 226.35748 H 185.05 V 231.15748 Z M 188.05,238.10248 V 233.30248 H 185.05 V 238.10248 Z M 188.05,245.04748 V 240.24748 H 185.05 V 245.04748 Z M 188.05,251.99248 V 247.19248 H 185.05 V 251.99248 Z M 188.05,258.93748 V 254.13748 H 185.05 V 258.93748 Z M 188.05,265.88248 V 261.08248 H 185.05 V 265.88248 Z M 188.05,272.82748 V 268.02748 H 185.05 V 272.82748 Z M 188.05,279.77249 V 274.97248 H 185.05 V 279.77249 Z M 188.05,286.71749 V 281.91749 H 185.05 V 286.71749 Z M 199.05017,271.99976 H 191.05066 V 268.99976 H 199.05017 M 199.05017,219.94999 H 192.44973 V 185.94984 H 199.05017 V 116.94976 L 194.05053,111.94975 M 179.05053,111.94974 174.05018,116.94976 V 136.99976 H 182.05066 V 139.99976 H 174.05018 V 268.99976 H 182.05066 V 271.99976 H 174.05018 V 291.94975 L 179.0501,296.94976 H 194.05066 L 199.05017,291.94976 M 199.05017,139.99976 H 191.05066 V 136.99976 H 199.05017"
         inkscape:connector-curvature="0"
         sodipodi:nodetypes="cccccccccccccccccccccccccccccccccccccccccccccccccccccccccccccccccccccccccccccccccccccccccccccccccccccccccccccccccccccccccccccccccccccccccccccccccccc" />
      <path
         id="path3639-74-1-9"
         style="display:inline;fill:none;fill-opacity:1;stroke:#ff0000;stroke-width:0.1;stroke-miterlimit:4;stroke-dasharray:none;stroke-opacity:1"
         d="M 174.05,272.00008 H 170.05024 V 269.00008 H 174.05 M 174.05018,219.94979 167.45001,219.95019 V 185.95028 L 174.05,185.94954 M 174.05,139.99968 170.0498,139.99978 V 136.99982 L 174.05,136.99987 M 174.05,116.95003 169.05036,111.95007 M 154.05036,111.95007 149.05001,116.95019 V 137.00019 L 153.0498,137.00018 V 140.00016 L 149.05001,140.00015 V 269.00014 L 153.0498,269.00012 V 272.00011 L 149.05001,272.00009 V 291.95008 L 154.05024,296.95008 H 169.05024 L 174.05,291.95007 M 167.0491,115.9501 H 155.95001 V 133.94975 H 167.0489 Z"
         inkscape:connector-curvature="0"
         sodipodi:nodetypes="ccccccccccccccccccccccccccccccccc" />
      <path
         style="display:inline;opacity:1;fill:none;fill-opacity:1;fill-rule:nonzero;stroke:#ff0000;stroke-width:0.1;stroke-linecap:butt;stroke-linejoin:round;stroke-miterlimit:4;stroke-dasharray:none;stroke-dashoffset:0;stroke-opacity:1;paint-order:normal"
         d="M 225.05002,125.1499 H 227.95002 V 128.0499 H 242.79998 V 125.1499 M 245.69998,125.1499 V 132.04976"
         id="rect1075-3-7-2-1"
         inkscape:connector-curvature="0"
         sodipodi:nodetypes="ccccccc" />
      <flowRoot
         transform="matrix(0.26458333,0,0,0.26458333,2.9110573e-7,86.99999)"
         xml:space="preserve"
         id="flowRoot7532"
         style="font-style:normal;font-variant:normal;font-weight:normal;font-stretch:normal;font-size:20.21133041px;line-height:125%;font-family:Sans;-inkscape-font-specification:Sans;text-align:start;letter-spacing:0px;word-spacing:0px;writing-mode:lr-tb;text-anchor:start;display:inline;fill:none;fill-opacity:1;stroke:#ff0000;stroke-width:0.37795275;stroke-linecap:butt;stroke-linejoin:miter;stroke-miterlimit:4;stroke-dasharray:none;stroke-opacity:1"><flowRegion
           id="flowRegion7534"
           style="fill:none;stroke:#ff0000;stroke-width:0.37795275;stroke-miterlimit:4;stroke-dasharray:none;stroke-opacity:1"><rect
             id="rect7536"
             width="64.353981"
             height="47.499367"
             x="1142.5386"
             y="230.85881"
             style="fill:none;stroke:#ff0000;stroke-width:0.37795275;stroke-miterlimit:4;stroke-dasharray:none;stroke-opacity:1" /></flowRegion><flowPara
           id="flowPara7538" /></flowRoot>      <path
         style="display:inline;opacity:1;fill:none;fill-opacity:1;fill-rule:nonzero;stroke:#ff0000;stroke-width:0.1;stroke-linecap:square;stroke-linejoin:miter;stroke-miterlimit:4;stroke-dasharray:none;stroke-opacity:1"
         d="M 133.75029,111.95076 C 133.22562,111.95074 132.80063,111.5251 132.80061,111.00043 M 132.80069,105.00043 C 132.80063,104.47576 133.22562,104.05073 133.75029,104.05071 L 134.85129,104.0509 C 135.37596,104.05073 135.80125,104.47606 135.801,105.00058 L 135.80076,108.05107 H 142.30035 L 142.30012,105.0005 C 142.29988,104.47583 142.72522,104.0508 143.24988,104.05078 H 153.25028 C 154.05111,104.0508 154.70061,104.70069 154.70064,105.5015 M 154.70064,110.50043 C 154.70061,111.30125 154.0511,111.95074 153.25028,111.95076"
         id="rect4185-10-4-1-3-5"
         inkscape:connector-curvature="0"
         sodipodi:nodetypes="cccccccccccccc" />
      <path
         style="display:inline;opacity:1;fill:none;fill-opacity:1;fill-rule:nonzero;stroke:#ff0000;stroke-width:0.1;stroke-linecap:square;stroke-linejoin:miter;stroke-miterlimit:4;stroke-dasharray:none;stroke-opacity:1"
         d="M 155.65028,111.9513 C 155.12561,111.95128 154.70062,111.52564 154.7006,111.00097 L 154.70068,105.00097 C 154.70062,104.4763 155.12561,104.05127 155.65028,104.05125 L 156.75128,104.05144 C 157.27595,104.05127 157.70124,104.4766 157.70099,105.00112 L 157.70075,108.05161 H 164.20034 L 164.20011,105.00104 C 164.19987,104.47637 164.62521,104.05134 165.14987,104.05132 H 175.15027 C 175.9511,104.05134 176.6006,104.70123 176.60063,105.50204 M 176.60063,110.50097 C 176.6006,111.30179 175.95109,111.95128 175.15027,111.9513"
         id="rect4185-10-4-1-3-9"
         inkscape:connector-curvature="0"
         sodipodi:nodetypes="cccccccccccccc" />
      <path
         style="display:inline;opacity:1;fill:none;fill-opacity:1;fill-rule:nonzero;stroke:#ff0000;stroke-width:0.1;stroke-linecap:square;stroke-linejoin:miter;stroke-miterlimit:4;stroke-dasharray:none;stroke-opacity:1"
         d="M 177.55027,111.95184 C 177.0256,111.95182 176.60061,111.52618 176.60059,111.00151 L 176.60067,105.00151 C 176.60061,104.47684 177.0256,104.05181 177.55027,104.05179 L 178.65127,104.05198 C 179.17594,104.05181 179.60123,104.47714 179.60098,105.00166 L 179.60074,108.05215 H 186.10033 L 186.1001,105.00158 C 186.09986,104.47691 186.5252,104.05188 187.04986,104.05186 H 197.05026 C 197.85109,104.05188 198.50059,104.70177 198.50062,105.50258 V 110.50151 C 198.50059,111.30233 197.85108,111.95182 197.05026,111.95184 L 111.85029,111.95022 C 111.32562,111.9502 110.90063,111.52456 110.90061,110.99989 L 110.90069,104.99989 C 110.90063,104.47522 111.32562,104.05019 111.85029,104.05017 L 112.95129,104.05036 C 113.47596,104.05019 113.90125,104.47552 113.901,105.00004 L 113.90076,108.05053 H 120.40035 L 120.40012,104.99996 C 120.39988,104.47529 120.82522,104.05026 121.34988,104.05024 H 131.35029 C 132.15112,104.05026 132.80062,104.70015 132.80065,105.50096 V 110.49989 C 132.80062,111.30071 132.15111,111.9502 131.35029,111.95022"
         id="rect4185-10-4-1-3-3"
         inkscape:connector-curvature="0"
         sodipodi:nodetypes="cccccccccccccccccccccccccccc" />
      <path
         style="display:inline;opacity:1;fill:none;fill-opacity:1;fill-rule:nonzero;stroke:#ff0000;stroke-width:0.1;stroke-linecap:square;stroke-linejoin:miter;stroke-miterlimit:4;stroke-dasharray:none;stroke-opacity:1"
         d="M 248.49968,125.1499 C 249.30051,125.14988 249.95001,124.49999 249.95004,123.69918 V 118.70025 C 249.95001,117.89943 249.3005,117.24994 248.49968,117.24992 H 228.99969 C 228.47502,117.24994 228.05003,117.67558 228.05001,118.20025 L 228.05009,124.20025 C 228.05003,124.72492 228.47502,125.14995 228.99969,125.14997 L 230.10069,125.14978 C 230.62536,125.14995 231.05065,124.72462 231.0504,124.2001 L 231.05016,121.14961 H 237.54975 L 237.54952,124.20018 C 237.54928,124.72485 237.97462,125.14988 238.49928,125.1499 Z"
         id="rect4185-10-4-1-3-3-4"
         inkscape:connector-curvature="0"
         sodipodi:nodetypes="ccccccccccccccc" />
      <g
         transform="matrix(0,0.28222223,-0.28222223,0,219.4589,134.0183)"
         id="g8-8-3-9"
         style="display:inline;fill:none;stroke:#ff0000;stroke-width:0.35433069;stroke-miterlimit:4;stroke-dasharray:none;stroke-opacity:1">
        <path
           style="fill:none;stroke:#ff0000;stroke-width:0.35433069;stroke-miterlimit:4;stroke-dasharray:none;stroke-opacity:1"
           d="M 554.28465,72.314958 V 61.685028 H 531.25314 V 72.314958 M 513.53659,72.314958 V 61.685028 H 495.82004 V 72.314958 M 478.10349,72.314958 V 61.685028 H 460.38694 V 72.314958 M 442.67039,72.314958 V 61.685028 H 424.95384 V 72.314958 M 407.23729,72.314958 V 61.685028 H 389.52074 V 72.314958 M 371.80419,72.314958 V 61.685028 H 354.08764 V 72.314958 M 336.37109,72.314958 V 61.685028 H 318.65454 V 72.314958 M 159.20559,72.314958 V 61.685028 H 141.48904 V 72.314958 M 123.77249,72.314958 V 61.685028 H 106.05594 V 72.314958 M 88.339397,72.314958 V 61.685028 H 70.622847 V 72.314958 M 52.906297,72.314958 V 61.685028 H 35.189747 V 72.314958 M 17.473197,72.314958 V 61.685028 H -0.24335298 V 72.314958 M -17.959903,72.314958 V 61.685028 H -35.676453 V 72.314958 M 35.189747,-30.44099 V -19.81106 H 88.339397 V -30.44099 M 106.05594,-30.44099 V -19.81106 H 159.20559 V -30.44099 M 176.92214,-30.44099 V -19.81106 H 230.07179 V -30.44099 M 247.78834,-30.44099 V -19.81106 H 300.93799 V -30.44099 M 318.65454,-30.44099 V -19.81106 H 371.80419 V -30.44099 M 389.52074,-30.44099 V -19.81106 H 442.67039 V -30.44099 M 460.38694,-30.44099 V -19.81106 H 513.53659 V -30.44099 M 531.25314,-30.44099 V -19.81106 L 577.31617,-19.8094 V -12.72444 H 566.68624 V 6.7625192 H 577.31617 V 35.110202 H 566.68624 V 54.598407 H 577.31617 V 72.314958 H 300.93799 V 61.685028 H 283.22144 V 72.314958 H 265.50489 V 61.685028 H 247.78834 V 72.314958 H 230.07179 V 61.685028 H 212.35524 V 72.314958 H 194.63869 V 61.685028 H 176.92214 V 72.314958"
           id="polygon10-7-1-1"
           inkscape:connector-curvature="0"
           sodipodi:nodetypes="cccccccccccccccccccccccccccccccccccccccccccccccccccccccccccccccccccccccccccccccccccccccccccccccccccccccccccc" />
      </g>
      <g
         transform="matrix(0,0.28222199,-0.28222199,0,52.119379,222.34894)"
         id="g1288-3-2"
         style="display:inline;fill:none;stroke:#ff0000;stroke-width:0.35433099;stroke-miterlimit:4;stroke-dasharray:none;stroke-opacity:1">
        <path
           style="fill:none;stroke:#ff0000;stroke-width:0.35433099;stroke-miterlimit:4;stroke-dasharray:none;stroke-opacity:1"
           d="M 152.70972,-726.13164 111.96084,-726.13274 V -715.50282 M 94.244288,-715.50282 V -726.13274 H 51.724713 V -715.50282 M -6.7392303,-818.25869 H 16.292285 V -807.62877 H 39.3238 V -818.25869 H 57.04035 V -807.62877 H 88.930139 V -818.25869 H 106.64669 V -807.62877 H 129.6782 V -818.25869 H 152.70972"
           id="polygon1286-9-3"
           inkscape:connector-curvature="0"
           sodipodi:nodetypes="ccccccccccccccccccccc" />
      </g>
      <path
         inkscape:connector-curvature="0"
         id="polygon10-7-1-6-4-9-4-6"
         d="M 254.05004,253.94972 H 251.05002 V 248.94972 H 254.05004 M 254.05004,273.94974 H 251.05002 V 268.94973 H 254.05004 V 263.94973 H 251.05002 V 258.94973 H 254.05004 V 243.94972 H 251.05002 V 238.94972 H 254.05004 L 254.05001,231.94679 H 257.05001 L 257.0497,220.44698 M 254.05004,233.94972 H 251.05002 V 228.9497 H 254.05004 V 223.9497 H 251.05002 L 251.04977,215.9495 H 249.05031 V 218.94947 L 243.55031,218.9495 V 215.9495 H 235.54997 V 218.9495 H 230.05032 V 215.9495 H 228.05002 V 233.94972 H 225.05001 M 228.05002,238.94972 V 253.94972 H 225.05001 M 228.05002,258.94973 V 273.94974 H 225.05001 M 228.05002,278.94974 228.05048,291.94975 H 230.05002 V 288.94975 H 235.54967 V 291.94975 H 243.55002 V 288.94975 H 249.05002 V 291.94975 H 254.05004 V 285.44974 H 251.05002 V 278.94974 H 254.05004"
         style="display:inline;fill:none;stroke:#ff0000;stroke-width:0.1;stroke-miterlimit:4;stroke-dasharray:none;stroke-opacity:1"
         sodipodi:nodetypes="cccccccccccccccccccccccccccccccccccccccccccccccccccccccccc" />
      <path
         style="display:inline;opacity:1;fill:none;fill-opacity:1;fill-rule:nonzero;stroke:#ff0000;stroke-width:0.1;stroke-linecap:butt;stroke-linejoin:round;stroke-miterlimit:4;stroke-dasharray:none;stroke-dashoffset:0;stroke-opacity:1;paint-order:normal"
         d="M 227.95002,138.94962 V 136.04962 H 242.79998 V 138.94962 H 245.69998 V 132.04976 H 225.05002"
         id="rect1075-3-7-2-1-0"
         inkscape:connector-curvature="0"
         sodipodi:nodetypes="ccccccc" />
      <g
         transform="matrix(-0.28222199,0,0,0.28222199,186.16656,77.853686)"
         id="g1300-2-6-2-5-6-2-9"
         style="display:inline;fill:none;stroke:#ff0000;stroke-width:0.35433099;stroke-miterlimit:4;stroke-dasharray:none;stroke-opacity:1">
        <path
           style="fill:none;stroke:#ff0000;stroke-width:0.35433099;stroke-miterlimit:4;stroke-dasharray:none;stroke-opacity:1"
           d="M -277.73622,416.66939 V 406.03946 H -306.08391 V 416.66939 M -325.57212,416.66939 V 406.03946 H -343.28867 V 393.63786 H -332.65874 V 370.60555 H -343.28867 V 352.889 H -332.65874 V 329.85828 H -343.28867 V 317.45681 H -325.57212 V 306.82678 M -306.08391,306.82678 V 317.45681 H -277.73622 V 306.82678 M -258.24926,306.82678 V 317.45681 H -251.16342 L -251.16264,352.889 H -240.53271 V 370.60555 H -251.16264 L -251.16342,406.03946 H -258.24926 V 416.66939"
           id="polygon1298-2-2-8-9-8-1-0"
           inkscape:connector-curvature="0"
           sodipodi:nodetypes="cccccccccccccccccccccccccccccccc" />
      </g>
      <g
         transform="matrix(-0.28222199,0,0,0.28222199,186.16656,46.853688)"
         id="g1300-2-6-2-5-6-2-7"
         style="display:inline;fill:none;stroke:#ff0000;stroke-width:0.35433099;stroke-miterlimit:4;stroke-dasharray:none;stroke-opacity:1">
        <path
           style="fill:none;stroke:#ff0000;stroke-width:0.35433099;stroke-miterlimit:4;stroke-dasharray:none;stroke-opacity:1"
           d="M -251.16342,406.03946 H -258.24926 V 416.66939 H -277.73622 V 406.03946 H -306.08391 V 416.66939 H -325.57212 V 406.03946 H -343.28867 V 393.63786 H -332.65874 V 370.60555 H -343.28867 V 352.889 H -332.65874 V 329.85828 H -343.28867 V 317.45681 H -325.57212 V 306.82678 H -306.08391 V 317.45681 H -277.73622 V 306.82678 H -258.24926 V 317.45681 H -251.16342 L -251.16264,352.889 H -240.53271 V 370.60555 H -251.16264 Z"
           id="polygon1298-2-2-8-9-8-1-02"
           inkscape:connector-curvature="0"
           sodipodi:nodetypes="ccccccccccccccccccccccccccccccccc" />
      </g>
      <path
         inkscape:connector-curvature="0"
         style="display:inline;fill:none;fill-opacity:1;stroke:#ff0000;stroke-width:0.1;stroke-miterlimit:4;stroke-dasharray:none;stroke-opacity:1"
         d="M 149.05001,272.00039 H 145.05078 V 269.00006 H 149.05001 M 149.05001,219.95034 H 142.45042 V 185.95035 H 149.05001 M 149.05001,140.0007 H 145.05026 V 137.00036 H 149.05001 M 149.05001,116.95043 144.05032,111.95073 M 129.05073,111.95021 124.05,116.95043 V 137.00036 H 128.04976 V 140.00018 H 124.05 V 269.00006 H 128.04976 V 272.00039 H 124.05 V 291.95008 L 129.05021,296.95029 H 144.05032 L 149.05001,291.95008 M 130.39896,117.6832 H 140.29913 V 120.58328 H 130.39896 Z M 134.04991,122.08293 H 139.04959 V 127.08262 H 134.04991 V 126.28267 H 131.64954 V 122.88288 H 134.04991 Z M 134.04991,129.02772 H 139.04959 V 134.02742 H 134.04991 V 133.22747 H 131.64954 V 129.82768 H 134.04991 Z M 134.04991,135.97252 H 139.04959 V 140.97221 H 134.04991 V 140.17226 H 131.64954 V 136.77247 H 134.04991 Z M 134.04991,142.91783 H 139.04959 V 147.91753 H 134.04991 V 147.11757 H 131.64954 V 143.71778 H 134.04991 Z M 134.04991,149.86263 H 139.04959 V 154.86232 H 134.04991 V 154.06237 H 131.64954 V 150.66258 H 134.04991 Z M 134.04991,156.80794 H 139.04959 V 161.80763 H 134.04991 V 161.00768 H 131.64954 V 157.60789 H 134.04991 Z M 134.04991,163.75274 H 139.04959 V 168.75243 H 134.04991 V 167.95248 H 131.64954 V 164.55269 H 134.04991 Z M 134.04991,170.69753 H 139.04959 V 175.69723 H 134.04991 V 174.89727 H 131.64954 V 171.49748 H 134.04991 Z M 134.04991,177.64284 H 139.04959 V 182.64254 H 134.04991 V 181.84259 H 131.64954 V 178.4428 H 134.04991 Z M 134.04991,184.58764 H 139.04959 V 189.58733 H 134.04991 V 188.78738 H 131.64954 V 185.38759 H 134.04991 Z M 134.04991,191.53243 H 139.04959 V 196.53213 H 134.04991 V 195.73218 H 131.64954 V 192.33239 H 134.04991 Z M 134.04991,198.47775 H 139.04959 V 203.47744 H 134.04991 V 202.67749 H 131.64954 V 199.2777 H 134.04991 Z M 134.04991,205.42254 H 139.04959 V 210.42224 H 134.04991 V 209.62229 H 131.64954 V 206.2225 H 134.04991 Z M 134.04991,212.36786 H 139.04959 V 217.36755 H 134.04991 V 216.5676 H 131.64954 V 213.16781 H 134.04991 Z M 134.04991,219.31265 H 139.04959 V 224.31235 H 134.04991 V 223.51239 H 131.64954 V 220.1126 H 134.04991 Z M 134.04991,226.25745 H 139.04959 V 231.25714 H 134.04991 V 230.45719 H 131.64954 V 227.0574 H 134.04991 Z M 134.04991,233.20276 H 139.04959 V 238.20246 H 134.04991 V 237.4025 H 131.64954 V 234.00271 H 134.04991 Z M 134.04991,240.14756 H 139.04959 V 245.14725 H 134.04991 V 244.3473 H 131.64954 V 240.94751 H 134.04991 Z M 134.04991,247.09287 H 139.04959 V 252.09256 H 134.04991 V 251.29261 H 131.64954 V 247.89282 H 134.04991 Z M 134.04991,254.03766 H 139.04959 V 259.03736 H 134.04991 V 258.23741 H 131.64954 V 254.83761 H 134.04991 Z M 134.04991,260.98246 H 139.04959 V 265.98216 H 134.04991 V 265.1822 H 131.64954 V 261.78241 H 134.04991 Z M 134.04991,267.92777 H 139.04959 V 272.92747 H 134.04991 V 272.12752 H 131.64954 V 268.72772 H 134.04991 Z M 134.04991,274.87257 H 139.04959 V 279.87226 H 134.04991 V 279.07231 H 131.64954 V 275.67252 H 134.04991 Z M 134.04991,281.81788 H 139.04959 V 286.81757 H 134.04991 V 286.01762 H 131.64954 V 282.61783 H 134.04991 Z"
         id="path3639-9-9-0-7-1"
         sodipodi:nodetypes="ccccccccccccccccccccccccccccccccccccccccccccccccccccccccccccccccccccccccccccccccccccccccccccccccccccccccccccccccccccccccccccccccccccccccccccccccccccccccccccccccccccccccccccccccccccccccccccccccccccccccccccccccccccccccccccccccccccccccccccccccccccccccc" />
    </g>
    <g
       inkscape:groupmode="layer"
       id="layer2"
       inkscape:label="outline"
       style="display:inline" />
    <g
       transform="matrix(0.28222222,0,0,0.28222222,290.7622,335.55856)"
       id="g20"
       style="fill:none;stroke:#ff0000;stroke-width:0.35433072;stroke-miterlimit:4;stroke-dasharray:none;stroke-opacity:1" />
    <g
       transform="matrix(0.28222223,0,0,-0.28222223,297.05,196.94998)"
       id="g8-8-3-8"
       style="display:inline;fill:none;stroke:#000000;stroke-width:0.35433072;stroke-miterlimit:4;stroke-dasharray:none;stroke-opacity:1" />
    <g
       transform="matrix(0.28222222,0,0,0.28222222,360.76223,304.55853)"
       id="g1308-1"
       style="display:inline;fill:none;stroke:#000000;stroke-width:0.35433099;stroke-miterlimit:4;stroke-dasharray:none;stroke-opacity:1" />
    <g
       transform="matrix(0,-0.28222222,0.28222222,0,331.88305,337.05856)"
       id="g12-0-4"
       style="display:inline;fill:none;stroke:#ff0000;stroke-width:0.35433072;stroke-miterlimit:4;stroke-dasharray:none;stroke-opacity:1" />
  </g>
</svg>
