<?xml version="1.0" encoding="UTF-8" standalone="no"?>
<!-- Created with Inkscape (http://www.inkscape.org/) -->

<svg
   xmlns:dc="http://purl.org/dc/elements/1.1/"
   xmlns:cc="http://creativecommons.org/ns#"
   xmlns:rdf="http://www.w3.org/1999/02/22-rdf-syntax-ns#"
   xmlns:svg="http://www.w3.org/2000/svg"
   xmlns="http://www.w3.org/2000/svg"
   xmlns:sodipodi="http://sodipodi.sourceforge.net/DTD/sodipodi-0.dtd"
   xmlns:inkscape="http://www.inkscape.org/namespaces/inkscape"
   width="286.78778mm"
   height="142.3246mm"
   viewBox="0 0 286.78778 142.3246"
   version="1.1"
   id="svg5"
   inkscape:version="0.92.3 (2405546, 2018-03-11)"
   sodipodi:docname="binary_a-1_2.svg">
  <metadata
     id="metadata134">
    <rdf:RDF>
      <cc:Work
         rdf:about="">
        <dc:format>image/svg+xml</dc:format>
        <dc:type
           rdf:resource="http://purl.org/dc/dcmitype/StillImage" />
        <dc:title />
      </cc:Work>
    </rdf:RDF>
  </metadata>
  <sodipodi:namedview
     id="namedview7"
     pagecolor="#ffffff"
     bordercolor="#666666"
     borderopacity="1.0"
     inkscape:pageshadow="2"
     inkscape:pageopacity="0.0"
     inkscape:pagecheckerboard="0"
     inkscape:document-units="mm"
     showgrid="false"
     inkscape:snap-object-midpoints="true"
     inkscape:snap-others="false"
     inkscape:snap-midpoints="true"
     inkscape:object-nodes="true"
     inkscape:snap-smooth-nodes="true"
     inkscape:object-paths="false"
     inkscape:snap-center="true"
     inkscape:snap-nodes="true"
     inkscape:snap-bbox="true"
     inkscape:snap-bbox-edge-midpoints="true"
     inkscape:snap-intersection-paths="false"
     inkscape:zoom="1.5600517"
     inkscape:cx="623.05003"
     inkscape:cy="50.36013"
     inkscape:window-width="3840"
     inkscape:window-height="2097"
     inkscape:window-x="0"
     inkscape:window-y="33"
     inkscape:window-maximized="0"
     inkscape:current-layer="layer1"
     showguides="false"
     inkscape:bbox-nodes="false" />
  <defs
     id="defs2" />
  <g
     inkscape:label="Calque 1"
     inkscape:groupmode="layer"
     id="layer1"
     transform="translate(-206.1248,-1623.0163)">
    <path
       inkscape:connector-curvature="0"
       id="path6962-1-3-8-9"
       style="color:#000000;fill:none;stroke:#ff0000;stroke-width:0.1;stroke-linecap:square;stroke-linejoin:round;stroke-miterlimit:4;stroke-dasharray:none;stroke-opacity:1"
       d="M 341.84816,1758.7915 V 1694.1775 C 341.84816,1658.5051 312.90962,1629.5666 277.23712,1629.5666 241.56463,1629.5666 212.62402,1658.5051 212.62402,1694.1775 212.62402,1729.8501 241.56463,1758.7913 277.23712,1758.7913 277.78933,1758.7912 278.23698,1758.3435 278.23706,1757.7913 V 1715.3495 C 278.23698,1714.7972 277.78933,1714.3496 277.23712,1714.3495 266.08529,1714.3495 257.06523,1705.3295 257.06523,1694.1775 257.06523,1683.0258 266.08529,1674.0078 277.23712,1674.0078 288.38896,1674.0078 297.40696,1683.0258 297.40694,1694.1775 L 297.40682,1757.7913 V 1758.7913 L 340.84822,1758.7915 Z M 275.58657,1631.1081 V 1650.171 C 270.79607,1650.3481 266.19976,1651.2898 261.91711,1652.8814 L 254.6168,1635.2567 C 261.1532,1632.7464 268.21117,1631.2978 275.58657,1631.1081 Z M 278.88767,1631.1081 C 286.26293,1631.2978 293.32077,1632.7465 299.85693,1635.2567 L 292.5571,1652.8814 C 288.27445,1651.2898 283.67816,1650.3481 278.88767,1650.171 Z M 251.56891,1636.5217 258.86977,1654.1475 C 254.59913,1656.1125 250.69647,1658.7414 247.29269,1661.9009 L 233.80152,1648.4099 C 238.97188,1643.5018 244.96925,1639.4634 251.56891,1636.5217 Z M 302.90533,1636.5222 C 309.5048,1639.4641 315.50211,1643.5022 320.6722,1648.4104 L 307.18155,1661.9009 C 303.77771,1658.7413 299.87516,1656.1126 295.60447,1654.1475 Z M 323.00435,1650.7425 C 327.9125,1655.9126 331.95063,1661.91 334.8925,1668.5093 L 317.26723,1675.8103 C 315.30211,1671.5395 312.6735,1667.6371 309.51369,1664.2332 Z M 231.46833,1650.743 244.95951,1664.2342 C 241.79999,1667.6379 239.17143,1671.5402 237.20648,1675.8108 L 219.57965,1668.5093 C 222.52163,1661.9101 226.56018,1655.9129 231.46833,1650.743 Z M 275.58657,1653.4737 V 1672.5919 C 273.82225,1672.7254 272.1169,1673.0611 270.4954,1673.5923 L 263.17749,1655.9241 C 267.0687,1654.4958 271.23962,1653.6464 275.58657,1653.4737 Z M 278.88767,1653.4737 C 283.23456,1653.6464 287.40569,1654.4958 291.29673,1655.9241 L 283.9783,1673.5923 C 282.35704,1673.0611 280.65183,1672.7253 278.88767,1672.5919 Z M 260.12911,1657.1887 267.45013,1674.8641 C 265.89512,1675.654 264.44826,1676.6201 263.13721,1677.7461 L 249.61245,1664.2213 C 252.71109,1661.3631 256.25492,1658.9811 260.12911,1657.1887 Z M 294.3451,1657.1887 C 298.21905,1658.9811 301.76235,1661.3636 304.86075,1664.2218 L 291.336,1677.7466 C 290.02493,1676.6204 288.57867,1675.6541 287.02361,1674.8641 Z M 247.27925,1666.554 260.80453,1680.0793 C 259.6782,1681.3903 258.71167,1682.8367 257.9215,1684.3916 L 240.24609,1677.0701 C 242.0387,1673.1961 244.42093,1669.6525 247.27925,1666.554 Z M 307.1929,1666.554 C 310.05106,1669.6523 312.43358,1673.1956 314.22608,1677.0696 L 296.55067,1684.3911 C 295.76057,1682.8362 294.79436,1681.3896 293.66817,1680.0788 Z M 336.15806,1671.5573 C 338.66287,1678.0792 340.11072,1685.1206 340.30561,1692.4785 H 321.24217 C 321.06058,1687.7057 320.11946,1683.1262 318.53331,1678.8582 Z M 218.31462,1671.5578 235.94042,1678.8592 C 234.35451,1683.1269 233.41312,1687.7061 233.23154,1692.4785 H 214.16654 C 214.36151,1685.1208 215.80976,1678.0796 218.31462,1671.5578 Z M 315.4911,1680.118 C 316.91409,1683.9946 317.76231,1688.1491 317.93953,1692.4785 H 298.82132 C 298.68522,1690.7314 298.34928,1689.0428 297.82294,1687.4364 Z M 238.98157,1680.1185 256.64923,1687.4375 C 256.123,1689.0436 255.78692,1690.7319 255.65085,1692.4785 H 236.53261 C 236.70986,1688.1493 237.55859,1683.995 238.98157,1680.1185 Z M 214.16397,1695.7796 H 233.22791 C 233.40032,1700.5873 234.34361,1705.2001 235.94042,1709.4971 L 218.31669,1716.7964 C 215.79984,1710.2469 214.34873,1703.1732 214.16397,1695.7796 Z M 236.52901,1695.7796 H 255.64516 C 255.77629,1697.5618 256.11741,1699.2821 256.65492,1700.9173 L 238.98157,1708.2372 C 237.54789,1704.3315 236.6974,1700.144 236.52901,1695.7796 Z M 257.92357,1703.9626 C 258.71546,1705.5153 259.69051,1706.9541 260.81901,1708.262 L 247.27925,1721.8018 C 244.42093,1718.7031 242.03867,1715.1594 240.24609,1711.2851 Z M 263.14855,1710.6004 C 264.45917,1711.7205 265.91324,1712.671 267.46666,1713.4566 L 260.12964,1731.1692 C 256.25547,1729.3767 252.71162,1726.9943 249.61295,1724.136 Z M 237.20648,1712.5445 C 239.17138,1716.8152 241.79951,1720.7181 244.95898,1724.1221 L 231.47505,1737.606 C 226.56515,1732.4381 222.52536,1726.4425 219.58224,1719.8443 Z M 270.50831,1714.735 C 272.47665,1715.3767 274.56697,1715.7486 276.7369,1715.799 V 1734.8976 C 271.97657,1734.8399 267.40949,1733.9866 263.17749,1732.4332 Z M 247.29322,1726.4558 C 250.69692,1729.6155 254.59926,1732.2447 258.86977,1734.2098 L 251.57563,1751.8201 C 244.97644,1748.881 238.9799,1744.844 233.80928,1739.9397 Z M 261.91764,1735.4759 C 266.54152,1737.1944 271.53214,1738.1511 276.7369,1738.2096 V 1757.2658 C 268.94677,1757.2047 261.49817,1755.7235 254.6235,1753.0857 Z"
       sodipodi:nodetypes="csssccccsssccccccccccccccccccccccccccccccccccccccccccccccccccccccccccccccccccccccccccccccccccccccccccccccccccccccccccccccccccccccccsccc" />
    <path
       inkscape:connector-curvature="0"
       style="color:#000000;fill:none;stroke:#ff0000;stroke-width:0.1;stroke-linejoin:round;stroke-miterlimit:4;stroke-dasharray:none;stroke-opacity:1"
       d="M 277.28569,1623.0665 C 238.10034,1623.0665 206.1748,1654.9921 206.1748,1694.1774 206.1748,1733.3627 238.10037,1765.2909 277.28569,1765.2909 281.4277,1765.2907 284.78549,1761.9331 284.78602,1757.7911 V 1715.3492 C 284.78549,1711.2072 281.4277,1707.8497 277.28569,1707.8494 269.64672,1707.8494 263.61573,1701.8164 263.61573,1694.1774 263.61573,1686.5384 269.64672,1680.5074 277.28569,1680.5074 284.92466,1680.5074 290.95772,1686.5383 290.95772,1694.1774 V 1757.7911 C 290.95824,1761.9329 294.31571,1765.2904 298.45752,1765.2909 H 340.89939 C 345.04121,1765.2904 348.39866,1761.9329 348.39919,1757.7911 V 1694.1774 C 348.39919,1654.992 316.47104,1623.0665 277.28569,1623.0665 Z"
       id="path39756-2-1-0-5-9-1-0-0"
       sodipodi:nodetypes="ssccccsssccccss" />
    <path
       inkscape:connector-curvature="0"
       id="path15484-6-2"
       style="color:#000000;fill:none;stroke:#ff0000;stroke-width:0.1;stroke-linecap:square;stroke-linejoin:round;stroke-miterlimit:4;stroke-dasharray:none;stroke-opacity:1"
       d="M 301.17764,1758.7913 V 1721.8912 H 304.92779 V 1701.8915 H 334.32756 V 1721.8912 H 338.07774 V 1758.7913"
       sodipodi:nodetypes="cccccccc" />
    <path
       inkscape:connector-curvature="0"
       id="path15484-8-8-1"
       style="color:#000000;fill:none;stroke:#ff0000;stroke-width:0.10000006;stroke-linecap:square;stroke-linejoin:round;stroke-miterlimit:4;stroke-dasharray:none;stroke-opacity:1"
       d="M 444.39061,1758.7913 V 1721.8912 L 449.39028,1721.8917 V 1701.8913 H 478.79004 V 1721.8917 L 483.79027,1721.8912 V 1758.7913"
       sodipodi:nodetypes="cccccccc" />
    <path
       inkscape:connector-curvature="0"
       id="path6962-1-3-8-7-9"
       style="color:#000000;fill:none;stroke:#ff0000;stroke-width:0.1;stroke-linecap:square;stroke-linejoin:round;stroke-miterlimit:4;stroke-dasharray:none;stroke-opacity:1"
       d="M 486.31159,1758.7913 V 1694.1774 C 486.31159,1658.505 457.37302,1629.5664 421.70052,1629.5664 386.02805,1629.5664 357.08745,1658.5049 357.08745,1694.1774 357.08745,1729.8499 386.02805,1758.7911 421.70052,1758.7911 422.25273,1758.791 422.70038,1758.3433 422.70046,1757.7911 V 1715.3493 C 422.70038,1714.797 422.25273,1714.3494 421.70052,1714.3493 410.5487,1714.3493 401.52864,1705.3293 401.52864,1694.1774 401.52864,1683.0256 410.5487,1674.0076 421.70052,1674.0076 432.85236,1674.0076 441.87037,1683.0256 441.87034,1694.1774 L 441.87024,1757.7911 V 1758.7911 L 485.31165,1758.7913 Z M 420.04997,1631.1078 V 1650.1708 C 415.25948,1650.3478 410.66316,1651.2896 406.38051,1652.8812 L 399.08021,1635.2565 C 405.61661,1632.7461 412.67458,1631.2977 420.04997,1631.1078 Z M 423.35107,1631.1078 C 430.72633,1631.2977 437.78417,1632.7463 444.32033,1635.2565 L 437.0205,1652.8812 C 432.73785,1651.2896 428.14156,1650.3478 423.35107,1650.1708 Z M 396.03231,1636.5214 403.33317,1654.1473 C 399.06253,1656.1122 395.15988,1658.7411 391.75609,1661.9008 L 378.26493,1648.4096 C 383.43529,1643.5015 389.43265,1639.4633 396.03231,1636.5214 Z M 447.36876,1636.5219 C 453.96821,1639.4639 459.96552,1643.502 465.13561,1648.4101 L 451.64495,1661.9008 C 448.24111,1658.7411 444.33856,1656.1124 440.0679,1654.1473 Z M 467.46778,1650.7423 C 472.37591,1655.9124 476.41403,1661.9097 479.35591,1668.5092 L 461.73066,1675.8101 C 459.76552,1671.5393 457.13691,1667.6369 453.9771,1664.233 Z M 375.93173,1650.7429 389.42292,1664.234 C 386.26339,1667.6378 383.63484,1671.54 381.66988,1675.8106 L 364.04305,1668.5092 C 366.98503,1661.9099 371.02361,1655.9128 375.93173,1650.7429 Z M 420.04997,1653.4735 V 1672.5917 C 418.28568,1672.7252 416.5803,1673.0608 414.95881,1673.5921 L 407.64091,1655.9239 C 411.53211,1654.4957 415.70303,1653.6463 420.04997,1653.4735 Z M 423.35107,1653.4735 C 427.69796,1653.6463 431.86909,1654.4957 435.76014,1655.9239 L 428.44171,1673.5921 C 426.82045,1673.0608 425.11523,1672.7251 423.35107,1672.5917 Z M 404.59254,1657.1885 411.91353,1674.8639 C 410.35852,1675.6538 408.91167,1676.6199 407.60061,1677.7459 L 394.07585,1664.2211 C 397.17449,1661.3629 400.71832,1658.9809 404.59254,1657.1885 Z M 438.80851,1657.1885 C 442.68246,1658.9809 446.22576,1661.3635 449.32416,1664.2216 L 435.79943,1677.7464 C 434.48834,1676.6202 433.04207,1675.6539 431.48704,1674.8639 Z M 391.74268,1666.5538 405.26794,1680.0791 C 404.14161,1681.3901 403.17508,1682.8364 402.38491,1684.3914 L 384.7095,1677.07 C 386.5021,1673.1959 388.88436,1669.6523 391.74268,1666.5538 Z M 451.6563,1666.5538 C 454.51446,1669.6521 456.89698,1673.1955 458.68948,1677.0694 L 441.01407,1684.3909 C 440.22397,1682.8359 439.25777,1681.3895 438.1316,1680.0786 Z M 480.62146,1671.5571 C 483.12627,1678.079 484.57415,1685.1204 484.76902,1692.4783 H 465.70558 C 465.52399,1687.7054 464.58287,1683.126 462.99672,1678.8579 Z M 362.77802,1671.5576 380.40383,1678.859 C 378.81791,1683.1267 377.87653,1687.7059 377.69494,1692.4783 H 358.62994 C 358.82491,1685.1206 360.27316,1678.0794 362.77802,1671.5576 Z M 459.95451,1680.1178 C 461.37752,1683.9944 462.22572,1688.1489 462.40294,1692.4783 H 443.28473 C 443.14863,1690.7313 442.81268,1689.0427 442.28635,1687.4362 Z M 383.44497,1680.1183 401.11263,1687.4373 C 400.5864,1689.0433 400.25033,1690.7317 400.11425,1692.4783 H 380.99602 C 381.17326,1688.1491 382.02199,1683.9948 383.44497,1680.1183 Z M 358.62737,1695.7794 H 377.69132 C 377.86375,1700.5871 378.80701,1705.1999 380.40383,1709.4969 L 362.78011,1716.7962 C 360.26327,1710.2467 358.81213,1703.173 358.62737,1695.7794 Z M 380.99242,1695.7794 H 400.10856 C 400.23969,1697.5616 400.58082,1699.2819 401.11835,1700.9171 L 383.44497,1708.237 C 382.0113,1704.3313 381.16082,1700.1438 380.99242,1695.7794 Z M 402.387,1703.9624 C 403.17887,1705.5151 404.15394,1706.9539 405.28241,1708.2618 L 391.74268,1721.8016 C 388.88436,1718.7029 386.50207,1715.1592 384.7095,1711.2849 Z M 407.61196,1710.6002 C 408.92258,1711.7203 410.37665,1712.6708 411.93007,1713.4564 L 404.59307,1731.169 C 400.71888,1729.3765 397.17502,1726.9941 394.07635,1724.1358 Z M 381.66988,1712.5443 C 383.63478,1716.815 386.26292,1720.7179 389.42239,1724.1219 L 375.93845,1737.6058 C 371.02855,1732.4379 366.98876,1726.4423 364.04564,1719.8441 Z M 414.97172,1714.7348 C 416.94006,1715.3765 419.03037,1715.7484 421.20033,1715.7988 V 1734.8974 C 416.44,1734.8397 411.87289,1733.9864 407.64091,1732.433 Z M 391.75665,1726.4556 C 395.16033,1729.6153 399.06267,1732.2445 403.33317,1734.2096 L 396.03903,1751.8199 C 389.43985,1748.8808 383.44331,1744.8438 378.27269,1739.9395 Z M 406.38107,1735.4757 C 411.00493,1737.1942 415.99555,1738.1509 421.20033,1738.2094 V 1757.2656 C 413.41017,1757.2045 405.9616,1755.7233 399.0869,1753.0855 Z"
       sodipodi:nodetypes="csssccccsssccccccccccccccccccccccccccccccccccccccccccccccccccccccccccccccccccccccccccccccccccccccccccccccccccccccccccccccccccccccccsccc" />
    <path
       inkscape:connector-curvature="0"
       style="color:#000000;fill:none;stroke:#ff0000;stroke-width:0.1;stroke-linejoin:round;stroke-miterlimit:4;stroke-dasharray:none;stroke-opacity:1"
       d="M 421.7491,1623.0663 C 382.56375,1623.0663 350.6382,1654.9919 350.6382,1694.1772 350.6382,1733.3625 382.56378,1765.2907 421.7491,1765.2907 A 7.5007499,7.5007499 0 0 0 429.24943,1757.7909 V 1715.349 A 7.5007499,7.5007499 0 0 0 421.7491,1707.8492 C 414.11013,1707.8492 408.07914,1701.8162 408.07914,1694.1772 408.07914,1686.5382 414.11013,1680.5072 421.7491,1680.5072 429.38807,1680.5072 435.42113,1686.5381 435.42113,1694.1772 V 1757.7909 A 7.5007499,7.5007499 0 0 0 442.92092,1765.2907 H 485.3628 A 7.5007499,7.5007499 0 0 0 492.86259,1757.7909 V 1694.1772 C 492.86259,1654.9918 460.93445,1623.0663 421.7491,1623.0663 Z"
       id="path39756-2-1-0-5-9-1-0-4-6" />
    <path
       inkscape:connector-curvature="0"
       id="rect5557-2-1-0-8-6-4-1"
       style="fill:none;stroke:#ff0000;stroke-width:0.1;stroke-linecap:square;stroke-linejoin:round;stroke-opacity:1"
       d="M 444.39061,1753.7913 H 483.79061"
       sodipodi:nodetypes="cc" />
    <g
       aria-label="1"
       style="font-style:normal;font-variant:normal;font-weight:normal;font-stretch:normal;font-size:11.28888893px;line-height:125%;font-family:'Bubbler One';-inkscape-font-specification:'Bubbler One, Normal';font-variant-ligatures:normal;font-variant-caps:normal;font-variant-numeric:normal;font-feature-settings:normal;text-align:start;letter-spacing:0px;word-spacing:0px;writing-mode:lr-tb;text-anchor:start;fill:none;fill-opacity:1;stroke:#0000ff;stroke-width:0.26458332px;stroke-linecap:butt;stroke-linejoin:miter;stroke-opacity:1"
       id="text1419-8-4"
       transform="translate(996.67364,131.31921)">
      <path
         d="M -693.86248,1570.5682 H -694.29146 V 1563.2982 L -695.98479,1564.0658 V 1563.6481 L -693.86248,1562.666 Z"
         style="font-style:normal;font-variant:normal;font-weight:normal;font-stretch:normal;font-size:11.28888893px;font-family:'Bubbler One';-inkscape-font-specification:'Bubbler One, Normal';font-variant-ligatures:normal;font-variant-caps:normal;font-variant-numeric:normal;font-feature-settings:normal;text-align:start;writing-mode:lr-tb;text-anchor:start;fill:none;stroke:#0000ff;stroke-width:0.26458332px;stroke-opacity:1"
         id="path1517-7"
         inkscape:connector-curvature="0" />
    </g>
    <g
       aria-label="1"
       style="font-style:normal;font-variant:normal;font-weight:normal;font-stretch:normal;font-size:11.28888893px;line-height:125%;font-family:'Bubbler One';-inkscape-font-specification:'Bubbler One, Normal';font-variant-ligatures:normal;font-variant-caps:normal;font-variant-numeric:normal;font-feature-settings:normal;text-align:start;letter-spacing:0px;word-spacing:0px;writing-mode:lr-tb;text-anchor:start;fill:none;fill-opacity:1;stroke:#0000ff;stroke-width:0.26458332px;stroke-linecap:butt;stroke-linejoin:miter;stroke-opacity:1"
       id="text1419-8-2-6"
       transform="translate(1215.8446,281.66943)">
      <g
         transform="translate(-81.833411,-150.48049)"
         aria-label="2"
         style="font-style:normal;font-variant:normal;font-weight:normal;font-stretch:normal;font-size:11.28888893px;line-height:125%;font-family:'Bubbler One';-inkscape-font-specification:'Bubbler One, Normal';font-variant-ligatures:normal;font-variant-caps:normal;font-variant-numeric:normal;font-feature-settings:normal;text-align:start;letter-spacing:0px;word-spacing:0px;writing-mode:lr-tb;text-anchor:start;fill:none;fill-opacity:1;stroke:#0000ff;stroke-width:0.26458332px;stroke-linecap:butt;stroke-linejoin:miter;stroke-opacity:1"
         id="text5452-0">
        <path
           inkscape:connector-curvature="0"
           d="M -690.4987,1570.702 -687.48457,1566.5251 Q -687.23621,1566.1752 -687.11204,1565.9833 -686.97657,1565.7914 -686.8411,1565.464 -686.70564,1565.1366 -686.70564,1564.8544 -686.70564,1564.0754 -687.20235,1563.6465 -687.69906,1563.2175 -688.35381,1563.2175 -689.00857,1563.2175 -690.11488,1563.9287 V 1563.5223 Q -689.12146,1562.7998 -688.27479,1562.7998 -687.42812,1562.7998 -686.86368,1563.3755 -686.29923,1563.94 -686.29923,1564.8092 -686.29923,1565.6785 -686.90884,1566.5251 L -689.61817,1570.2843 H -686.20892 V 1570.702 Z"
           id="path5456-7"
           style="fill:none;stroke:#0000ff;stroke-opacity:1" />
      </g>
    </g>
    <g
       aria-label="2"
       style="font-style:normal;font-variant:normal;font-weight:normal;font-stretch:normal;font-size:7.05555534px;line-height:125%;font-family:'Bubbler One';-inkscape-font-specification:'Bubbler One, Normal';font-variant-ligatures:normal;font-variant-caps:normal;font-variant-numeric:normal;font-feature-settings:normal;text-align:start;letter-spacing:0px;word-spacing:0px;writing-mode:lr-tb;text-anchor:start;fill:none;fill-opacity:1;stroke:#0000ff;stroke-width:0.26458332px;stroke-linecap:butt;stroke-linejoin:miter;stroke-opacity:1"
       id="text3038-1-65"
       transform="translate(949.07787,75.84177)">
      <path
         d="M -524.44268,1656.7974 -522.55884,1654.1868 Q -522.40362,1653.9681 -522.32601,1653.8481 -522.24134,1653.7282 -522.15668,1653.5236 -522.07201,1653.319 -522.07201,1653.1426 -522.07201,1652.6558 -522.38246,1652.3876 -522.6929,1652.1195 -523.10212,1652.1195 -523.51134,1652.1195 -524.20279,1652.564 V 1652.31 Q -523.5819,1651.8585 -523.05273,1651.8585 -522.52357,1651.8585 -522.17079,1652.2183 -521.81801,1652.5711 -521.81801,1653.1144 -521.81801,1653.6576 -522.19901,1654.1868 L -523.89234,1656.5363 H -521.76157 V 1656.7974 Z"
         style="fill:none;stroke:#0000ff;stroke-width:0.26458332px;stroke-opacity:1"
         id="path3247"
         inkscape:connector-curvature="0" />
    </g>
    <g
       aria-label="1"
       style="font-style:normal;font-variant:normal;font-weight:normal;font-stretch:normal;font-size:7.05555534px;line-height:125%;font-family:'Bubbler One';-inkscape-font-specification:'Bubbler One, Normal';font-variant-ligatures:normal;font-variant-caps:normal;font-variant-numeric:normal;font-feature-settings:normal;text-align:start;letter-spacing:0px;word-spacing:0px;writing-mode:lr-tb;text-anchor:start;fill:none;fill-opacity:1;stroke:#0000ff;stroke-width:0.26458332px;stroke-linecap:butt;stroke-linejoin:miter;stroke-opacity:1"
       id="text3038-1-80"
       transform="translate(957.54459,75.84177)">
      <path
         d="M -675.36903,1656.7975 H -675.63714 V 1652.2537 L -676.69547,1652.7335 V 1652.4724 L -675.36903,1651.8586 Z"
         style="fill:none;stroke:#0000ff;stroke-width:0.26458332px;stroke-opacity:1"
         id="path3244"
         inkscape:connector-curvature="0" />
    </g>
    <path
       inkscape:connector-curvature="0"
       id="rect5557-2-1-0-8-6-4-1-9"
       style="fill:none;stroke:#ff0000;stroke-width:0.1;stroke-linecap:square;stroke-linejoin:round;stroke-opacity:1"
       d="M 444.39061,1748.7913 H 483.79061"
       sodipodi:nodetypes="cc" />
  </g>
</svg>
