(kicad_pcb (version 20171130) (host pcbnew 5.0.2-bee76a0~70~ubuntu18.04.1)

  (general
    (thickness 1.6)
    (drawings 6)
    (tracks 3)
    (zones 0)
    (modules 2)
    (nets 4)
  )

  (page A4)
  (layers
    (0 F.Cu signal)
    (31 B.Cu signal)
    (32 B.Adhes user)
    (33 F.Adhes user)
    (34 B.Paste user)
    (35 F.Paste user)
    (36 B.SilkS user)
    (37 F.SilkS user)
    (38 B.Mask user)
    (39 F.Mask user)
    (40 Dwgs.User user)
    (41 Cmts.User user)
    (42 Eco1.User user)
    (43 Eco2.User user)
    (44 Edge.Cuts user)
    (45 Margin user)
    (46 B.CrtYd user)
    (47 F.CrtYd user)
    (48 B.Fab user)
    (49 F.Fab user)
  )

  (setup
    (last_trace_width 0.25)
    (trace_clearance 0.2)
    (zone_clearance 0.254)
    (zone_45_only no)
    (trace_min 0.2)
    (segment_width 0.2)
    (edge_width 0.15)
    (via_size 0.6)
    (via_drill 0.4)
    (via_min_size 0.4)
    (via_min_drill 0.3)
    (uvia_size 0.3)
    (uvia_drill 0.1)
    (uvias_allowed no)
    (uvia_min_size 0.2)
    (uvia_min_drill 0.1)
    (pcb_text_width 0.3)
    (pcb_text_size 1.5 1.5)
    (mod_edge_width 0.15)
    (mod_text_size 1 1)
    (mod_text_width 0.15)
    (pad_size 1.524 1.524)
    (pad_drill 0.762)
    (pad_to_mask_clearance 0.2)
    (solder_mask_min_width 0.25)
    (aux_axis_origin 0 0)
    (visible_elements FFFFFF7F)
    (pcbplotparams
      (layerselection 0x00030_80000001)
      (usegerberextensions false)
      (usegerberattributes false)
      (usegerberadvancedattributes false)
      (creategerberjobfile false)
      (excludeedgelayer true)
      (linewidth 0.150000)
      (plotframeref false)
      (viasonmask false)
      (mode 1)
      (useauxorigin false)
      (hpglpennumber 1)
      (hpglpenspeed 20)
      (hpglpendiameter 15.000000)
      (psnegative false)
      (psa4output false)
      (plotreference true)
      (plotvalue true)
      (plotinvisibletext false)
      (padsonsilk false)
      (subtractmaskfromsilk false)
      (outputformat 1)
      (mirror false)
      (drillshape 1)
      (scaleselection 1)
      (outputdirectory ""))
  )

  (net 0 "")
  (net 1 "Net-(J1-Pad1)")
  (net 2 "Net-(J1-Pad2)")
  (net 3 "Net-(J1-Pad3)")

  (net_class Default "This is the default net class."
    (clearance 0.2)
    (trace_width 0.25)
    (via_dia 0.6)
    (via_drill 0.4)
    (uvia_dia 0.3)
    (uvia_drill 0.1)
    (add_net "Net-(J1-Pad1)")
    (add_net "Net-(J1-Pad2)")
    (add_net "Net-(J1-Pad3)")
  )

  (module crafting-labs:cable_conn_3x_smd (layer B.Cu) (tedit 5F985CF1) (tstamp 5FB05D08)
    (at 146.5 105 180)
    (path /5C2CD28F)
    (fp_text reference J1 (at 4 4 180) (layer B.SilkS)
      (effects (font (size 1 1) (thickness 0.15)) (justify mirror))
    )
    (fp_text value Conn_01x03 (at -3.81 0 90) (layer B.Fab)
      (effects (font (size 1 1) (thickness 0.15)) (justify mirror))
    )
    (fp_line (start -3 5) (end -3 -5) (layer B.SilkS) (width 0.15))
    (fp_line (start 3 -5) (end -3 -5) (layer B.SilkS) (width 0.15))
    (fp_line (start 3 5) (end 3 -5) (layer B.SilkS) (width 0.15))
    (fp_line (start -3 5) (end 3 5) (layer B.SilkS) (width 0.15))
    (pad 3 smd rect (at 0 -3.5 180) (size 5 2) (layers B.Cu B.Paste B.Mask)
      (net 3 "Net-(J1-Pad3)"))
    (pad 2 smd rect (at 0 0 180) (size 5 2) (layers B.Cu B.Paste B.Mask)
      (net 2 "Net-(J1-Pad2)"))
    (pad 1 smd rect (at 0 3.5 180) (size 5 2) (layers B.Cu B.Paste B.Mask)
      (net 1 "Net-(J1-Pad1)"))
  )

  (module crafting-labs:ws2812_strip (layer F.Cu) (tedit 5F985AF6) (tstamp 5FB05EAB)
    (at 144.5 105)
    (path /5A270EAB)
    (fp_text reference L1 (at 3.5 -4) (layer F.SilkS)
      (effects (font (size 1 1) (thickness 0.15)))
    )
    (fp_text value ws2812_strip (at -3.5 0 90) (layer F.Fab)
      (effects (font (size 1 1) (thickness 0.15)))
    )
    (fp_line (start -2.54 -3.81) (end -2.54 3.81) (layer F.SilkS) (width 0.15))
    (fp_line (start 2.5 3.81) (end -2.5 3.81) (layer F.SilkS) (width 0.15))
    (fp_line (start 2.54 -3.81) (end 2.54 3.81) (layer F.SilkS) (width 0.15))
    (fp_line (start -2.5 -3.81) (end 2.5 -3.81) (layer F.SilkS) (width 0.15))
    (pad 3 smd rect (at 0 2.75) (size 4 1.6) (layers F.Cu F.Paste F.Mask)
      (net 3 "Net-(J1-Pad3)"))
    (pad 2 smd rect (at 0 0) (size 4 1.6) (layers F.Cu F.Paste F.Mask)
      (net 2 "Net-(J1-Pad2)"))
    (pad 1 smd rect (at 0 -2.75) (size 4 1.6) (layers F.Cu F.Paste F.Mask)
      (net 1 "Net-(J1-Pad1)"))
  )

  (gr_text "Crafting Labs" (at 142.5 106.5 90) (layer B.SilkS) (tstamp 5FB0612F)
    (effects (font (size 0.5 0.5) (thickness 0.1)) (justify mirror))
  )
  (gr_text "Crafting Labs" (at 148.5 106.5 90) (layer F.SilkS)
    (effects (font (size 0.5 0.5) (thickness 0.1)))
  )
  (gr_line (start 149.5 100) (end 141.5 100) (angle 90) (layer Edge.Cuts) (width 0.15))
  (gr_line (start 141.5 110) (end 149.5 110) (angle 90) (layer Edge.Cuts) (width 0.15))
  (gr_line (start 149.5 100) (end 149.5 110) (angle 90) (layer Edge.Cuts) (width 0.15))
  (gr_line (start 141.5 100) (end 141.5 110) (angle 90) (layer Edge.Cuts) (width 0.15))

  (via (at 145.5 108) (size 0.6) (drill 0.4) (layers F.Cu B.Cu) (net 3))
  (via (at 145.5 105) (size 0.6) (drill 0.4) (layers F.Cu B.Cu) (net 2))
  (via (at 145.5 102) (size 0.6) (drill 0.4) (layers F.Cu B.Cu) (net 1))

)
