<?xml version="1.0" encoding="UTF-8" standalone="no"?>
<!-- Created with Inkscape (http://www.inkscape.org/) -->

<svg
   xmlns:dc="http://purl.org/dc/elements/1.1/"
   xmlns:cc="http://creativecommons.org/ns#"
   xmlns:rdf="http://www.w3.org/1999/02/22-rdf-syntax-ns#"
   xmlns:svg="http://www.w3.org/2000/svg"
   xmlns="http://www.w3.org/2000/svg"
   xmlns:sodipodi="http://sodipodi.sourceforge.net/DTD/sodipodi-0.dtd"
   xmlns:inkscape="http://www.inkscape.org/namespaces/inkscape"
   width="271.99933mm"
   height="202.50291mm"
   viewBox="0 0 271.99933 202.50291"
   version="1.1"
   id="svg2663"
   inkscape:version="0.92.3 (2405546, 2018-03-11)"
   sodipodi:docname="square-cut.2.svg">
  <defs
     id="defs2657" />
  <sodipodi:namedview
     id="base"
     pagecolor="#ffffff"
     bordercolor="#666666"
     borderopacity="1.0"
     inkscape:pageopacity="0.0"
     inkscape:pageshadow="2"
     inkscape:zoom="0.7"
     inkscape:cx="178.92109"
     inkscape:cy="422.27357"
     inkscape:document-units="mm"
     inkscape:current-layer="layer1"
     showgrid="false"
     inkscape:window-width="1920"
     inkscape:window-height="996"
     inkscape:window-x="0"
     inkscape:window-y="27"
     inkscape:window-maximized="1"
     fit-margin-top="0"
     fit-margin-left="0"
     fit-margin-right="0"
     fit-margin-bottom="0" />
  <metadata
     id="metadata2660">
    <rdf:RDF>
      <cc:Work
         rdf:about="">
        <dc:format>image/svg+xml</dc:format>
        <dc:type
           rdf:resource="http://purl.org/dc/dcmitype/StillImage" />
        <dc:title />
      </cc:Work>
    </rdf:RDF>
  </metadata>
  <g
     inkscape:label="Calque 1"
     inkscape:groupmode="layer"
     id="layer1"
     transform="translate(174.10375,-160.51384)">
    <path
       id="path840"
       inkscape:label="part"
       style="fill:none;stroke:#fa0000;stroke-width:0.1;stroke-miterlimit:4;stroke-dasharray:none;stroke-opacity:1"
       d="M 47.94682,210.26591 H 54.597019 V 207.26591 M 64.097018,207.26591 V 210.26591 H 69.79662 V 207.26591 H 79.296619 V 210.26591 H 85.94662 V 215.31572 H 88.946741 V 223.21572 H 85.94662 V 247.31572 H 88.946741 V 255.21672 H 85.94662 V 260.26591 H 79.296619 V 263.26591 M 54.597019,263.26591 V 260.26591 H 47.94682"
       inkscape:connector-curvature="0"
       sodipodi:nodetypes="cccccccccccccccccccccccc" />
    <path
       style="opacity:1;fill:none;fill-opacity:1;fill-rule:nonzero;stroke:#fa0000;stroke-width:0.1;stroke-linecap:butt;stroke-linejoin:miter;stroke-miterlimit:4;stroke-dasharray:none;stroke-opacity:1"
       d="M 75.395269,207.26549 C 76.196081,207.26549 76.845321,206.61625 76.845321,205.81544 V 195.66516 H 78.345479 79.845129 V 205.81544 C 79.845129,206.61625 80.494359,207.26549 81.295171,207.26549 H 82.84547 V 203.76544 H 84.905799 V 203.31534 C 84.905799,201.13382 86.67443,199.36519 88.855949,199.36519 91.037481,199.36519 92.806088,201.13382 92.806088,203.31534 V 207.26549 H 96.395531 C 97.196372,207.26549 97.84558,206.61625 97.84558,205.81544 V 186.81565 C 97.84558,186.01484 97.196372,185.36561 96.395531,185.36561 H 88.845101 V 189.86538 H 85.845279 82.84547 V 185.36561 H 73.845499 V 189.86538 H 70.845169 67.845349 V 185.36561 H 49.39635 C 48.595539,185.36561 47.946299,186.01484 47.946299,186.81565 V 205.81544 C 47.946299,206.61626 48.595539,207.26549 49.39635,207.26549 H 67.845349 V 203.76544 H 73.845499 V 207.26549"
       id="path850-9-7-2"
       inkscape:connector-curvature="0"
       sodipodi:nodetypes="cscccsscccssscssssccccccccccsssscccc" />
    <path
       inkscape:connector-curvature="0"
       style="opacity:1;fill:none;fill-opacity:1;fill-rule:nonzero;stroke:#fa0000;stroke-width:0.1;stroke-linecap:butt;stroke-linejoin:miter;stroke-miterlimit:4;stroke-dasharray:none;stroke-opacity:1"
       d="M 73.8453,263.26598 V 267.76554 H 70.84497 67.845151 V 263.26598 H 49.396149 C 48.59534,263.26598 47.946108,263.91521 47.946108,264.71603 V 283.71545 C 47.946108,284.51627 48.59534,285.16549 49.396149,285.16549 H 67.845151 V 281.66545 H 73.8453 V 285.16549 H 75.395079 C 76.19589,285.16549 76.84512,284.51626 76.84512,283.71545 V 273.56517 H 78.345281 79.844931 V 283.71545 C 79.844931,284.51626 80.494171,285.16549 81.29498,285.16549 H 82.845269 V 281.66545 H 84.905609 V 281.21535 C 84.905609,279.03383 86.67424,277.2652 88.85575,277.2652 91.037269,277.2652 92.805903,279.03383 92.805903,281.21535 V 285.16549 H 96.395346 C 97.196161,285.16549 97.845395,284.51626 97.845395,283.71545 V 264.71603 C 97.845395,263.91521 97.169464,263.47107 96.395346,263.26598 H 88.8449 V 267.76554 H 85.845091 82.845269 V 263.26598 L 69.79662,263.26591 V 260.26591 H 64.097018 V 263.26591"
       id="path850-9-7-2-9"
       sodipodi:nodetypes="cccccssssccccsscccsscccssscssssccccccccc" />
    <path
       style="opacity:1;fill:none;fill-opacity:1;fill-rule:nonzero;stroke:#fa0000;stroke-width:0.1;stroke-linecap:butt;stroke-linejoin:miter;stroke-miterlimit:4;stroke-dasharray:none;stroke-opacity:1"
       d="M -143.50112,223.23402 A 5.9499997,5.9500003 0 0 0 -149.45113,229.18407 5.9499997,5.9500003 0 0 0 -143.50112,235.1341 5.9499997,5.9500003 0 0 0 -137.5516,229.18407 5.9499997,5.9500003 0 0 0 -143.50112,223.23402 Z M -144.95064,224.68407 H -142.05211 C -142.05166,224.68407 -142.05108,224.68414 -142.05108,224.68458 V 227.73402 H -139.00218 C -139.00173,227.73402 -139.00112,227.73461 -139.00112,227.73505 V 230.63308 C -139.00112,230.63353 -139.00173,230.63411 -139.00218,230.63411 H -142.05108 V 233.68302 C -142.05108,233.68347 -142.05166,233.68405 -142.05211,233.68405 H -144.95064 C -144.95109,233.68405 -144.95115,233.68347 -144.95115,233.68302 V 230.63411 H -148.00058 C -148.00103,230.63411 -148.00111,230.63353 -148.00111,230.63308 V 227.73505 C -148.00111,227.73461 -148.00103,227.73402 -148.00058,227.73402 H -144.95115 V 224.68458 Z"
       id="rect1691-7"
       inkscape:connector-curvature="0" />
    <path
       style="opacity:1;fill:none;fill-opacity:1;fill-rule:nonzero;stroke:#fa0000;stroke-width:0.1;stroke-linecap:butt;stroke-linejoin:miter;stroke-miterlimit:4;stroke-dasharray:none;stroke-opacity:1"
       d="M -130.54325,223.23402 A 5.9499997,5.9500003 0 0 0 -136.49326,229.18407 5.9499997,5.9500003 0 0 0 -130.54325,235.1341 5.9499997,5.9500003 0 0 0 -124.59373,229.18407 5.9499997,5.9500003 0 0 0 -130.54325,223.23402 Z M -131.99277,224.68407 H -129.09424 C -129.09379,224.68407 -129.09321,224.68414 -129.09321,224.68458 V 227.73402 H -126.04431 C -126.04386,227.73402 -126.04325,227.73461 -126.04325,227.73505 V 230.63308 C -126.04325,230.63353 -126.04386,230.63411 -126.04431,230.63411 H -129.09321 V 233.68302 C -129.09321,233.68347 -129.09379,233.68405 -129.09424,233.68405 H -131.99277 C -131.99322,233.68405 -131.99328,233.68347 -131.99328,233.68302 V 230.63411 H -135.04271 C -135.04316,230.63411 -135.04324,230.63353 -135.04324,230.63308 V 227.73505 C -135.04324,227.73461 -135.04316,227.73402 -135.04271,227.73402 H -131.99328 V 224.68458 Z"
       id="rect1691-7-3"
       inkscape:connector-curvature="0" />
    <path
       style="opacity:1;fill:none;fill-opacity:1;fill-rule:nonzero;stroke:#fa0000;stroke-width:0.1;stroke-linecap:butt;stroke-linejoin:miter;stroke-miterlimit:4;stroke-dasharray:none;stroke-opacity:1"
       d="M -143.50112,236.19244 A 5.9499997,5.9500003 0 0 0 -149.45113,242.14249 5.9499997,5.9500003 0 0 0 -143.50112,248.09252 5.9499997,5.9500003 0 0 0 -137.5516,242.14249 5.9499997,5.9500003 0 0 0 -143.50112,236.19244 Z M -144.95064,237.64249 H -142.05211 C -142.05166,237.64249 -142.05108,237.64256 -142.05108,237.643 V 240.69244 H -139.00218 C -139.00173,240.69244 -139.00112,240.69303 -139.00112,240.69347 V 243.5915 C -139.00112,243.59195 -139.00173,243.59253 -139.00218,243.59253 H -142.05108 V 246.64144 C -142.05108,246.64189 -142.05166,246.64247 -142.05211,246.64247 H -144.95064 C -144.95109,246.64247 -144.95115,246.64189 -144.95115,246.64144 V 243.59253 H -148.00058 C -148.00103,243.59253 -148.00111,243.59195 -148.00111,243.5915 V 240.69347 C -148.00111,240.69303 -148.00103,240.69244 -148.00058,240.69244 H -144.95115 V 237.643 Z"
       id="rect1691-7-5"
       inkscape:connector-curvature="0" />
    <path
       style="opacity:1;fill:none;fill-opacity:1;fill-rule:nonzero;stroke:#fa0000;stroke-width:0.1;stroke-linecap:butt;stroke-linejoin:miter;stroke-miterlimit:4;stroke-dasharray:none;stroke-opacity:1"
       d="M -130.54325,236.19244 A 5.9499997,5.9500003 0 0 0 -136.49326,242.14249 5.9499997,5.9500003 0 0 0 -130.54325,248.09252 5.9499997,5.9500003 0 0 0 -124.59373,242.14249 5.9499997,5.9500003 0 0 0 -130.54325,236.19244 Z M -131.99277,237.64249 H -129.09424 C -129.09379,237.64249 -129.09321,237.64256 -129.09321,237.643 V 240.69244 H -126.04431 C -126.04386,240.69244 -126.04325,240.69303 -126.04325,240.69347 V 243.5915 C -126.04325,243.59195 -126.04386,243.59253 -126.04431,243.59253 H -129.09321 V 246.64144 C -129.09321,246.64189 -129.09379,246.64247 -129.09424,246.64247 H -131.99277 C -131.99322,246.64247 -131.99328,246.64189 -131.99328,246.64144 V 243.59253 H -135.04271 C -135.04316,243.59253 -135.04324,243.59195 -135.04324,243.5915 V 240.69347 C -135.04324,240.69303 -135.04316,240.69244 -135.04271,240.69244 H -131.99328 V 237.643 Z"
       id="rect1691-7-7"
       inkscape:connector-curvature="0" />
    <path
       id="path840-0"
       inkscape:label="part"
       style="fill:none;stroke:#fa0000;stroke-width:0.1;stroke-miterlimit:4;stroke-dasharray:none;stroke-opacity:1"
       d="M 47.94669,309.96631 H 54.596889 V 306.96631 H 64.096889 V 309.96631 H 69.79649 V 306.96631 H 79.296489 V 309.96631 H 85.94649 V 315.01612 H 88.946611 V 322.91612 H 85.94649 V 347.01612 H 88.946611 V 354.91712 H 85.94649 V 359.96631 H 79.296489 V 362.96631 H 69.79649 V 359.96631 H 64.096889 V 362.96631 H 54.596889 V 359.96631 H 47.94669"
       inkscape:connector-curvature="0"
       sodipodi:nodetypes="cccccccccccccccccccccccccccc" />
    <path
       style="fill:none;stroke:#fa0000;stroke-width:0.1;stroke-miterlimit:4;stroke-dasharray:none;stroke-opacity:1"
       d="M -174.05324,207.26556 V 215.31572 H -171.05342 V 223.21549 H -174.05324 V 247.31531 H -171.05342 V 255.21561 H -174.05324 V 263.26525 M 47.94664,263.26525 V 255.21561 H 44.946821 V 247.31531 H 47.94664 V 223.21549 H 44.946821 V 215.31572 H 47.94664 V 207.26556 M -159.4557,213.41557 H -115.75448 V 257.11523 H -159.4557 Z M -109.75433,213.41557 H -66.05364 V 257.11523 H -109.75433 Z M -60.05349,213.41557 H -16.35228 V 257.11523 H -60.05349 Z M -10.35265,213.41557 H 33.34856 V 257.11523 H -10.35265 Z"
       id="path4191"
       inkscape:connector-curvature="0"
       sodipodi:nodetypes="cccccccccccccccccccccccccccccccccccccccc" />
    <path
       style="fill:none;stroke:#fa0000;stroke-width:0.1;stroke-miterlimit:4;stroke-dasharray:none;stroke-opacity:1"
       d="M -165.88161,306.96642 H -174.05328 V 315.01658 H -171.05346 V 322.91638 H -174.05328 V 347.01622 H -171.05355 V 354.91708 H -174.05328 V 362.96676 H -165.88161 V 359.96658 L -141.11423,359.96693 V 362.96676 H -116.54723 V 359.96693 H -91.78123 V 362.96676 H -67.21423 V 359.96693 H -58.89223 V 362.96676 H -34.32523 V 359.96693 H -9.55823 V 362.96676 H 15.00877 V 359.96693 H 39.77477 V 362.96676 H 47.9466 V 354.91712 H 44.946778 V 347.01612 H 47.9466 V 322.91612 H 44.946778 V 315.01612 H 47.9466 V 306.96642 H 39.77477 M 39.77477,309.96624 H 15.00877 L 15.00758,301.26552 H -9.55942 L -9.55823,309.96624 H -34.32523 L -34.32586,301.26552 H -58.89282 V 304.26584 H -67.21482 V 301.26552 H -91.78178 L -91.78123,309.96624 H -116.54723 L -116.54824,301.26552 H -141.11469 L -141.11423,309.96624 H -165.88161 L -165.88165,301.26552 H -174.05375 V 294.6158 H -171.05396 V 285.11559 H -174.05375 V 279.41517 H -171.05396 V 269.91499 H -174.05375 V 263.26525 H -165.88165 V 260.26492 H -141.11469 V 263.26525 H -116.54824 V 260.26492 H -91.78178 V 263.26525 H -67.21482 V 260.26492 H -58.89282 V 263.26525 H -34.32586 V 260.26492 H -9.55942 V 263.26525 H 15.00758 V 260.26492 H 39.77401 V 263.26525 H 47.946108 V 269.91499 H 44.94631 V 279.41517 H 47.946108 V 285.11559 H 44.94631 V 294.6158 H 47.946108 V 301.26552 H 39.77401 Z M 39.77401,307.71577 C 39.77401,309.06885 38.67711,309.96624 37.32404,309.96624 M 15.00877,306.96642 H -9.55823 M 15.00758,307.51625 C 15.00758,308.86933 16.10443,309.96624 17.45753,309.96624 M -34.32523,306.96642 H -58.89223 V 309.96624 H -67.21423 V 306.96642 H -91.78123 M -34.32636,307.71524 C -34.32644,309.06835 -33.22952,309.96571 -31.87641,309.96571 M -116.54723,306.96642 H -141.11423 M -116.54873,307.51572 C -116.54881,308.86883 -115.45188,309.96571 -114.09877,309.96571 M -166.05329,343.96658 H -161.05407 L -161.05303,352.96658 H -166.05381 Z"
       id="path1061-7"
       inkscape:connector-curvature="0"
       sodipodi:nodetypes="cccccccccccccccccccccccccccccccccccccccccccccccccccccccccccccccccccccccccccccccccccccccccccccccccccccccccccccccccccccccccccccc" />
    <path
       style="fill:none;fill-opacity:1;stroke:#fa0000;stroke-width:0.10000001;stroke-miterlimit:4;stroke-dasharray:none;stroke-opacity:1"
       d="M 47.946299,175.91457 H 44.946479 V 185.4145 H 47.946299 V 191.11493 H 44.946479 V 200.61493 H 47.946299 V 207.26493 H 39.77421 V 210.26538 H 15.00821 V 207.26504 H -9.55879 V 210.26538 H -34.32579 V 207.26504 H -58.89279 V 210.26538 H -67.21479 V 207.26504 H -91.78179 V 210.26538 H -116.54779 V 207.26504 H -141.11479 V 210.26538 H -165.88217 V 207.26504 H -174.05358 V 200.61532 H -171.05376 V 191.11513 H -174.05358 V 185.41439 H -171.05376 V 175.91427 H -174.05358 V 169.26457 H -165.88148 V 166.26425 H -174.05359 L -174.05358,163.01382 C -174.05358,161.66073 -172.9567,160.56384 -171.6036,160.56384 L 45.49631,160.56387 C 46.84941,160.56387 47.946288,161.66076 47.946288,163.01385 L 47.946299,166.26428 H 39.77419 V 169.2646 H 47.946299 Z M 15.00774,166.26424 V 169.26457 H -9.55923 V 166.26393 Z M -34.32568,166.26393 V 169.26457 H -58.89266 V 166.26424 Z M -67.21463,166.26424 V 169.26457 H -91.7816 V 166.26393 Z M -116.54805,166.26393 V 169.26457 H -141.1145 V 166.26393 Z"
       id="rect833-4-1"
       inkscape:connector-curvature="0"
       sodipodi:nodetypes="cccccccccccccccccccccccccccccccccccccccccccsscccccccccccccccccccccccccc" />
    <path
       inkscape:connector-curvature="0"
       style="fill:none;fill-opacity:1;stroke:#fa0000;stroke-width:0.10000001;stroke-miterlimit:4;stroke-dasharray:none;stroke-opacity:1"
       d="M -143.56468,309.96624 C -142.21157,309.96624 -141.11469,308.86933 -141.11469,307.51625 M -94.23227,309.96571 C -92.87919,309.96571 -91.78239,308.86883 -91.78231,307.51572 M -12.00991,309.96571 C -10.6568,309.96571 -9.56003,308.86883 -9.55995,307.51572 M -165.88116,307.71577 C -165.88116,309.06885 -164.78426,309.96624 -163.43116,309.96624 M -112.54847,303.96607 H -106.64858 V 306.86564 H -112.54847 Z M -101.68196,303.96607 H -95.78154 V 306.86564 H -101.68196 Z M -30.32662,304.06582 H -24.42672 V 306.96539 H -30.32662 Z M -19.4596,304.06582 H -13.55968 V 306.96539 H -19.4596 Z M -161.88139,304.06632 H -155.98149 V 306.96589 H -161.88139 Z M -151.01434,304.06632 H -145.11445 V 306.96589 H -151.01434 Z M 19.00731,304.06632 H 24.90722 V 306.96589 H 19.00731 Z M 29.87435,304.06632 H 35.77424 V 306.96589 H 29.87435 Z"
       id="path3514-0"
       sodipodi:nodetypes="cccccccccccccccccccccccccccccccccccccccccccccccc" />
  </g>
</svg>
