<?xml version="1.0" encoding="UTF-8" standalone="no"?>
<!-- Created with Inkscape (http://www.inkscape.org/) -->

<svg
   xmlns:dc="http://purl.org/dc/elements/1.1/"
   xmlns:cc="http://creativecommons.org/ns#"
   xmlns:rdf="http://www.w3.org/1999/02/22-rdf-syntax-ns#"
   xmlns:svg="http://www.w3.org/2000/svg"
   xmlns="http://www.w3.org/2000/svg"
   xmlns:sodipodi="http://sodipodi.sourceforge.net/DTD/sodipodi-0.dtd"
   xmlns:inkscape="http://www.inkscape.org/namespaces/inkscape"
   width="297mm"
   height="210mm"
   viewBox="0 0 297 210"
   version="1.1"
   id="svg8"
   inkscape:version="0.92.3 (2405546, 2018-03-11)"
   sodipodi:docname="round_clock-outside-back.svg">
  <defs
     id="defs2" />
  <sodipodi:namedview
     id="base"
     pagecolor="#ffffff"
     bordercolor="#666666"
     borderopacity="1.0"
     inkscape:pageopacity="0.0"
     inkscape:pageshadow="2"
     inkscape:zoom="0.2917506"
     inkscape:cx="153.76965"
     inkscape:cy="-562.35188"
     inkscape:document-units="mm"
     inkscape:current-layer="layer1"
     showgrid="false"
     showguides="false"
     inkscape:window-width="1920"
     inkscape:window-height="996"
     inkscape:window-x="0"
     inkscape:window-y="27"
     inkscape:window-maximized="1"
     inkscape:snap-bbox="true"
     inkscape:bbox-paths="true"
     inkscape:bbox-nodes="true"
     inkscape:snap-bbox-edge-midpoints="true"
     inkscape:snap-bbox-midpoints="true"
     inkscape:object-paths="true"
     inkscape:snap-intersection-paths="true"
     inkscape:snap-smooth-nodes="true"
     inkscape:snap-midpoints="true"
     inkscape:snap-object-midpoints="true"
     inkscape:snap-center="true"
     inkscape:measure-start="-396.451,-58.5536"
     inkscape:measure-end="-390.055,-180.78"
     inkscape:object-nodes="true"
     inkscape:snap-nodes="true"
     inkscape:snap-others="true" />
  <metadata
     id="metadata5">
    <rdf:RDF>
      <cc:Work
         rdf:about="">
        <dc:format>image/svg+xml</dc:format>
        <dc:type
           rdf:resource="http://purl.org/dc/dcmitype/StillImage" />
        <dc:title />
      </cc:Work>
    </rdf:RDF>
  </metadata>
  <g
     inkscape:label="Calque 1"
     inkscape:groupmode="layer"
     id="layer1"
     transform="translate(0,-87)">
    <g
       transform="translate(-35.97594,-134.5021)"
       id="g7893-03"
       style="stroke-width:0.1;stroke-miterlimit:4;stroke-dasharray:none" />
    <g
       transform="translate(39.595335,-443.46189)"
       id="g3919-0"
       style="stroke-width:0.1;stroke-miterlimit:4;stroke-dasharray:none" />
    <path
       style="fill:none;fill-opacity:1;stroke:#000000;stroke-width:0.1;stroke-miterlimit:4;stroke-dasharray:none;stroke-opacity:1"
       d="M 267.26709,97.04997 V 129.29136 L 270.26702,129.29105 V 130.74118 132.19104 H 267.26709 248.56693 245.56693 V 130.74118 129.29105 H 248.56693 V 97.04997 H 251.56668 L 251.56718,102.55094 H 254.91718 V 104.05071 H 260.91717 V 102.55094 H 264.26731 L 264.2668,97.04997 Z"
       id="rect5631-1-4-9-9-73-6-6-1-0-3"
       inkscape:connector-curvature="0"
       sodipodi:nodetypes="ccccccccccccccccccccc" />
    <path
       style="fill:none;fill-opacity:1;stroke:#000000;stroke-width:0.1;stroke-miterlimit:4;stroke-dasharray:none;stroke-opacity:1"
       d="M 267.26709,133.24937 V 165.49076 L 270.26702,165.49045 V 166.94058 168.39044 H 267.26709 248.56693 245.56693 V 166.94058 165.49045 H 248.56693 V 133.24937 H 251.56668 L 251.56718,138.75035 H 254.91718 V 140.25012 H 260.91717 V 138.75035 H 264.26731 L 264.2668,133.24937 Z"
       id="rect5631-1-4-9-9-73-6-6-1-0-1-09"
       inkscape:connector-curvature="0"
       sodipodi:nodetypes="ccccccccccccccccccccc" />
    <path
       style="fill:none;fill-opacity:1;stroke:#000000;stroke-width:0.1;stroke-miterlimit:4;stroke-dasharray:none;stroke-opacity:1"
       d="M 267.26709,169.54877 V 201.79017 L 270.26702,201.78986 V 203.23998 204.68984 H 267.26709 248.56693 245.56693 V 203.23998 201.78986 H 248.56693 V 169.54877 H 251.56668 L 251.56718,175.04975 H 254.91718 V 176.54952 H 260.91717 V 175.04975 H 264.26731 L 264.2668,169.54877 Z"
       id="rect5631-1-4-9-9-73-6-6-1-0-9-2"
       inkscape:connector-curvature="0"
       sodipodi:nodetypes="ccccccccccccccccccccc" />
    <path
       style="fill:none;fill-opacity:1;stroke:#000000;stroke-width:0.1;stroke-miterlimit:4;stroke-dasharray:none;stroke-opacity:1"
       d="M 267.26709,205.74817 V 237.98957 L 270.26702,237.98926 V 239.43938 240.88924 H 267.26709 248.56693 245.56693 V 239.43938 237.98926 H 248.56693 V 205.74817 H 251.56668 L 251.56718,211.24915 H 254.91718 V 212.74892 H 260.91717 V 211.24915 H 264.26731 L 264.2668,205.74817 Z"
       id="rect5631-1-4-9-9-73-6-6-1-0-6-5"
       inkscape:connector-curvature="0"
       sodipodi:nodetypes="ccccccccccccccccccccc" />
    <path
       style="fill:none;fill-opacity:1;stroke:#000000;stroke-width:0.1;stroke-miterlimit:4;stroke-dasharray:none;stroke-opacity:1"
       d="M 267.26709,241.94758 V 274.18897 L 270.26702,274.18866 V 275.63878 277.08864 H 267.26709 248.56693 245.56693 V 275.63878 274.18866 H 248.56693 V 241.94758 H 251.56668 L 251.56718,247.44855 H 254.91718 V 248.94832 H 260.91717 V 247.44855 H 264.26731 L 264.2668,241.94758 Z"
       id="rect5631-1-4-9-9-73-6-6-1-0-93-4"
       inkscape:connector-curvature="0"
       sodipodi:nodetypes="ccccccccccccccccccccc" />
    <path
       style="fill:none;fill-opacity:1;stroke:#000000;stroke-width:0.1;stroke-miterlimit:4;stroke-dasharray:none;stroke-opacity:1"
       d="M 225.80843,132.19103 V 99.94965 L 222.8085,99.94996 V 98.49982 97.04997 H 225.80843 244.50859 247.50859 V 98.49982 99.94996 H 244.50859 V 132.19103 H 241.50884 L 241.50834,126.69006 H 238.15834 V 125.1903 H 232.15835 V 126.69006 H 228.80821 L 228.80872,132.19103 Z"
       id="rect5631-1-4-9-9-73-6-6-1-8-05"
       inkscape:connector-curvature="0"
       sodipodi:nodetypes="ccccccccccccccccccccc" />
    <path
       style="fill:none;fill-opacity:1;stroke:#000000;stroke-width:0.1;stroke-miterlimit:4;stroke-dasharray:none;stroke-opacity:1"
       d="M 225.80843,168.39044 V 136.14905 L 222.8085,136.14936 V 134.69922 133.24937 H 225.80843 244.50859 247.50859 V 134.69922 136.14936 H 244.50859 V 168.39044 H 241.50884 L 241.50834,162.88946 H 238.15834 V 161.3897 H 232.15835 V 162.88946 H 228.80821 L 228.80872,168.39044 Z"
       id="rect5631-1-4-9-9-73-6-6-1-3-0-9"
       inkscape:connector-curvature="0"
       sodipodi:nodetypes="ccccccccccccccccccccc" />
    <path
       style="fill:none;fill-opacity:1;stroke:#000000;stroke-width:0.1;stroke-miterlimit:4;stroke-dasharray:none;stroke-opacity:1"
       d="M 225.80843,204.68983 V 172.44845 L 222.8085,172.44877 V 170.99862 169.54877 H 225.80843 244.50859 247.50859 V 170.99862 172.44877 H 244.50859 V 204.68983 H 241.50884 L 241.50834,199.18886 H 238.15834 V 197.6891 H 232.15835 V 199.18886 H 228.80821 L 228.80872,204.68983 Z"
       id="rect5631-1-4-9-9-73-6-6-1-1-5-4"
       inkscape:connector-curvature="0"
       sodipodi:nodetypes="ccccccccccccccccccccc" />
    <path
       style="fill:none;fill-opacity:1;stroke:#000000;stroke-width:0.1;stroke-miterlimit:4;stroke-dasharray:none;stroke-opacity:1"
       d="M 225.80843,240.88923 V 208.64786 L 222.8085,208.64817 V 207.19802 205.74817 H 225.80843 244.50859 247.50859 V 207.19802 208.64817 H 244.50859 V 240.88923 H 241.50884 L 241.50834,235.38826 H 238.15834 V 233.8885 H 232.15835 V 235.38826 H 228.80821 L 228.80872,240.88923 Z"
       id="rect5631-1-4-9-9-73-6-6-1-10-6-6"
       inkscape:connector-curvature="0"
       sodipodi:nodetypes="ccccccccccccccccccccc" />
    <path
       style="fill:none;fill-opacity:1;stroke:#000000;stroke-width:0.1;stroke-miterlimit:4;stroke-dasharray:none;stroke-opacity:1"
       d="M 225.80843,277.08863 V 244.84726 L 222.8085,244.84758 V 243.39742 241.94758 H 225.80843 244.50859 247.50859 V 243.39742 244.84758 H 244.50859 V 277.08863 H 241.50884 L 241.50834,271.58766 H 238.15834 V 270.0879 H 232.15835 V 271.58766 H 228.80821 L 228.80872,277.08863 Z"
       id="rect5631-1-4-9-9-73-6-6-1-34-6-9"
       inkscape:connector-curvature="0"
       sodipodi:nodetypes="ccccccccccccccccccccc" />
    <path
       style="fill:none;fill-opacity:1;stroke:#000000;stroke-width:0.1;stroke-miterlimit:4;stroke-dasharray:none;stroke-opacity:1"
       d="M 221.75016,97.04997 V 129.29136 L 224.75009,129.29105 V 130.74118 132.19104 H 221.75016 203.05 200.05 V 130.74118 129.29105 H 203.05 V 97.04997 H 206.04975 L 206.05025,102.55094 H 209.40025 V 104.05071 H 215.40024 V 102.55094 H 218.75038 L 218.74987,97.04997 Z"
       id="rect5631-1-4-9-9-73-6-6-1-0-4-2"
       inkscape:connector-curvature="0"
       sodipodi:nodetypes="ccccccccccccccccccccc" />
    <path
       style="fill:none;fill-opacity:1;stroke:#000000;stroke-width:0.1;stroke-miterlimit:4;stroke-dasharray:none;stroke-opacity:1"
       d="M 221.75016,133.24937 V 165.49076 L 224.75009,165.49045 V 166.94058 168.39044 H 221.75016 203.05 200.05 V 166.94058 165.49045 H 203.05 V 133.24937 H 206.04975 L 206.05025,138.75035 H 209.40025 V 140.25012 H 215.40024 V 138.75035 H 218.75038 L 218.74987,133.24937 Z"
       id="rect5631-1-4-9-9-73-6-6-1-0-1-0-2"
       inkscape:connector-curvature="0"
       sodipodi:nodetypes="ccccccccccccccccccccc" />
    <path
       style="fill:none;fill-opacity:1;stroke:#000000;stroke-width:0.1;stroke-miterlimit:4;stroke-dasharray:none;stroke-opacity:1"
       d="M 221.75016,169.54877 V 201.79017 L 224.75009,201.78986 V 203.23998 204.68984 H 221.75016 203.05 200.05 V 203.23998 201.78986 H 203.05 V 169.54877 H 206.04975 L 206.05025,175.04975 H 209.40025 V 176.54952 H 215.40024 V 175.04975 H 218.75038 L 218.74987,169.54877 Z"
       id="rect5631-1-4-9-9-73-6-6-1-0-9-0-4"
       inkscape:connector-curvature="0"
       sodipodi:nodetypes="ccccccccccccccccccccc" />
    <path
       style="fill:none;fill-opacity:1;stroke:#000000;stroke-width:0.1;stroke-miterlimit:4;stroke-dasharray:none;stroke-opacity:1"
       d="M 221.75016,205.74817 V 237.98958 L 224.75009,237.98926 V 239.43938 240.88924 H 221.75016 203.05 200.05 V 239.43938 237.98926 H 203.05 V 205.74817 H 206.04975 L 206.05025,211.24915 H 209.40025 V 212.74892 H 215.40024 V 211.24915 H 218.75038 L 218.74987,205.74817 Z"
       id="rect5631-1-4-9-9-73-6-6-1-0-6-4-7"
       inkscape:connector-curvature="0"
       sodipodi:nodetypes="ccccccccccccccccccccc" />
    <path
       style="fill:none;fill-opacity:1;stroke:#000000;stroke-width:0.1;stroke-miterlimit:4;stroke-dasharray:none;stroke-opacity:1"
       d="M 221.75016,241.94758 V 274.18898 L 224.75009,274.18867 V 275.63878 277.08864 H 221.75016 203.05 200.05 V 275.63878 274.18867 H 203.05 V 241.94758 H 206.04975 L 206.05025,247.44855 H 209.40025 V 248.94832 H 215.40024 V 247.44855 H 218.75038 L 218.74987,241.94758 Z"
       id="rect5631-1-4-9-9-73-6-6-1-0-93-6-7"
       inkscape:connector-curvature="0"
       sodipodi:nodetypes="ccccccccccccccccccccc" />
    <path
       style="fill:none;fill-opacity:1;stroke:#000000;stroke-width:0.1;stroke-miterlimit:4;stroke-dasharray:none;stroke-opacity:1"
       d="M 67.89147,160.75057 V 192.99196 L 64.89153,192.99166 V 194.44178 195.89164 H 67.89147 86.59163 89.59162 V 194.44178 192.99166 H 86.59163 V 160.75057 H 83.59187 L 83.59137,166.25154 H 80.24137 V 167.75131 H 74.24139 V 166.25154 H 70.89125 L 70.89175,160.75057 Z"
       id="rect5631-1-4-9-9-73-6-6-1-0-2-5"
       inkscape:connector-curvature="0"
       sodipodi:nodetypes="ccccccccccccccccccccc" />
    <path
       style="fill:none;fill-opacity:1;stroke:#000000;stroke-width:0.1;stroke-miterlimit:4;stroke-dasharray:none;stroke-opacity:1"
       d="M 67.89147,196.94997 V 229.19136 L 64.89153,229.19106 V 230.64118 232.09104 H 67.89147 86.59163 89.59162 V 230.64118 229.19106 H 86.59163 V 196.94997 H 83.59187 L 83.59137,202.45095 H 80.24137 V 203.95072 H 74.24139 V 202.45095 H 70.89125 L 70.89175,196.94997 Z"
       id="rect5631-1-4-9-9-73-6-6-1-0-1-6-4"
       inkscape:connector-curvature="0"
       sodipodi:nodetypes="ccccccccccccccccccccc" />
    <path
       style="fill:none;fill-opacity:1;stroke:#000000;stroke-width:0.1;stroke-miterlimit:4;stroke-dasharray:none;stroke-opacity:1"
       d="M 109.35012,195.89163 V 163.65025 L 112.35005,163.65056 V 162.20042 160.75057 H 109.35012 90.64996 87.64996 V 162.20042 163.65056 H 90.64996 V 195.89163 H 93.64971 L 93.65021,190.39066 H 97.00021 V 188.8909 H 103.0002 V 190.39066 H 106.35034 L 106.34983,195.89163 Z"
       id="rect5631-1-4-9-9-73-6-6-1-8-7-81"
       inkscape:connector-curvature="0"
       sodipodi:nodetypes="ccccccccccccccccccccc" />
    <path
       style="fill:none;fill-opacity:1;stroke:#000000;stroke-width:0.1;stroke-miterlimit:4;stroke-dasharray:none;stroke-opacity:1"
       d="M 109.35012,232.09104 V 199.84966 L 112.35005,199.84996 V 198.39982 196.94997 H 109.35012 90.64996 87.64996 V 198.39982 199.84996 H 90.64996 V 232.09104 H 93.64971 L 93.65021,226.59006 H 97.00021 V 225.0903 H 103.0002 V 226.59006 H 106.35034 L 106.34983,232.09104 Z"
       id="rect5631-1-4-9-9-73-6-6-1-3-0-5-2"
       inkscape:connector-curvature="0"
       sodipodi:nodetypes="ccccccccccccccccccccc" />
    <path
       style="fill:none;fill-opacity:1;stroke:#000000;stroke-width:0.1;stroke-miterlimit:4;stroke-dasharray:none;stroke-opacity:1"
       d="M 113.40839,160.75057 V 192.99196 L 110.40846,192.99166 V 194.44178 195.89164 H 113.40839 132.10855 135.10855 V 194.44178 192.99166 H 132.10855 V 160.75057 H 129.1088 L 129.1083,166.25154 H 125.7583 V 167.75131 H 119.75831 V 166.25154 H 116.40817 L 116.40868,160.75057 Z"
       id="rect5631-1-4-9-9-73-6-6-1-0-4-6-8"
       inkscape:connector-curvature="0"
       sodipodi:nodetypes="ccccccccccccccccccccc" />
    <path
       style="fill:none;fill-opacity:1;stroke:#000000;stroke-width:0.1;stroke-miterlimit:4;stroke-dasharray:none;stroke-opacity:1"
       d="M 113.40839,196.94997 V 229.19136 L 110.40846,229.19106 V 230.64118 232.09104 H 113.40839 132.10855 135.10855 V 230.64118 229.19106 H 132.10855 V 196.94997 H 129.1088 L 129.1083,202.45095 H 125.7583 V 203.95072 H 119.75831 V 202.45095 H 116.40817 L 116.40868,196.94997 Z"
       id="rect5631-1-4-9-9-73-6-6-1-0-1-0-9-9"
       inkscape:connector-curvature="0"
       sodipodi:nodetypes="ccccccccccccccccccccc" />
    <path
       style="fill:none;fill-opacity:1;stroke:#000000;stroke-width:0.1;stroke-miterlimit:4;stroke-dasharray:none;stroke-opacity:1"
       d="M 22.27934,132.72019 V 100.47881 L 25.27927,100.47912 V 99.02899 97.57914 H 22.27934 3.57918 0.57918 V 99.02899 100.47912 H 3.57918 V 132.72019 H 6.57893 L 6.57943,127.21922 H 9.92943 V 125.71946 H 15.92942 V 127.21922 H 19.27956 L 19.27905,132.72019 Z"
       id="rect5631-1-4-9-9-73-6-6-1-8-7-8-3"
       inkscape:connector-curvature="0"
       sodipodi:nodetypes="ccccccccccccccccccccc" />
    <path
       inkscape:connector-curvature="0"
       style="fill:none;fill-opacity:1;stroke:#0000f8;stroke-width:0.1;stroke-miterlimit:4;stroke-dasharray:none;stroke-opacity:1"
       d="M 198.99173,132.19103 V 99.94965 L 201.99166,99.94996 V 98.49982 97.04997 H 198.99173 180.29157 177.29157 V 98.49982 99.94996 H 180.29157 V 132.19103 H 183.29132 L 183.29182,126.69006 H 186.64182 V 125.1903 H 192.64181 V 126.69006 H 195.99195 L 195.99144,132.19103 Z"
       id="path1956-6" />
    <path
       style="fill:none;fill-opacity:1;stroke:#000000;stroke-width:0.1;stroke-miterlimit:4;stroke-dasharray:none;stroke-opacity:1"
       d="M 35.72024,274.72065 H 3.47886 L 3.47917,271.72071 H 2.02903 0.57918 V 274.72065 293.42082 296.42082 H 2.02903 3.47917 V 293.42082 H 35.72024 V 290.42107 L 30.21927,290.42057 V 287.07056 H 28.71951 V 281.07057 H 30.21927 V 277.72042 L 35.72024,277.72095 Z"
       id="rect5631-1-4-9-9-73-6-6-1-8-7-8-8-0"
       inkscape:connector-curvature="0"
       sodipodi:nodetypes="ccccccccccccccccccccc" />
    <path
       style="fill:none;fill-opacity:1;stroke:#000000;stroke-width:0.1;stroke-miterlimit:4;stroke-dasharray:none;stroke-opacity:1"
       d="M 163.8506,293.80977 H 196.09198 L 196.09167,296.80969 H 197.54181 198.99166 V 293.80977 275.10961 272.10962 H 197.54181 196.09167 V 275.10961 H 163.8506 V 278.10937 L 169.35157,278.10985 V 281.45987 H 170.85133 V 287.45985 H 169.35157 V 290.80999 L 163.8506,290.80948 Z"
       id="rect5631-1-4-9-9-73-6-6-1-8-7-8-83-2"
       inkscape:connector-curvature="0"
       sodipodi:nodetypes="ccccccccccccccccccccc" />
    <path
       id="path2410"
       style="fill:none;fill-opacity:1;stroke:#0000f8;stroke-width:0.1;stroke-miterlimit:4;stroke-dasharray:none;stroke-opacity:1"
       d="M 41.110719,197.47237 C 42.521684,196.65775 44.325876,197.14118 45.140494,198.55215 45.955111,199.96311 45.471679,201.7673 44.060719,202.58192 42.649757,203.39654 40.845567,202.91311 40.030945,201.50215 39.216321,200.09119 39.699753,198.28699 41.110719,197.47237 M 3.52389,193.44019 3.68089,190.4443 6.57691,190.59608 6.41991,193.59197 Z M 4.42434,183.37507 4.89364,180.412 7.75794,180.86566 7.28864,183.82873 Z M 6.37187,173.45938 7.14833,170.5616 9.94952,171.31217 9.17306,174.20995 Z M 9.34524,163.80158 10.42034,161.00084 13.12772,162.0401 12.05262,164.84085 Z M 13.31175,154.50764 14.67372,151.83462 17.25764,153.15119 15.89566,155.82421 Z M 18.22807,145.67925 19.86199,143.16323 22.29413,144.74269 20.66022,147.2587 Z M 24.04025,137.41297 25.92821,135.08152 28.18193,136.90655 26.29397,139.23799 Z M 30.6846,129.79945 32.80593,127.67813 34.85654,129.72874 32.73521,131.85006 Z M 38.0884,122.92224 40.41985,121.03428 42.24487,123.288 39.91343,125.17597 Z M 46.1705,116.85652 48.68652,115.2226 50.26597,117.65474 47.74996,119.28866 Z M 54.84226,111.66886 57.51528,110.30689 58.83185,112.89081 56.15883,114.25278 Z M 64.00885,107.41599 66.80959,106.34089 67.84886,109.04827 65.04812,110.12337 Z M 73.56975,104.14469 76.46753,103.36823 77.2181,106.16941 74.32033,106.94587 Z M 83.42018,101.89057 86.38325,101.42127 86.8369,104.28556 83.87384,104.75486 Z M 93.45602,100.67891 96.4519,100.5219 96.60368,103.41793 93.60779,103.57494 Z M 3.68075,203.54015 3.52375,200.54427 6.41978,200.39249 6.57678,203.38838 Z M 4.89241,213.57599 4.42311,210.61292 7.2874,210.15927 7.7567,213.12233 Z M 7.14653,223.42642 6.37007,220.52864 9.17125,219.77807 9.94771,222.67584 Z M 10.41783,232.98732 9.34273,230.18658 12.0501,229.14731 13.12521,231.94805 Z M 14.6707,242.15391 13.30873,239.48089 15.89264,238.16432 17.25462,240.83734 Z M 19.85836,250.82567 18.22444,248.30965 20.65658,246.7302 22.29049,249.24621 Z M 25.92408,258.90777 24.03611,256.57632 26.28984,254.7513 28.1778,257.08274 Z M 32.80129,266.31157 30.67997,264.19024 32.73058,262.13963 34.8519,264.26096 Z M 40.4148,272.95592 38.08337,271.06796 39.90839,268.81424 42.23983,270.7022 Z M 48.68109,278.7681 46.16507,277.13418 47.74452,274.70204 50.26053,276.33595 Z M 57.50948,283.68442 54.83645,282.32245 56.15303,279.73853 58.82605,281.1005 Z M 66.80342,287.65093 64.00268,286.57582 65.04194,283.86844 67.84269,284.94355 Z M 76.46121,290.62429 73.56344,289.84784 74.31401,287.04664 77.21179,287.82311 Z M 86.37691,292.57182 83.41384,292.10253 83.8675,289.23823 86.83057,289.70753 Z M 96.44204,293.47228 93.44615,293.31528 93.59793,290.41925 96.59381,290.57626 Z M 196.47595,200.5636 196.31895,203.55949 193.42293,203.40772 193.57992,200.41183 Z M 195.57549,210.62873 195.10619,213.5918 192.24189,213.13813 192.71119,210.17507 Z M 193.62796,220.54442 192.8515,223.4422 190.05031,222.69162 190.82678,219.79384 Z M 190.6546,230.20222 189.57949,233.00295 186.87211,231.96369 187.94721,229.16295 Z M 186.68808,239.49616 185.32612,242.16918 182.74219,240.85261 184.10417,238.17958 Z M 181.77177,248.32455 180.13785,250.84057 177.70571,249.26111 179.33961,246.7451 Z M 175.95958,256.59083 174.07162,258.92227 171.8179,257.09724 173.70586,254.7658 Z M 169.31523,264.20434 167.19391,266.32566 165.1433,264.27505 167.26462,262.15373 Z M 161.91143,271.08155 159.57999,272.96952 157.75497,270.71579 160.0864,268.82783 Z M 153.82933,277.14728 151.31331,278.7812 149.73386,276.34906 152.24987,274.71514 Z M 145.15757,282.33493 142.48455,283.69691 141.16798,281.11299 143.841,279.75102 Z M 135.99098,286.5878 133.19024,287.66291 132.15097,284.95553 134.95171,283.88043 Z M 126.4301,289.85911 123.53231,290.63557 122.78175,287.83438 125.67951,287.05792 Z M 116.57966,292.11323 113.6166,292.58252 113.16294,289.71823 116.12601,289.24894 Z M 106.54382,293.32488 103.54794,293.48189 103.39616,290.58586 106.39204,290.42886 Z M 103.55821,100.52394 106.5541,100.68094 106.40232,103.57696 103.40643,103.41996 Z M 113.62333,101.42439 116.5864,101.89369 116.13274,104.75799 113.16967,104.28869 Z M 123.53902,103.37193 126.4368,104.14838 125.68623,106.94957 122.78845,106.17311 Z M 133.19682,106.34529 135.99756,107.4204 134.9583,110.12778 132.15755,109.05267 Z M 142.49076,110.3118 145.16379,111.67377 143.84721,114.25769 141.17419,112.89572 Z M 151.31915,115.22813 153.83517,116.86204 152.25572,119.29418 149.73971,117.66027 Z M 159.58544,121.0403 161.91688,122.92826 160.09185,125.18198 157.7604,123.29402 Z M 167.19895,127.68465 169.32027,129.80598 167.26966,131.85659 165.14834,129.73526 Z M 174.07616,135.08845 175.96413,137.4199 173.7104,139.24492 171.82243,136.91349 Z M 180.14189,143.17055 181.7758,145.68657 179.34366,147.26602 177.70974,144.75001 Z M 185.32954,151.84231 186.69151,154.51533 184.10759,155.8319 182.74562,153.15888 Z M 189.58242,161.0089 190.65751,163.80964 187.95013,164.84891 186.87503,162.04817 Z M 192.85372,170.5698 193.63017,173.46758 190.829,174.21815 190.05253,171.32038 Z M 195.10783,180.42023 195.57714,183.3833 192.71284,183.83695 192.24354,180.87389 Z M 196.3195,190.45607 196.4765,193.45196 193.58048,193.60373 193.42347,190.60784 Z M 199.94999,196.99999 C 199.95,252.20086 155.20085,296.95 99.99999,296.95 44.79913,296.95 0.04999,252.20086 0.05,196.99999 0.05,141.79913 44.79913,97.04999 99.99999,97.04999 155.20085,97.04999 199.94999,141.79913 199.94999,196.99999 Z M 60.82595,159.87697 63.69074,162.74177 C 45.57189,181.98348 45.5783,212.0093 63.70536,231.24327 L 60.82595,234.12268 62.87661,236.17334 65.74104,233.30892 C 84.98285,251.42822 115.0092,251.42181 134.24327,233.29429 L 137.12268,236.1737 139.17334,234.12304 136.3089,231.25861 C 154.42833,212.01666 154.42177,181.99005 136.29393,162.75602 L 139.17334,159.8766 137.12268,157.82594 134.25788,160.69073 C 115.01603,142.57177 84.98995,142.57834 65.75603,160.70572 L 62.87662,157.8263 Z"
       inkscape:connector-curvature="0"
       sodipodi:nodetypes="cssscccccccccccccccccccccccccccccccccccccccccccccccccccccccccccccccccccccccccccccccccccccccccccccccccccccccccccccccccccccccccccccccccccccccccccccccccccccccccccccccccccccccccccccccccccccccccccccccccccccccccccccccccccccccccccccccccccccccccccccccccccccccccccccccccccccccccccccccccccccccccccccccccccccccccccccsssssccccccccccccccccc" />
  </g>
</svg>
