<?xml version="1.0" encoding="UTF-8" standalone="no"?>
<svg
   xmlns:dc="http://purl.org/dc/elements/1.1/"
   xmlns:cc="http://creativecommons.org/ns#"
   xmlns:rdf="http://www.w3.org/1999/02/22-rdf-syntax-ns#"
   xmlns:svg="http://www.w3.org/2000/svg"
   xmlns="http://www.w3.org/2000/svg"
   xmlns:sodipodi="http://sodipodi.sourceforge.net/DTD/sodipodi-0.dtd"
   xmlns:inkscape="http://www.inkscape.org/namespaces/inkscape"
   width="292.46194mm"
   height="175.61505mm"
   viewBox="0 0 292.46194 175.61505"
   version="1.1"
   id="svg14449"
   inkscape:version="0.92.3 (2405546, 2018-03-11)"
   sodipodi:docname="round-cut.2.svg">
  <defs
     id="defs14443" />
  <sodipodi:namedview
     id="base"
     pagecolor="#ffffff"
     bordercolor="#666666"
     borderopacity="1.0"
     inkscape:pageopacity="0.0"
     inkscape:pageshadow="2"
     inkscape:zoom="2.4524249"
     inkscape:cx="895.50221"
     inkscape:cy="71.584116"
     inkscape:document-units="mm"
     inkscape:current-layer="layer1"
     showgrid="false"
     inkscape:snap-smooth-nodes="true"
     inkscape:object-paths="true"
     inkscape:window-width="1920"
     inkscape:window-height="996"
     inkscape:window-x="0"
     inkscape:window-y="27"
     inkscape:window-maximized="1"
     inkscape:snap-nodes="false"
     inkscape:snap-object-midpoints="true"
     inkscape:snap-center="true"
     inkscape:document-rotation="0"
     fit-margin-top="0"
     fit-margin-left="0"
     fit-margin-right="0"
     fit-margin-bottom="0" />
  <metadata
     id="metadata14446">
    <rdf:RDF>
      <cc:Work
         rdf:about="">
        <dc:format>image/svg+xml</dc:format>
        <dc:type
           rdf:resource="http://purl.org/dc/dcmitype/StillImage" />
        <dc:title />
      </cc:Work>
    </rdf:RDF>
  </metadata>
  <g
     inkscape:label="Calque 1"
     inkscape:groupmode="layer"
     id="layer1"
     transform="translate(0.01424365,-121.38495)">
    <path
       style="opacity:1;fill:none;fill-opacity:1;fill-rule:nonzero;stroke:#ff0000;stroke-width:0.1;stroke-linecap:butt;stroke-linejoin:miter;stroke-miterlimit:4;stroke-dasharray:none;stroke-dashoffset:0;stroke-opacity:1;paint-order:normal"
       d="M 62.395883,160.48647 A 35.449999,35.450005 75 0 0 38.387081,202.06869 1.4499999,1.4499999 0 0 1 40.115482,203.1041 1.4499999,1.4499999 0 0 1 39.159381,204.85881 35.449999,35.450005 75 0 0 80.720983,228.87258 1.45,1.45 0 0 1 81.756782,227.14573 1.45,1.45 0 0 1 83.511483,228.10183 35.449999,35.450005 75 0 0 107.52528,186.54022 1.45,1.45 0 0 1 105.79838,185.50441 1.45,1.45 0 0 1 106.75258,183.75022 35.449999,35.450005 75 0 0 65.197683,159.75768 1.4499999,1.4499999 0 0 1 64.157082,161.4628 1.4499999,1.4499999 0 0 1 62.395883,160.48647 Z"
       id="path3187-7-6-1-3-6"
       inkscape:connector-curvature="0" />
    <path
       inkscape:connector-curvature="0"
       style="opacity:1;fill:none;fill-opacity:1;fill-rule:nonzero;stroke:#ff0000;stroke-width:0.1;stroke-linecap:butt;stroke-linejoin:miter;stroke-miterlimit:4;stroke-dasharray:none;stroke-dashoffset:0;stroke-opacity:1;paint-order:normal"
       d="M 206.25862,259.28861 209.11532,259.89581 M 222.97752,260.62185 229.88922,259.89528 232.77432,259.28189"
       id="path3187-4-2-5"
       sodipodi:nodetypes="ccccc" />
    <path
       style="opacity:1;fill:none;fill-opacity:1;fill-rule:nonzero;stroke:#ff0000;stroke-width:0.1;stroke-linecap:butt;stroke-linejoin:miter;stroke-miterlimit:4;stroke-dasharray:none;stroke-dashoffset:0;stroke-opacity:1;paint-order:normal"
       d="M 208.94402,160.48635 A 35.449999,35.450005 75 0 0 184.93521,202.06857 1.4499999,1.4499999 0 0 1 186.66361,203.10398 1.4499999,1.4499999 0 0 1 185.70751,204.85869 35.449999,35.450005 75 0 0 227.26912,228.87246 1.45,1.45 0 0 1 228.30492,227.14561 1.45,1.45 0 0 1 230.05962,228.10171 35.449999,35.450005 75 0 0 254.07343,186.5401 1.45,1.45 0 0 1 252.34652,185.50429 1.45,1.45 0 0 1 253.30071,183.7501 35.449999,35.450005 75 0 0 211.74582,159.75756 1.4499999,1.4499999 0 0 1 210.70522,161.46268 1.4499999,1.4499999 0 0 1 208.94402,160.48635 Z"
       id="path3187-7-6-1-3-6-4"
       inkscape:connector-curvature="0" />
    <path
       style="opacity:1;fill:none;fill-opacity:1;fill-rule:nonzero;stroke:#ff0000;stroke-width:0.1;stroke-linecap:butt;stroke-linejoin:miter;stroke-miterlimit:4;stroke-dasharray:none;stroke-dashoffset:0;stroke-opacity:1;paint-order:normal"
       d="M 238.17352,271.25801 V 289.40522 H 240.22352 V 291.80301 H 237.97352 V 293.94965 H 201.07702 V 291.80301 H 198.82651 V 289.40522 H 200.87652 V 271.25801 Z M 216.04772,271.25801 V 267.13321 M 197.31241,263.73495 C 192.64021,266.86762 188.66561,270.95921 185.67071,275.7301 L 188.27161,277.23182 186.82051,279.74224 184.21971,278.24055 C 181.25721,283.82275 179.57651,290.18945 179.57651,296.95 H 259.47352 C 259.47352,290.18945 257.79292,283.82275 254.83032,278.24055 L 252.22902,279.74277 250.77792,277.23182 253.37882,275.7301 C 250.38182,270.95562 246.40352,266.86132 241.72672,263.72773 M 222.94752,267.11873 V 271.25801"
       id="path6743-8-1-0"
       inkscape:connector-curvature="0"
       sodipodi:nodetypes="ccccccccccccccccccccccccccccc" />
    <path
       style="opacity:1;fill:none;fill-opacity:1;fill-rule:nonzero;stroke:#ff0000;stroke-width:0.1;stroke-linecap:butt;stroke-linejoin:miter;stroke-miterlimit:4;stroke-dasharray:none;stroke-dashoffset:0;stroke-opacity:1;paint-order:normal"
       d="M 91.625283,271.25801 V 289.40522 H 93.675282 V 291.80301 H 91.425284 V 293.94965 H 54.528784 V 291.80301 H 52.278283 V 289.40522 H 54.328283 V 271.25801 Z M 69.499483,271.25801 V 267.13321 M 50.764184,263.73495 C 46.091983,266.86762 42.117383,270.95921 39.122483,275.7301 L 41.723382,277.23182 40.272282,279.74224 37.671481,278.24055 C 34.708981,283.82275 33.028282,290.18945 33.028282,296.95 H 112.92528 C 112.92528,290.18945 111.24468,283.82275 108.28208,278.24055 L 105.68078,279.74277 104.22968,277.23182 106.83058,275.7301 C 103.83358,270.95562 99.855282,266.86132 95.178483,263.72773 M 76.399282,267.11873 V 271.25801"
       id="path6743-8-1-0-9"
       inkscape:connector-curvature="0"
       sodipodi:nodetypes="ccccccccccccccccccccccccccccc" />
    <path
       style="fill:none;stroke:#ff0000;stroke-width:0.1;stroke-linejoin:round;stroke-miterlimit:4;stroke-dasharray:none;stroke-opacity:1"
       d="M 64.225184,271.25801 V 274.15489 L 62.226682,274.15289 V 277.05289 L 64.225184,277.05089 V 279.94777 L 62.226682,279.94774 V 282.84774 L 64.225184,282.84777 V 285.74465 H 54.328283 M 54.328283,282.84777 56.326683,282.84774 V 279.94774 L 54.328283,279.94777 M 54.328283,277.05089 56.326683,277.05289 V 274.15289 L 54.328283,274.15489"
       id="rect2935-3-3-3-2-5-1-3"
       inkscape:connector-curvature="0"
       sodipodi:nodetypes="ccccccccccccccccccc" />
    <path
       style="opacity:1;fill:none;fill-opacity:1;fill-rule:nonzero;stroke:#ff0000;stroke-width:0.1;stroke-linecap:butt;stroke-linejoin:miter;stroke-miterlimit:4;stroke-dasharray:none;stroke-dashoffset:0;stroke-opacity:1;paint-order:normal"
       d="M 94.193982,222.5883 92.461784,220.85613 99.461884,213.85602 101.20798,215.60217 M 101.20998,173.07505 99.461784,174.82326 92.461684,167.82318 94.217684,166.06722 M 51.664683,166.05922 53.429483,167.82346 46.428783,174.82407 44.660982,173.05623 M 44.700782,215.58437 46.429382,213.8563 53.429482,220.85641 51.693082,222.59221"
       id="path3187-7-6-1-3-6-7"
       inkscape:connector-curvature="0"
       sodipodi:nodetypes="cccccccccccccccc" />
    <path
       inkscape:connector-curvature="0"
       style="opacity:1;fill:none;fill-opacity:1;fill-rule:nonzero;stroke:#ff0000;stroke-width:0.1;stroke-linecap:butt;stroke-linejoin:miter;stroke-miterlimit:4;stroke-dasharray:none;stroke-dashoffset:0;stroke-opacity:1;paint-order:normal"
       d="M 217.55242,267.21523 V 263.53153 H 216.02742 V 260.63143 L 209.11542,259.90513 202.31742,258.45973 195.70741,256.31203 189.35851,253.48533 183.33921,250.01063 177.71681,245.92563 177.32671,245.57423 175.38621,247.72913 171.00151,243.78103 172.94191,241.62613 172.55181,241.27473 167.90141,236.11023 163.81641,230.48733 160.34111,224.46853 157.51441,218.11963 155.36671,211.50963 153.92191,204.71163 153.19531,197.79933 V 190.84943 L 153.92191,183.93773 154.03091,183.42403 151.19381,182.82093 152.42071,177.04973 155.25771,177.65273 155.36671,177.13963 157.51441,170.52973 160.34111,164.18023 163.81641,158.16143 167.90141,152.53913 172.55181,147.37403 177.71681,142.72363 183.33921,138.63863 189.35801,135.16343 195.70741,132.33673 196.20661,132.17443 195.31061,129.41643 200.92162,127.59333 201.81772,130.35133 202.31692,130.18903 209.11542,128.74413 216.02712,128.01753 H 222.97712 L 229.88882,128.74413 236.68742,130.18903 237.18712,130.35133 238.08312,127.59333 243.69422,129.41643 242.79812,132.17443 243.29732,132.33673 249.64632,135.16343 255.66503,138.63813 261.28793,142.72363 266.45252,147.37403 271.10291,152.53853 275.18842,158.16143 278.66312,164.18023 281.48982,170.52923 283.63752,177.13913 283.74653,177.65223 286.58302,177.04923 287.80982,182.82043 284.97383,183.42353 285.08291,183.93713 285.80951,190.84943 V 197.79933 L 285.08291,204.71103 283.63802,211.50913 281.49032,218.11903 278.66312,224.46853 275.18842,230.48733 271.10342,236.10973 266.45302,241.27473 266.06281,241.62613 268.00332,243.78103 263.61862,247.72913 261.67811,245.57373 261.28793,245.92513 255.66503,250.01013 249.64632,253.48533 243.29732,256.31203 236.68742,258.45973 229.88932,259.90463 222.97742,260.63163 222.97732,263.53153 H 221.45242 V 267.21523 C 224.63472,267.10603 227.80672,266.77133 230.94812,266.24723 L 230.94822,262.76283 H 233.71292 V 265.77613 C 241.05622,264.34613 248.13572,261.79523 254.70332,258.21273 L 253.17162,255.55963 255.68723,254.11683 257.17662,256.69653 C 267.28471,250.59183 275.75982,242.12463 281.87381,232.02213 L 279.26361,230.51523 280.78031,228.04193 283.31711,229.50643 C 289.02923,219.16693 292.14491,207.59483 292.39663,195.78503 H 289.37562 L 289.39682,192.88493 H 292.37553 C 292.15373,181.07023 289.06522,169.48623 283.37554,159.12933 L 280.72243,160.66103 279.27963,158.14543 281.85932,156.65613 C 275.75483,146.54793 267.28763,138.07263 257.18534,131.95843 L 255.67793,134.56913 253.20473,133.05243 254.66973,130.51563 C 244.32993,124.80343 232.75783,121.68773 220.94783,121.43603 V 124.45713 L 218.04773,124.43593 V 121.45723 C 206.23303,121.67903 194.64892,124.76753 184.29212,130.45723 L 185.82382,133.11023 183.30822,134.55313 181.81892,131.97393 C 171.71092,138.07853 163.23582,146.54563 157.12172,156.64783 L 159.73192,158.15473 158.21522,160.62793 155.67892,159.16353 C 149.96682,169.50313 146.85092,181.07513 146.59922,192.88493 H 149.61972 L 149.59852,195.78503 H 146.62042 C 146.84202,207.59953 149.93052,219.18333 155.62002,229.54003 L 158.27302,228.00893 C 158.73652,228.85733 159.21772,229.69603 159.71582,230.52453 L 157.13672,232.01383 C 163.24132,242.12183 171.70832,250.59693 181.81062,256.71103 L 183.31752,254.10083 185.79022,255.61753 184.32572,258.15433 C 190.87792,261.76463 197.94632,264.34553 205.28313,265.80653 V 262.74163 H 208.04833 L 208.04813,266.23843 C 211.19153,266.77243 214.36643,267.09703 217.55243,267.21523 Z"
       id="path3187-4-25-0-1-8"
       sodipodi:nodetypes="ccccccccccccccccccccccccccccccccccccccccccccccccccccccccccccccccccccccccccccccccccccccccccccccccccccccccccccccccccccccccccccccccccccccccccccccc" />
    <path
       inkscape:connector-curvature="0"
       style="opacity:1;fill:none;fill-opacity:1;fill-rule:nonzero;stroke:#ff0000;stroke-width:0.1;stroke-linecap:butt;stroke-linejoin:miter;stroke-miterlimit:4;stroke-dasharray:none;stroke-dashoffset:0;stroke-opacity:1;paint-order:normal"
       d="M 69.923083,128.99482 69.130783,129.03672 68.837784,131.03969 70.119383,155.49918 A 38.950035,38.950003 87 0 0 67.645182,155.7617 L 63.813383,131.56732 63.111084,129.66923 62.326584,129.79327 62.245484,131.81537 66.081384,156.03507 A 38.950035,38.950003 87 0 0 63.645384,156.53326 L 57.303083,132.86645 56.406582,131.0521 55.639682,131.25726 55.769883,133.2773 62.115782,156.96164 A 38.950035,38.950003 87 0 0 59.747383,157.71819 L 50.964981,134.83845 49.882883,133.12794 49.141883,133.41216 49.482383,135.40738 58.268981,158.29698 A 38.950035,38.950003 87 0 0 55.995681,159.30258 L 44.867182,137.46206 43.611983,135.87403 42.905082,136.23473 43.452283,138.18294 54.582383,160.02658 A 38.950035,38.950003 87 0 0 52.429482,161.27041 L 39.076882,140.7089 37.663483,139.26091 36.997384,139.69292 37.745183,141.57394 51.094783,162.13084 A 38.950035,38.950003 87 0 0 49.088683,163.59792 L 33.658083,144.54326 32.100581,143.25085 31.483483,143.75004 32.424082,145.5427 47.846883,164.58805 A 38.950035,38.950003 87 0 0 46.008182,166.26185 L 28.669784,148.92336 26.985584,147.80044 26.423884,148.36165 27.546784,150.0463 44.871884,167.37082 A 38.950035,38.950003 87 0 0 43.223381,169.23219 L 24.166104,153.80058 22.373984,152.86007 21.874264,153.47657 23.167204,155.03463 42.202783,170.4497 A 38.950035,38.950003 87 0 0 40.763582,172.47749 L 20.197884,159.12172 18.316864,158.37396 17.884314,159.03954 19.332834,160.45344 39.869581,173.79059 A 38.950035,38.950003 87 0 0 38.655183,175.961 L 16.806884,164.82887 14.858144,164.2816 14.497464,164.98855 16.085994,166.24325 37.897083,177.35678 A 38.950035,38.950003 87 0 0 36.922483,179.64604 L 14.030824,170.859 12.035597,170.51792 11.751387,171.25948 13.461864,172.34105 36.312682,181.11262 A 38.950035,38.950003 87 0 0 35.582982,183.49182 L 11.900717,177.14593 9.881207,177.01571 9.675547,177.78259 11.489367,178.67971 35.140183,185.01627 A 38.950035,38.950003 87 0 0 34.651784,187.45591 L 10.439317,183.62101 8.416687,183.70321 8.292677,184.48715 10.190737,185.18993 34.381583,189.02124 A 38.950035,38.950003 87 0 0 34.139182,191.49655 L 9.663137,190.21391 7.660157,190.50641 7.618307,191.29913 9.579927,191.79989 34.045083,193.08197 A 38.950035,38.950003 87 0 0 34.051383,195.56967 L 9.579927,196.85228 7.618307,197.35252 7.660157,198.14469 9.663137,198.43773 34.122683,197.15613 A 38.950035,38.950003 87 0 0 34.385181,199.62988 L 10.191267,203.46168 8.292677,204.16449 8.417217,204.94894 10.439317,205.03014 34.658483,201.19418 A 38.950035,38.950003 87 0 0 35.156683,203.63023 L 11.489897,209.97194 9.675547,210.86904 9.880677,211.63594 11.900717,211.5057 35.585083,205.15984 A 38.950035,38.950003 87 0 0 36.341582,207.52818 L 13.461864,216.31056 11.751387,217.39268 12.036107,218.13373 14.030824,217.79265 36.920382,209.00664 A 38.950035,38.950003 87 0 0 37.926481,211.28039 L 16.085474,222.4084 14.497464,223.66363 14.858144,224.37055 16.806354,223.82331 38.649982,212.69323 A 38.950035,38.950003 87 0 0 39.893383,214.84606 L 19.332834,228.19821 17.884314,229.61209 18.316864,230.2782 20.197354,229.52992 40.754282,216.18033 A 38.950035,38.950003 87 0 0 42.221383,218.18747 L 23.166694,233.61752 21.874794,235.17507 22.373984,235.79208 24.166634,234.85106 43.211483,219.42873 A 38.950035,38.950003 87 0 0 44.885282,221.26737 L 27.546784,238.60586 26.424384,240.29 26.985584,240.8512 28.669784,239.72879 45.994283,222.40374 A 38.950035,38.950003 87 0 0 47.855683,224.05221 L 32.424082,243.10895 31.483483,244.9016 32.100581,245.40079 33.658583,244.10836 49.073181,225.07283 A 38.950035,38.950003 87 0 0 51.100882,226.51202 L 37.745183,247.0777 36.997384,248.95872 37.662983,249.39124 39.076882,247.94275 52.413982,227.4055 A 38.950035,38.950003 87 0 0 54.584383,228.6204 L 43.452283,250.4687 42.905082,252.41741 43.612483,252.77761 44.866682,251.18957 55.980182,229.37853 A 38.950035,38.950003 87 0 0 58.269481,230.35313 L 49.482383,253.24423 49.141883,255.23999 49.882883,255.5242 50.964484,253.81319 59.736083,230.9629 A 38.950035,38.950003 87 0 0 62.115282,231.6926 L 55.769383,255.37487 55.639182,257.39438 56.406082,257.60003 57.303684,255.78519 63.640182,232.13546 A 38.950035,38.950003 87 0 0 66.079884,232.62429 L 62.244984,256.83626 62.326584,258.85837 63.111084,258.98291 63.813383,257.08432 67.644682,232.89407 A 38.950035,38.950003 87 0 0 70.120984,233.13642 L 68.837784,257.61245 69.130283,259.61543 69.923083,259.65733 70.423284,257.69571 71.705883,233.23054 A 38.950035,38.950003 87 0 0 74.193083,233.22454 L 75.475682,257.69593 75.975882,259.65755 76.768582,259.61565 77.061084,257.61267 75.779482,233.15319 A 38.950035,38.950003 87 0 0 78.253783,232.89067 L 82.085582,257.08454 82.788382,258.98313 83.572382,258.85859 83.653982,256.83648 79.818082,232.6173 A 38.950035,38.950003 87 0 0 82.254082,232.11914 L 88.595782,255.78541 89.492884,257.60025 90.259784,257.3946 90.129583,255.37509 83.783684,231.69073 A 38.950035,38.950003 87 0 0 86.151482,230.93419 L 94.934384,253.81341 96.015982,255.52442 96.757083,255.23968 96.416482,253.24497 87.630482,230.35543 A 38.950035,38.950003 87 0 0 89.903782,229.34927 L 101.03178,251.18979 102.28698,252.77833 102.99438,252.41763 102.44668,250.46838 91.317083,228.62582 A 38.950035,38.950003 87 0 0 93.469884,227.38195 L 106.82208,247.94297 108.23598,249.39096 108.90158,248.95894 108.15378,247.07842 94.804183,226.52153 A 38.950035,38.950003 87 0 0 96.810783,225.05445 L 112.24088,244.10858 113.79838,245.40101 114.41538,244.90182 113.47488,243.10917 98.052583,224.06381 A 38.950035,38.950003 87 0 0 99.890683,222.39 L 117.22968,239.72901 118.91388,240.85142 119.47508,240.29022 118.35208,238.60556 101.02708,221.28104 A 38.950035,38.950003 87 0 0 102.67558,219.41964 L 121.73278,234.85178 123.52548,235.7923 124.02468,235.17529 122.73168,233.61724 103.69618,218.20216 A 38.950035,38.950003 87 0 0 105.13588,216.17437 L 125.70158,229.53014 127.58258,230.27842 128.01508,229.61281 126.56658,228.19897 106.02888,214.86179 A 38.950035,38.950003 87 0 0 107.24378,212.69086 L 129.09258,223.823 131.04128,224.37077 131.40148,223.66331 129.81348,222.4081 108.00188,211.29508 A 38.950035,38.950003 87 0 0 108.97648,209.00632 L 131.86808,217.79341 133.86388,218.13395 134.14808,217.3929 132.43708,216.31132 109.58628,207.53974 A 38.950035,38.950003 87 0 0 110.31648,205.16006 L 133.99868,211.50592 136.01828,211.63666 136.22388,210.86978 134.40898,209.97216 110.75878,203.63508 A 38.950035,38.950003 87 0 0 111.24768,201.19542 L 135.46008,205.03086 137.48218,204.94876 137.60678,204.16481 135.70818,203.462 111.51738,199.63073 A 38.950035,38.950003 87 0 0 111.75978,197.1549 L 136.23628,198.43805 138.23928,198.14555 138.28118,197.35284 136.31948,196.85207 111.85378,195.56999 A 38.950035,38.950003 87 0 0 111.84778,193.08279 L 136.31968,191.80021 138.28088,191.29945 138.23898,190.50673 136.23648,190.21477 111.77648,191.49633 A 38.950035,38.950003 87 0 0 111.51398,189.02207 L 135.70838,185.19025 137.60698,184.48747 137.48238,183.70301 135.46028,183.62191 111.24058,187.45786 A 38.950035,38.950003 87 0 0 110.74248,185.02182 L 134.40918,178.68011 136.22408,177.78299 136.01848,177.01611 133.99888,177.14633 110.31408,183.49222 A 38.950035,38.950003 87 0 0 109.55748,181.12387 L 132.43728,172.34145 134.14828,171.25988 133.86348,170.51885 131.86878,170.8594 108.97868,179.6454 A 38.950035,38.950003 87 0 0 107.97258,177.37216 L 129.81368,166.24415 131.40218,164.98895 131.04148,164.2815 129.09278,164.82927 107.24908,175.95933 A 38.950035,38.950003 87 0 0 106.00528,173.8065 L 126.56678,160.45384 128.01478,159.03994 127.58278,158.37436 125.70228,159.12212 105.14488,172.47168 A 38.950035,38.950003 87 0 0 103.67778,170.46508 L 122.73238,155.03503 124.02488,153.4775 123.52568,152.86047 121.73298,153.80098 102.68768,169.22382 A 38.950035,38.950003 87 0 0 101.01388,167.38518 L 118.35228,150.04618 119.47528,148.36205 118.91408,147.80134 117.22938,148.92376 99.904383,166.24881 A 38.950035,38.950003 87 0 0 98.042983,164.60033 L 113.47508,145.5431 114.41618,143.75044 113.79908,143.25072 112.24108,144.54419 96.825982,163.57972 A 38.950035,38.950003 87 0 0 94.798183,162.14001 L 108.15398,141.57434 108.90178,139.69332 108.23618,139.26078 106.82228,140.7093 93.485083,161.24652 A 38.950035,38.950003 87 0 0 91.314682,160.03214 L 102.44688,138.18385 102.99408,136.2346 102.28718,135.87443 101.03198,137.46246 89.918383,159.27405 A 38.950035,38.950003 87 0 0 87.629682,158.29943 L 96.416682,135.40778 96.757783,133.41256 96.016182,133.12834 94.934584,134.83885 86.163083,157.68964 A 38.950035,38.950003 87 0 0 83.783884,156.95998 L 90.129783,133.2777 90.259484,131.25766 89.493084,131.0525 88.595982,132.86635 82.258883,156.5171 A 38.950035,38.950003 87 0 0 79.819782,156.02875 L 83.654682,131.81627 83.573082,129.79367 82.788582,129.66963 82.085782,131.56772 78.254483,155.75797 A 38.950035,38.950003 87 0 0 75.778682,155.51612 L 77.061284,131.04009 76.768782,129.03661 75.976582,128.99531 75.475882,130.95643 74.193283,155.42215 A 38.950035,38.950003 87 0 0 71.706083,155.42815 L 70.423484,130.95678 Z M 71.499683,161.42591 H 74.399783 V 164.4485 A 29.949833,29.950066 0 0 1 86.637284,167.71806 L 88.143583,165.10891 90.655082,166.55843 89.147682,169.16964 A 29.949833,29.950066 0 0 1 98.130082,178.11379 L 100.71698,176.62036 102.16708,179.13184 99.576583,180.62735 A 29.949833,29.950066 0 0 1 102.84868,192.87569 H 105.84948 V 195.77577 H 102.82698 A 29.949833,29.950066 0 0 1 99.557383,208.01377 L 102.16708,209.52016 100.71698,212.03164 98.105783,210.52423 A 29.949833,29.950066 0 0 1 89.162184,219.50662 L 90.655582,222.09303 88.144184,223.54307 86.648584,220.95253 A 29.949833,29.950066 0 0 1 74.399783,224.22467 V 227.22605 H 71.499683 V 224.20351 A 29.949833,29.950066 0 0 1 59.261682,220.93392 L 57.755282,223.54307 55.243783,222.09303 56.751284,219.48233 A 29.949833,29.950066 0 0 1 47.769383,210.53817 L 45.182483,212.03164 43.732381,209.52016 46.322883,208.02462 A 29.949833,29.950066 0 0 1 43.050783,195.77577 H 40.049882 V 192.87619 H 43.071981 A 29.949833,29.950066 0 0 1 46.341483,180.63819 L 43.732381,179.13184 45.182483,176.62036 47.793683,178.12775 A 29.949833,29.950066 0 0 1 56.737282,169.14534 L 55.243783,166.55894 57.755282,165.10891 59.250781,167.69945 A 29.949833,29.950066 0 0 1 71.499683,164.42729 Z"
       id="rect2439-9-5-4" />
    <path
       inkscape:connector-curvature="0"
       style="opacity:1;fill:none;fill-opacity:1;fill-rule:nonzero;stroke:#ff0000;stroke-width:0.1;stroke-linecap:butt;stroke-linejoin:miter;stroke-miterlimit:4;stroke-dasharray:none;stroke-dashoffset:0;stroke-opacity:1;paint-order:normal"
       d="M 216.47542,128.98386 215.68312,129.02576 215.39012,131.02873 216.67172,155.48821 A 38.950035,38.950003 87 0 0 214.19752,155.75073 L 210.36572,131.55636 209.66342,129.65827 208.87892,129.78231 208.79782,131.80441 212.63372,156.0241 A 38.950035,38.950003 87 0 0 210.19772,156.52229 L 203.85542,132.85549 202.95892,131.04114 202.19202,131.2463 202.32222,133.26634 208.66812,156.95067 A 38.950035,38.950003 87 0 0 206.29972,157.70722 L 197.51731,134.82749 196.43521,133.11698 195.69421,133.4012 196.03471,135.39642 204.82132,158.28601 A 38.950035,38.950003 87 0 0 202.54802,159.29162 L 191.41951,137.4511 190.16431,135.86307 189.45741,136.22377 190.00461,138.17198 201.13472,160.01561 A 38.950035,38.950003 87 0 0 198.98182,161.25944 L 185.62921,140.69794 184.21581,139.24995 183.54971,139.68196 184.29751,141.56298 197.64711,162.11987 A 38.950035,38.950003 87 0 0 195.64101,163.58695 L 180.21041,144.53229 178.65291,143.23988 178.03581,143.73907 178.97641,145.53173 194.39921,164.57709 A 38.950035,38.950003 87 0 0 192.56051,166.25088 L 175.22211,148.91239 173.53791,147.78947 172.97621,148.35068 174.09911,150.03533 191.42421,167.35985 A 38.950035,38.950003 87 0 0 189.77571,169.22122 L 170.71841,153.78961 168.92631,152.8491 168.42651,153.4656 169.71951,155.02366 188.75511,170.43873 A 38.950035,38.950003 87 0 0 187.31591,172.46652 L 166.75021,159.11075 164.86911,158.36299 164.43661,159.02857 165.88511,160.44247 186.42191,173.77962 A 38.950035,38.950003 87 0 0 185.20751,175.95003 L 163.35921,164.8179 161.41041,164.27063 161.04971,164.97759 162.63831,166.23228 184.44941,177.34581 A 38.950035,38.950003 87 0 0 183.47481,179.63507 L 160.58311,170.84803 158.58791,170.50695 158.30371,171.24851 160.01411,172.33008 182.86501,181.10165 A 38.950035,38.950003 87 0 0 182.13531,183.48086 L 158.45301,177.13496 156.43351,177.00474 156.22781,177.77162 158.04161,178.66874 181.69251,185.00531 A 38.950035,38.950003 87 0 0 181.20411,187.44494 L 156.99161,183.61004 154.96901,183.69214 154.84491,184.47608 156.74301,185.17886 180.93391,189.01017 A 38.950035,38.950003 87 0 0 180.69151,191.48548 L 156.21541,190.20284 154.21241,190.49534 154.17061,191.28806 156.13221,191.78883 180.59741,193.0709 A 38.950035,38.950003 87 0 0 180.60341,195.5586 L 156.13191,196.84121 154.17031,197.34145 154.21211,198.13362 156.21511,198.42667 180.67471,197.14506 A 38.950035,38.950003 87 0 0 180.93721,199.61881 L 156.74321,203.45061 154.84461,204.15342 154.96921,204.93787 156.99131,205.01897 181.21051,201.18302 A 38.950035,38.950003 87 0 0 181.70871,203.61906 L 158.04191,209.96077 156.22751,210.85788 156.43261,211.62478 158.45271,211.49453 182.13711,205.14868 A 38.950035,38.950003 87 0 0 182.89361,207.51701 L 160.01381,216.29939 158.30341,217.38151 158.58811,218.12256 160.58281,217.78148 183.47241,208.99547 A 38.950035,38.950003 87 0 0 184.47851,211.26922 L 162.63741,222.39724 161.04941,223.65246 161.41011,224.35939 163.35831,223.81215 185.20201,212.68206 A 38.950035,38.950003 87 0 0 186.44541,214.83489 L 165.88481,228.18704 164.43631,229.60092 164.86881,230.26703 166.74931,229.51876 187.30631,216.16916 A 38.950035,38.950003 87 0 0 188.77341,218.1763 L 169.71871,233.60635 168.42681,235.16391 168.92601,235.78091 170.71861,234.83989 189.76351,219.41756 A 38.950035,38.950003 87 0 0 191.43731,221.2562 L 174.09881,238.59469 172.97641,240.27884 173.53761,240.84004 175.22181,239.71763 192.54631,222.39257 A 38.950035,38.950003 87 0 0 194.40771,224.04104 L 178.97611,243.09779 178.03551,244.89044 178.65261,245.38963 180.21061,244.09719 195.62521,225.06166 A 38.950035,38.950003 87 0 0 197.65291,226.50085 L 184.29721,247.06654 183.54941,248.94755 184.21501,249.38007 185.62891,247.93159 198.96602,227.39433 A 38.950035,38.950003 87 0 0 201.13642,228.60923 L 190.00431,250.45753 189.45711,252.40625 190.16451,252.76644 191.41871,251.1784 202.53222,229.36736 A 38.950035,38.950003 87 0 0 204.82152,230.34196 L 196.03441,253.23307 195.69391,255.22883 196.43491,255.51304 197.51651,253.80203 206.28812,230.95173 A 38.950035,38.950003 87 0 0 208.66732,231.68144 L 202.32142,255.36371 202.19122,257.38321 202.95812,257.58886 203.85572,255.77402 210.19222,232.1243 A 38.950035,38.950003 87 0 0 212.63192,232.61312 L 208.79702,256.82509 208.87862,258.8472 209.66312,258.97175 210.36542,257.07315 214.19672,232.88291 A 38.950035,38.950003 87 0 0 216.67302,233.12525 L 215.38982,257.60128 215.68232,259.60426 216.47512,259.64616 216.97532,257.68454 218.25792,233.21936 A 38.950035,38.950003 87 0 0 220.74512,233.21336 L 222.02772,257.68475 222.52792,259.64637 223.32062,259.60447 223.61312,257.60149 222.33152,233.14201 A 38.950035,38.950003 87 0 0 224.80582,232.87949 L 228.63762,257.07336 229.34042,258.97196 230.12442,258.84741 230.20602,256.8253 226.37012,232.60612 A 38.950035,38.950003 87 0 0 228.80612,232.10796 L 235.14782,255.77423 236.04492,257.58907 236.81182,257.38342 236.68162,255.36392 230.33572,231.67956 A 38.950035,38.950003 87 0 0 232.70352,230.92301 L 241.48642,253.80224 242.56802,255.51325 243.30912,255.2285 242.96852,253.23379 234.18252,230.34425 A 38.950035,38.950003 87 0 0 236.45582,229.33809 L 247.58382,251.17861 248.83902,252.76715 249.54642,252.40646 248.99872,250.4572 237.86912,228.61464 A 38.950035,38.950003 87 0 0 240.02192,227.37077 L 253.37413,247.9318 254.78801,249.37978 255.45351,248.94776 254.70572,247.06725 241.35622,226.51035 A 38.950035,38.950003 87 0 0 243.36282,225.04327 L 258.79293,244.0974 260.35032,245.38984 260.96732,244.89065 260.02692,243.098 244.60462,224.05263 A 38.950035,38.950003 87 0 0 246.44272,222.37882 L 263.78172,239.71784 265.46593,240.84025 266.02711,240.27905 264.90411,238.59439 247.57912,221.26987 A 38.950035,38.950003 87 0 0 249.22762,219.40846 L 268.28483,234.8406 270.07751,235.78112 270.57673,235.16412 269.28371,233.60606 250.24822,218.19098 A 38.950035,38.950003 87 0 0 251.68791,216.1632 L 272.25363,229.51897 274.13463,230.26724 274.56701,229.60163 273.11863,228.18779 252.58093,214.85061 A 38.950035,38.950003 87 0 0 253.79582,212.67968 L 275.64453,223.81182 277.59332,224.3596 277.95352,223.65213 276.36552,222.39692 254.55382,211.2839 A 38.950035,38.950003 87 0 0 255.52852,208.99514 L 278.42001,217.78223 280.41581,218.12277 280.70011,217.38172 278.98902,216.30014 256.13831,207.52856 A 38.950035,38.950003 87 0 0 256.86853,205.14889 L 280.55062,211.49474 282.57032,211.62549 282.77592,210.8586 280.96091,209.96098 257.31073,203.6239 A 38.950035,38.950003 87 0 0 257.79963,201.18424 L 282.01212,205.01968 284.03423,204.93748 284.15882,204.15353 282.26022,203.45072 258.06932,199.61945 A 38.950035,38.950003 87 0 0 258.31181,197.14363 L 282.78833,198.42678 284.79131,198.13427 284.83311,197.34156 282.87141,196.84079 258.40571,195.55871 A 38.950035,38.950003 87 0 0 258.39971,193.07151 L 282.8716,191.78894 284.8328,191.28817 284.791,190.49545 282.7885,190.20349 258.32838,191.48505 A 38.950035,38.950003 87 0 0 258.06589,189.01079 L 282.26039,185.17897 284.15899,184.47619 284.0344,183.69174 282.01229,183.61064 257.79249,187.44659 A 38.950035,38.950003 87 0 0 257.2945,185.01055 L 280.96108,178.66884 282.77609,177.77172 282.57049,177.00484 280.55079,177.13506 256.86608,183.48096 A 38.950035,38.950003 87 0 0 256.10948,181.1126 L 278.98919,172.33018 280.70028,171.24861 280.41548,170.50759 278.42068,170.84813 255.53068,179.63413 A 38.950035,38.950003 87 0 0 254.5246,177.36089 L 276.36569,166.23288 277.95419,164.97769 277.59349,164.27023 275.6447,164.818 253.8011,175.94806 A 38.950035,38.950003 87 0 0 252.55729,173.79523 L 273.1188,160.44257 274.56668,159.02867 274.1348,158.36309 272.2543,159.11085 251.69689,172.46041 A 38.950035,38.950003 87 0 0 250.22979,170.45381 L 269.28438,155.02376 270.5769,153.46623 270.07768,152.8492 268.285,153.78971 249.23969,169.21255 A 38.950035,38.950003 87 0 0 247.56589,167.37391 L 264.90428,150.03491 266.02728,148.35078 265.4661,147.79007 263.78139,148.91249 246.45639,166.23754 A 38.950035,38.950003 87 0 0 244.59499,164.58907 L 260.02709,145.53183 260.96818,143.73917 260.35099,143.23945 258.7931,144.53292 243.37799,163.56845 A 38.950035,38.950003 87 0 0 241.35019,162.12874 L 254.70589,141.56308 255.45368,139.68206 254.78818,139.24952 253.3743,140.69804 240.03709,161.23525 A 38.950035,38.950003 87 0 0 237.86669,160.02088 L 248.99889,138.17259 249.54609,136.22334 248.83919,135.86317 247.58399,137.4512 236.47039,159.26278 A 38.950035,38.950003 87 0 0 234.18169,158.28816 L 242.96869,135.39652 243.30979,133.4013 242.56819,133.11708 241.48659,134.82759 232.71509,157.67837 A 38.950035,38.950003 87 0 0 230.33589,156.94871 L 236.68179,133.26644 236.81149,131.2464 236.04509,131.04124 235.14799,132.85509 228.81089,156.50584 A 38.950035,38.950003 87 0 0 226.37179,156.01748 L 230.20669,131.80501 230.12509,129.78241 229.34059,129.65837 228.63779,131.55646 224.80649,155.7467 A 38.950035,38.950003 87 0 0 222.33069,155.50485 L 223.61329,131.02883 223.32079,129.02535 222.52859,128.98405 222.02789,130.94517 220.74529,155.41088 A 38.950035,38.950003 87 0 0 218.25809,155.41688 L 216.97549,130.94552 Z M 218.05202,161.41494 H 220.95212 V 164.43753 A 29.949833,29.950066 0 0 1 233.18962,167.7071 L 234.69592,165.09794 237.20742,166.54746 235.70002,169.15867 A 29.949833,29.950066 0 0 1 244.68242,178.10282 L 247.26932,176.60939 248.71942,179.12087 246.12892,180.61638 A 29.949833,29.950066 0 0 1 249.40102,192.86472 H 252.40182 V 195.7648 H 249.37932 A 29.949833,29.950066 0 0 1 246.10972,208.0028 L 248.71942,209.5092 247.26932,212.02067 244.65812,210.51327 A 29.949833,29.950066 0 0 1 235.71452,219.49566 L 237.20792,222.08207 234.69652,223.5321 233.20092,220.94156 A 29.949833,29.950066 0 0 1 220.95212,224.21371 V 227.21509 H 218.05202 V 224.19254 A 29.949833,29.950066 0 0 1 205.81402,220.92296 L 204.30762,223.5321 201.79612,222.08207 203.30362,219.47136 A 29.949833,29.950066 0 0 1 194.32171,210.5272 L 191.73481,212.02067 190.28471,209.5092 192.87521,208.01365 A 29.949833,29.950066 0 0 1 189.60311,195.7648 H 186.60221 V 192.86522 H 189.62431 A 29.949833,29.950066 0 0 1 192.89381,180.62722 L 190.28471,179.12087 191.73481,176.60939 194.34601,178.11679 A 29.949833,29.950066 0 0 1 203.28962,169.13437 L 201.79612,166.54797 204.30762,165.09794 205.80312,167.68848 A 29.949833,29.950066 0 0 1 218.05202,164.41632 Z"
       id="rect2439-9-5-4-7" />
    <path
       style="fill:none;stroke:#ff0000;stroke-width:0.1;stroke-linejoin:round;stroke-miterlimit:4;stroke-dasharray:none;stroke-opacity:1"
       d="M 74.122082,274.15489 72.123583,274.15289 V 277.05289 L 74.122082,277.05089 M 74.122082,279.94777 72.123583,279.94774 V 282.84774 L 74.122082,282.84777 M 74.122082,285.74465 H 64.225184 M 64.225184,282.84777 66.223581,282.84774 V 279.94774 L 64.225184,279.94777 M 64.225184,277.05089 66.223581,277.05289 V 274.15289 L 64.225184,274.15489"
       id="rect2935-3-3-3-2-5-1-3-8"
       inkscape:connector-curvature="0"
       sodipodi:nodetypes="cccccccccccccccccc" />
    <path
       style="fill:none;stroke:#ff0000;stroke-width:0.1;stroke-linejoin:round;stroke-miterlimit:4;stroke-dasharray:none;stroke-opacity:1"
       d="M 84.018983,271.25801 V 274.15489 L 82.020482,274.15289 V 277.05289 L 84.018983,277.05089 V 279.94777 L 82.020482,279.94774 V 282.84774 L 84.018983,282.84777 V 285.74465 H 74.122082 V 282.84777 L 76.120482,282.84774 V 279.94774 L 74.122082,279.94777 V 277.05089 L 76.120482,277.05289 V 274.15289 L 74.122082,274.15489 V 271.25801"
       id="rect2935-3-3-3-2-5-1-3-8-6"
       inkscape:connector-curvature="0"
       sodipodi:nodetypes="cccccccccccccccccccc" />
    <path
       style="fill:none;stroke:#ff0000;stroke-width:0.1;stroke-linejoin:round;stroke-miterlimit:4;stroke-dasharray:none;stroke-opacity:1"
       d="M 210.77342,271.25801 V 274.15489 L 208.77492,274.15289 V 277.05289 L 210.77342,277.05089 V 279.94777 L 208.77492,279.94774 V 282.84774 L 210.77342,282.84777 V 285.74465 H 200.87652 M 200.87652,282.84777 202.87492,282.84774 V 279.94774 L 200.87652,279.94777 M 200.87652,277.05089 202.87492,277.05289 V 274.15289 L 200.87652,274.15489"
       id="rect2935-3-3-3-2-5-1-3-6"
       inkscape:connector-curvature="0"
       sodipodi:nodetypes="ccccccccccccccccccc" />
    <path
       style="fill:none;stroke:#ff0000;stroke-width:0.1;stroke-linejoin:round;stroke-miterlimit:4;stroke-dasharray:none;stroke-opacity:1"
       d="M 220.67032,274.15489 218.67182,274.15289 V 277.05289 L 220.67032,277.05089 M 220.67032,279.94777 218.67182,279.94774 V 282.84774 L 220.67032,282.84777 M 220.67032,285.74465 H 210.77342 M 210.77342,282.84777 212.77182,282.84774 V 279.94774 L 210.77342,279.94777 M 210.77342,277.05089 212.77182,277.05289 V 274.15289 L 210.77342,274.15489"
       id="rect2935-3-3-3-2-5-1-3-8-9"
       inkscape:connector-curvature="0"
       sodipodi:nodetypes="cccccccccccccccccc" />
    <path
       style="fill:none;stroke:#ff0000;stroke-width:0.1;stroke-linejoin:round;stroke-miterlimit:4;stroke-dasharray:none;stroke-opacity:1"
       d="M 230.56722,271.25801 V 274.15489 L 228.56872,274.15289 V 277.05289 L 230.56722,277.05089 V 279.94777 L 228.56872,279.94774 V 282.84774 L 230.56722,282.84777 V 285.74465 H 220.67032 V 282.84777 L 222.66872,282.84774 V 279.94774 L 220.67032,279.94777 V 277.05089 L 222.66872,277.05289 V 274.15289 L 220.67032,274.15489 V 271.25801"
       id="rect2935-3-3-3-2-5-1-3-8-6-7"
       inkscape:connector-curvature="0"
       sodipodi:nodetypes="cccccccccccccccccccc" />
    <path
       style="opacity:1;fill:none;fill-opacity:1;fill-rule:nonzero;stroke:#ff0000;stroke-width:0.1;stroke-linecap:butt;stroke-linejoin:miter;stroke-miterlimit:4;stroke-dasharray:none;stroke-dashoffset:0;stroke-opacity:1;paint-order:normal"
       d="M 246.52863,171.47178 244.60003,173.39982 240.42823,169.22798 242.32893,167.32732 M 196.61903,167.27932 198.56773,169.22803 194.39593,173.39987 192.47613,171.48061 M 192.47213,217.18429 194.39553,215.2609 198.56733,219.43272 196.67133,221.32875 M 242.36515,221.34785 240.44176,219.42445 244.61358,215.25265 246.50961,217.14865"
       id="path15859-9"
       inkscape:connector-curvature="0"
       sodipodi:nodetypes="cccccccccccccccc" />
    <path
       inkscape:connector-curvature="0"
       style="opacity:1;fill:none;fill-opacity:1;fill-rule:nonzero;stroke:#ff0000;stroke-width:0.09999999;stroke-linecap:butt;stroke-linejoin:miter;stroke-miterlimit:4;stroke-dasharray:none;stroke-dashoffset:0;stroke-opacity:1;paint-order:normal"
       d="M 74.38527,121.43662 V 124.45762 L 71.485188,124.43643 V 121.4578 C 59.670489,121.6796 48.086425,124.76817 37.729625,130.45777 L 39.261314,133.11084 36.745706,134.55365 35.256393,131.97447 C 25.14827,138.07896 16.673291,146.54609 10.559191,156.64843 L 13.169366,158.15531 11.652663,160.62855 9.116384,159.16404 C 3.4043233,169.50364 0.28853434,181.07571 0.03683334,192.88549 H 3.0573223 L 3.0361343,195.78558 H 0.05802134 C 0.27971334,207.60007 3.3680833,219.18392 9.0574745,229.54062 L 11.710541,228.00945 C 12.17404,228.85786 12.655138,229.69668 13.153345,230.52506 L 10.574177,232.01437 C 16.678725,242.12238 25.145802,250.59755 35.248125,256.71157 L 36.755009,254.1014 39.227725,255.6181 37.763217,258.1549 C 44.315316,261.76508 51.383692,264.34606 58.720593,265.80714 V 262.74221 H 61.485798 V 266.23864 C 64.62913,266.77219 67.803834,267.09667 70.98961,267.21481 V 263.53183 H 69.464639 V 260.63226 L 62.552918,259.90569 55.754883,258.4603 49.144949,256.31263 42.795983,253.48593 36.776712,250.01121 32.354244,246.79797 30.309923,249.06811 22.952747,242.44371 24.997069,240.17356 21.338892,236.11076 17.253871,230.48785 13.77863,224.4691 10.95193,218.12013 8.8042577,211.5102 7.3593866,204.71216 6.6328143,197.79992 V 190.84996 L 7.2043566,185.41308 4.2159093,184.77798 6.2741793,175.09433 9.2626298,175.72943 10.95193,170.53027 13.77863,164.18079 17.253871,158.16203 21.338892,152.53963 25.989257,147.37457 31.154317,142.72421 36.776712,138.63918 42.795467,135.16394 47.789994,132.94031 46.845865,130.03557 56.261312,126.97581 57.20544,129.88106 62.552918,128.7447 69.464639,128.01813 H 76.414603 L 83.326327,128.7447 88.674321,129.88106 89.618449,126.97581 99.033893,130.03557 98.089767,132.94031 103.08378,135.16394 109.10253,138.63867 114.72545,142.72421 119.88999,147.37457 124.54036,152.53911 128.62589,158.16203 132.10061,164.18079 134.92732,170.52975 136.61663,175.72892 139.60507,175.09382 141.66334,184.77746 138.6754,185.41308 139.24696,190.84996 V 197.79992 L 138.52038,204.71165 137.07549,211.50968 134.92782,218.11961 132.10061,224.4691 128.62589,230.48785 124.54086,236.11025 120.8827,240.17305 122.92701,242.44371 115.56984,249.0676 113.52551,246.79745 109.10253,250.01069 103.08378,253.48593 96.734809,256.31263 90.124877,258.4603 83.326843,259.90518 76.414603,260.63175 V 263.53183 H 74.889632 V 267.19517 C 78.072088,267.08605 81.244275,266.77114 84.385692,266.24743 V 262.7634 H 87.150381 V 265.77665 C 94.493683,264.34674 101.57323,261.79577 108.14084,258.21329 L 106.60914,255.56022 109.12476,254.11742 110.61407,256.6971 C 120.72226,250.5924 129.19726,242.12511 135.31128,232.02264 L 132.70109,230.51576 134.21778,228.04252 136.75458,229.50703 C 142.46659,219.16743 145.58243,207.59547 145.83413,195.78558 H 142.81314 L 142.83434,192.88549 H 145.81296 C 145.59116,181.07081 142.50258,169.48683 136.81298,159.12993 L 134.15992,160.66162 132.71712,158.14601 135.29681,156.6567 C 129.19229,146.54839 120.72525,138.07318 110.62286,131.95897 L 109.11545,134.56967 106.64222,133.05296 108.10724,130.51617 C 97.767542,124.80406 86.19527,121.68822 74.38527,121.43662 Z"
       id="rect12746-2-3" />
  </g>
</svg>
