<?xml version="1.0" encoding="UTF-8" standalone="no"?>
<svg
   xmlns:dc="http://purl.org/dc/elements/1.1/"
   xmlns:cc="http://creativecommons.org/ns#"
   xmlns:rdf="http://www.w3.org/1999/02/22-rdf-syntax-ns#"
   xmlns:svg="http://www.w3.org/2000/svg"
   xmlns="http://www.w3.org/2000/svg"
   xmlns:sodipodi="http://sodipodi.sourceforge.net/DTD/sodipodi-0.dtd"
   xmlns:inkscape="http://www.inkscape.org/namespaces/inkscape"
   width="292.73389mm"
   height="175.62421mm"
   viewBox="0 0 292.73389 175.62421"
   version="1.1"
   id="svg15195"
   inkscape:version="0.92.3 (2405546, 2018-03-11)"
   sodipodi:docname="round-cut.3.svg">
  <defs
     id="defs15189" />
  <sodipodi:namedview
     id="base"
     pagecolor="#ffffff"
     bordercolor="#666666"
     borderopacity="1.0"
     inkscape:pageopacity="0.0"
     inkscape:pageshadow="2"
     inkscape:zoom="0.7"
     inkscape:cx="858.09585"
     inkscape:cy="-109.83361"
     inkscape:document-units="mm"
     inkscape:current-layer="layer1"
     showgrid="false"
     inkscape:window-width="1920"
     inkscape:window-height="996"
     inkscape:window-x="0"
     inkscape:window-y="27"
     inkscape:window-maximized="1"
     fit-margin-top="0"
     fit-margin-left="0"
     fit-margin-right="0"
     fit-margin-bottom="0"
     units="mm"
     inkscape:document-rotation="0" />
  <metadata
     id="metadata15192">
    <rdf:RDF>
      <cc:Work
         rdf:about="">
        <dc:format>image/svg+xml</dc:format>
        <dc:type
           rdf:resource="http://purl.org/dc/dcmitype/StillImage" />
        <dc:title />
      </cc:Work>
    </rdf:RDF>
  </metadata>
  <g
     inkscape:label="Calque 1"
     inkscape:groupmode="layer"
     id="layer1"
     transform="translate(0,-121.37579)">
    <path
       style="opacity:1;fill:none;fill-opacity:1;fill-rule:nonzero;stroke:#ff0000;stroke-width:0.1;stroke-linecap:butt;stroke-linejoin:miter;stroke-miterlimit:4;stroke-dasharray:none;stroke-dashoffset:0;stroke-opacity:1;paint-order:normal"
       d="M 50.767858,263.73239 C 46.094126,266.86537 42.118158,270.95811 39.122567,275.7301 L 41.723448,277.23183 40.272367,279.74227 37.671518,278.24055 C 34.709007,283.82276 33.028366,290.18948 33.028366,296.95 H 112.92532 C 112.92532,290.18948 111.24468,283.82276 108.2822,278.24055 L 105.68079,279.7428 104.22973,277.23183 106.83059,275.7301 C 103.8359,270.95932 99.861457,266.86762 95.189447,263.73498 M 54.327856,271.25804 H 91.624798 V 289.40525 H 93.674808 V 291.80304 H 91.424818 V 293.94968 H 54.528358 V 291.80304 H 52.277838 V 289.40525 H 54.327856 Z"
       id="path9287"
       inkscape:connector-curvature="0"
       sodipodi:nodetypes="ccccccccccccccccccccccccc" />
    <path
       inkscape:connector-curvature="0"
       style="opacity:1;fill:none;fill-opacity:1;fill-rule:nonzero;stroke:#ff0000;stroke-width:0.1;stroke-linecap:butt;stroke-linejoin:miter;stroke-miterlimit:4;stroke-dasharray:none;stroke-dashoffset:0;stroke-opacity:1;paint-order:normal"
       d="m 74.399479,121.42687 v 3.02101 l -2.900101,-0.0212 v -2.97862 a 72.950006,72.950006 0 0 0 -33.755502,8.99996 l 1.531702,2.65305 -2.5156,1.44283 -1.4894,-2.57919 a 72.950006,72.950006 0 0 0 -24.697201,24.67397 l 2.6102,1.50688 -1.5167,2.47324 -2.5363001,-1.46452 A 72.950006,72.950006 0 0 0 0.05107687,192.87575 H 3.0715769 l -0.0212,2.90008 H 0.07227687 a 72.950006,72.950006 0 0 0 8.99940003,33.75504 l 2.6531001,-1.53117 c 0.4635,0.84843 0.9445,1.68711 1.4428,2.5156 l -2.5792,1.48931 a 72.950006,72.950006 0 0 0 24.674001,24.69722 l 1.5068,-2.61016 2.472798,1.51669 -1.464498,2.5368 a 72.950006,72.950006 0 0 0 33.7219,9.07901 v -3.02048 l 2.900101,0.0212 v 2.97863 a 72.950006,72.950006 0 0 0 33.755601,-8.99996 l -1.5317,-2.65308 2.5156,-1.44279 1.4893,2.57967 a 72.950006,72.950006 0 0 0 24.6972,-24.67445 l -2.6102,-1.50689 1.5167,-2.47324 2.5368,1.46452 a 72.950006,72.950006 0 0 0 9.0796,-33.72146 h -3.021 l 0.0212,-2.90008 h 2.9786 a 72.950006,72.950006 0 0 0 -9,-33.75556 l -2.653,1.5317 -1.4428,-2.51564 2.5797,-1.48931 a 72.950006,72.950006 0 0 0 -24.674,-24.69772 l -1.5074,2.6107 -2.4732,-1.5167 1.465,-2.5368 a 72.950006,72.950006 0 0 0 -33.722001,-9.07955 z m -1.449502,9.94876 a 62.95,62.95 0 0 1 1.9968,0.0997 l -1.202499,22.94848 a 39.949996,39.950004 87 0 0 -1.588601,0.004 l -1.204,-22.98105 a 62.95,62.95 0 0 1 1.9983,-0.0708 z m -4.5873,0.17362 1.2051,22.99447 a 39.949996,39.950004 87 0 0 -1.584399,0.1447 L 64.394977,132.0314 a 62.95,62.95 0 0 1 3.9677,-0.48215 z m 9.171,0.0558 a 62.95,62.95 0 0 1 3.970301,0.42841 l -3.5931,22.6875 a 39.949996,39.950004 87 0 0 -1.5802,-0.15502 z m -15.7055,0.78137 3.6029,22.74848 a 39.949996,39.950004 87 0 0 -1.5612,0.29766 l -5.9412,-22.17074 a 62.95,62.95 0 0 1 3.8995,-0.8754 z m 22.237401,0.0336 a 62.95,62.95 0 0 1 3.902599,0.85164 l -5.942798,22.179 a 39.949996,39.950004 87 0 0 -1.558002,-0.3116 z m -28.6479,1.48003 5.9568,22.23223 a 39.949996,39.950004 87 0 0 -1.517801,0.47027 l -8.2305,-21.44263 a 62.95,62.95 0 0 1 3.791501,-1.25987 z m 35.0604,0.0129 a 62.95,62.95 0 0 1 3.7884,1.26506 l -8.225301,21.42813 a 39.949996,39.950004 87 0 0 -1.518798,-0.46559 z m 6.2229,2.15337 a 62.95,62.95 0 0 1 3.631802,1.66449 l -10.416902,20.44423 a 39.949996,39.950004 87 0 0 -1.465,-0.61548 z m -47.4994,0.007 8.242401,21.47364 a 39.949996,39.950004 87 0 0 -1.455801,0.63664 l -10.4339,-20.47783 a 62.95,62.95 0 0 1 3.6473,-1.63245 z m 53.464402,2.78434 a 62.95,62.95 0 0 1 3.4324,2.04431 l -12.492302,19.23706 a 39.949996,39.950004 87 0 0 -1.396799,-0.75859 z m -59.419604,0.0253 10.435503,20.48142 a 39.949996,39.950004 87 0 0 -1.375101,0.79531 L 39.780377,140.87116 a 62.95,62.95 0 0 1 3.465999,-1.98797 z m 65.061704,3.37343 a 62.95,62.95 0 0 1 3.1946,2.40139 l -14.432201,17.8227 a 39.949996,39.950004 87 0 0 -1.313601,-0.89712 z m -70.689802,0.0419 12.5119,19.26651 a 39.949996,39.950004 87 0 0 -1.278501,0.94414 l -14.4838,-17.88626 a 62.95,62.95 0 0 1 3.250401,-2.32439 z m 75.943202,3.93465 a 62.95,62.95 0 0 1 2.9248,2.72436 l -16.2258,16.22539 a 39.949996,39.950004 87 0 0 -1.204102,-1.03767 z m -81.183703,0.0486 14.4487,17.84233 a 39.949996,39.950004 87 0 0 -1.165799,1.08056 l -16.2853,-16.28531 a 62.95,62.95 0 0 1 3.002399,-2.63758 z m 85.978203,4.4695 a 62.95,62.95 0 0 1 2.6376,3.00188 l -17.8429,14.44874 a 39.949996,39.950004 87 0 0 -1.081,-1.16531 z m -90.774303,0.0383 16.225401,16.22483 a 39.949996,39.950004 87 0 0 -1.038201,1.20459 l -17.9121,-14.50456 a 62.95,62.95 0 0 1 2.7249,-2.92486 z m 95.070703,4.95472 a 62.95,62.95 0 0 1 2.3244,3.24993 l -19.2665,12.5119 a 39.949996,39.950004 87 0 0 -0.9436,-1.27846 z m -99.370203,0.0284 17.822701,14.4322 a 39.949996,39.950004 87 0 0 -0.897601,1.31414 l -19.3265,-12.55118 a 62.95,62.95 0 0 1 2.4014,-3.19516 z m 103.121903,5.38419 a 62.95,62.95 0 0 1 1.988,3.46594 l -20.4815,10.43554 a 39.949996,39.950004 87 0 0 -0.7953,-1.37562 z m -106.877703,0.0196 19.236499,12.49328 a 39.949996,39.950004 87 0 0 -0.757999,1.39631 l -20.5228,-10.45673 a 62.95,62.95 0 0 1 2.0443,-3.43286 z m 51.973001,0.24958 h 2.900101 v 3.02257 a 29.949833,29.950066 0 0 1 12.2375,3.26956 l 1.5064,-2.60913 2.511499,1.44952 -1.5074,2.6112 a 29.949833,29.950066 0 0 1 8.9824,8.94416 l 2.586902,-1.49344 1.45,2.51147 -2.590501,1.49551 a 29.949833,29.950066 0 0 1 3.272101,12.24835 h 3.0009 v 2.90008 h -3.0226 a 29.949833,29.950066 0 0 1 -3.269602,12.23801 l 2.609702,1.50638 -1.45,2.51147 -2.611201,-1.50741 a 29.949833,29.950066 0 0 1 -8.943702,8.9824 l 1.493501,2.5864 -2.511499,1.45005 -1.495502,-2.59053 a 29.949833,29.950066 0 0 1 -12.248898,3.27213 v 3.00138 h -2.900101 v -3.02255 a 29.949833,29.950066 0 0 1 -12.238,-3.26959 l -1.5063,2.60916 -2.511501,-1.45005 1.5074,-2.61069 a 29.949833,29.950066 0 0 1 -8.981901,-8.94416 l -2.5869,1.49346 -1.449999,-2.51147 2.590501,-1.49553 a 29.949833,29.950066 0 0 1 -3.272199,-12.24886 h -3.000801 v -2.89957 h 3.021999 a 29.949833,29.950066 0 0 1 3.269599,-12.23801 l -2.609099,-1.50636 1.449999,-2.51147 2.611202,1.50738 a 29.949833,29.950066 0 0 1 8.943599,-8.98239 l -1.4934,-2.58641 2.511501,-1.45002 1.495499,2.59053 a 29.949833,29.950066 0 0 1 12.248801,-3.27215 z m 58.070402,5.50354 a 62.95,62.95 0 0 1 1.6319,3.64784 l -21.4736,8.24291 a 39.949996,39.950004 87 0 0 -0.6372,-1.45624 z m -113.214803,0.0134 20.443699,10.41641 a 39.949996,39.950004 87 0 0 -0.6149,1.46503 L 14.690477,170.5746 a 62.95,62.95 0 0 1 1.6645,-3.63183 z m 115.760403,6.05854 a 62.95,62.95 0 0 1 1.2598,3.79203 l -22.2322,5.95673 a 39.949996,39.950004 87 0 0 -0.4702,-1.51773 z m -118.313203,0.007 21.428099,8.22534 a 39.949996,39.950004 87 0 0 -0.465598,1.51929 l -22.227601,-5.95572 a 62.95,62.95 0 0 1 1.2651,-3.78891 z m 120.211303,6.29626 a 62.95,62.95 0 0 1 0.8754,3.89951 l -22.749,3.60288 a 39.949996,39.950004 87 0 0 -0.2982,-1.56167 z m -122.117703,0.003 22.179101,5.9428 a 39.949996,39.950004 87 0 0 -0.312201,1.557 l -22.718,-3.59823 a 62.95,62.95 0 0 1 0.8511,-3.90157 z m 123.348603,6.46316 a 62.95,62.95 0 0 1 0.4811,3.96722 l -22.9945,1.20509 a 39.949996,39.950004 87 0 0 -0.1442,-1.58387 z m -124.586703,5.3e-4 22.686401,3.59307 a 39.949996,39.950004 87 0 0 -0.154501,1.58025 l -22.9603,-1.20354 a 62.95,62.95 0 0 1 0.4284,-3.96978 z m 125.171103,6.55672 a 62.95,62.95 0 0 1 0.0708,1.99779 62.95,62.95 0 0 1 -0.0997,1.99628 l -22.9485,-1.20253 a 39.949996,39.950004 87 0 0 -0.004,-1.5875 z m -125.728703,0.001 22.9479,1.2025 a 39.949996,39.950004 87 0 0 0.0037,1.5875 l -22.981099,1.20407 a 62.95,62.95 0 0 1 -0.0708,-1.99731 62.95,62.95 0 0 1 0.1003,-1.99676 z m 102.609203,5.37744 22.9609,1.20304 a 62.95,62.95 0 0 1 -0.4284,3.97028 l -22.6875,-3.59307 a 39.949996,39.950004 87 0 0 0.155,-1.58025 z m -79.541402,0.002 a 39.949996,39.950004 87 0 0 0.144698,1.5839 l -22.657499,3.58841 a 62.95,62.95 0 0 1 -0.4816,-3.96721 z m 78.968302,4.13567 22.7185,3.59823 a 62.95,62.95 0 0 1 -0.8511,3.90157 l -22.1795,-5.94278 a 39.949996,39.950004 87 0 0 0.3121,-1.55702 z m -78.377104,0.001 a 39.949996,39.950004 87 0 0 0.297702,1.56114 l -22.171301,5.94072 a 62.95,62.95 0 0 1 -0.8754,-3.89898 z m 77.375704,4.05349 22.2275,5.95572 a 62.95,62.95 0 0 1 -1.265,3.78891 l -21.4282,-8.22534 a 39.949996,39.950004 87 0 0 0.4657,-1.51929 z m -76.378304,0.003 a 39.949996,39.950004 87 0 0 0.470202,1.51722 l -21.442601,8.231 a 62.95,62.95 0 0 1 -1.2604,-3.79147 z m 74.959204,3.92533 21.4933,8.25066 a 62.95,62.95 0 0 1 -1.664,3.6313 l -20.4448,-10.41694 a 39.949996,39.950004 87 0 0 0.6155,-1.46502 z m -73.544903,0.005 a 39.949996,39.950004 87 0 0 0.637199,1.45574 L 16.329677,221.721 a 62.95,62.95 0 0 1 -1.632,-3.64731 z m 71.723303,3.75428 20.5238,10.45673 a 62.95,62.95 0 0 1 -2.0448,3.43287 l -19.2371,-12.49278 a 39.949996,39.950004 87 0 0 0.7581,-1.39682 z m -69.905303,0.008 a 39.949996,39.950004 87 0 0 0.795301,1.37511 l -19.288701,12.52689 a 62.95,62.95 0 0 1 -1.9885,-3.46644 z m 67.702903,3.54036 19.3264,12.55117 a 62.95,62.95 0 0 1 -2.4009,3.19413 l -17.8226,-14.4322 a 39.949996,39.950004 87 0 0 0.8971,-1.3131 z m -65.502504,0.0119 a 39.949996,39.950004 87 0 0 0.943603,1.27796 L 23.246577,232.9074 a 62.95,62.95 0 0 1 -2.3239,-3.24993 z m 62.940904,3.28715 17.9126,14.50505 a 62.95,62.95 0 0 1 -2.7249,2.92438 l -16.2254,-16.22539 a 39.949996,39.950004 87 0 0 1.0377,-1.20404 z m -60.381303,0.017 a 39.949996,39.950004 87 0 0 1.08,1.16531 l -16.2853,16.28531 a 62.95,62.95 0 0 1 -2.6376,-3.00188 z m 57.489503,2.99723 16.2858,16.28585 a 62.95,62.95 0 0 1 -3.0019,2.63704 L 99.072978,224.52704 a 39.949996,39.950004 87 0 0 1.165302,-1.08056 z m -54.599803,0.0217 a 39.949996,39.950004 87 0 0 1.2046,1.03765 l -14.505099,17.9126 a 62.95,62.95 0 0 1 -2.9249,-2.72489 z m 51.4087,2.67425 14.484403,17.88626 a 62.95,62.95 0 0 1 -3.2499,2.32439 L 95.769279,227.08606 a 39.949996,39.950004 87 0 0 1.277898,-0.94361 z m -48.218198,0.0279 a 39.949996,39.950004 87 0 0 1.313097,0.89709 l -12.551198,19.32699 a 62.95,62.95 0 0 1 -3.1946,-2.40141 z m 44.7637,2.32076 12.526301,19.28926 a 62.95,62.95 0 0 1 -3.4664,1.988 L 92.217079,229.28644 a 39.949996,39.950004 87 0 0 1.3756,-0.79531 z m -41.299802,0.0207 a 39.949996,39.950004 87 0 0 1.397302,0.75862 l -10.456701,20.52328 a 62.95,62.95 0 0 1 -3.4334,-2.04484 z m 37.6178,1.95543 10.434003,20.47886 a 62.95,62.95 0 0 1 -3.646303,1.63142 l -8.242898,-21.47364 a 39.949996,39.950004 87 0 0 1.455198,-0.63664 z m -33.927101,0.009 a 39.949996,39.950004 87 0 0 1.465001,0.61497 l -8.2501,21.49324 a 62.95,62.95 0 0 1 -3.631901,-1.66396 z m 3.874702,1.5684 a 39.949996,39.950004 87 0 0 1.518801,0.46558 l -5.9563,22.22813 a 62.95,62.95 0 0 1 -3.788402,-1.26506 z m 26.184399,0.004 8.2311,21.44313 a 62.95,62.95 0 0 1 -3.792598,1.26038 L 84.524477,232.5188 a 39.949996,39.950004 87 0 0 1.5182,-0.47024 z m -22.168599,1.15186 a 39.949996,39.950004 87 0 0 1.557499,0.3116 l -3.598201,22.71903 a 62.95,62.95 0 0 1 -3.902098,-0.85164 z m 18.1555,0.0181 5.9407,22.17179 a 62.95,62.95 0 0 1 -3.899001,0.87487 l -3.6029,-22.74901 a 39.949996,39.950004 87 0 0 1.561201,-0.29765 z m -14.040602,0.7116 a 39.949996,39.950004 87 0 0 1.580301,0.15554 l -1.204,22.96086 a 62.95,62.95 0 0 1 -3.9698,-0.42839 z m 9.927101,0.0325 3.588401,22.65754 a 62.95,62.95 0 0 1 -3.9677,0.48216 l -1.2051,-22.995 a 39.949996,39.950004 87 0 0 1.584399,-0.1447 z m -4.1724,0.26098 1.2041,22.98152 a 62.95,62.95 0 0 1 -1.9978,0.0708 62.95,62.95 0 0 1 -1.996799,-0.10025 l 1.202499,-22.94848 a 39.949996,39.950004 87 0 0 1.588,-0.004 z"
       id="path3995-2-9-8-9" />
    <path
       style="opacity:1;fill:none;fill-opacity:1;fill-rule:nonzero;stroke:#ff0000;stroke-width:0.1;stroke-linecap:butt;stroke-linejoin:miter;stroke-miterlimit:4;stroke-dasharray:none;stroke-dashoffset:0;stroke-opacity:1;paint-order:normal"
       d="m 221.23392,121.42688 v 3.02099 l -2.9001,-0.0212 v -2.97865 a 72.950006,72.950006 0 0 0 -33.7556,8.99999 l 1.5317,2.65305 -2.5151,1.4428 -1.4898,-2.57916 a 72.950006,72.950006 0 0 0 -24.6972,24.67396 l 2.6102,1.50688 -1.5167,2.47322 -2.5363,-1.4645 a 72.950006,72.950006 0 0 0 -9.0795,33.72144 h 3.0204 l -0.0211,2.9001 h -2.9781 a 72.950006,72.950006 0 0 0 8.9994,33.75504 l 2.6531,-1.53117 c 0.4635,0.84844 0.9445,1.68711 1.4428,2.5156 l -2.5792,1.48932 a 72.950006,72.950006 0 0 0 24.6739,24.69721 l 1.5069,-2.61019 2.4728,1.51669 -1.4646,2.5368 a 72.950006,72.950006 0 0 0 33.722,9.07905 v -3.02049 l 2.9001,0.0212 v 2.97862 a 72.950006,72.950006 0 0 0 33.7555,-8.99999 l -1.53159,-2.65305 2.51558,-1.4428 1.48931,2.57969 a 72.950006,72.950006 0 0 0 24.69719,-24.67446 l -2.61019,-1.50691 1.51669,-2.47322 2.5368,1.4645 a 72.950006,72.950006 0 0 0 9.0796,-33.72144 h -3.02098 l 0.0211,-2.9001 h 2.97871 a 72.950006,72.950006 0 0 0 -8.99999,-33.75554 l -2.65311,1.53167 -1.44229,-2.5156 2.57968,-1.48932 a 72.950006,72.950006 0 0 0 -24.6744,-24.69771 l -1.50739,2.61069 -2.4733,-1.51669 1.46511,-2.5368 a 72.950006,72.950006 0 0 0 -33.72201,-9.07955 z m -18.124,5.53868 0.8966,2.75797 -9.4154,3.05924 -0.8966,-2.75796 z m 33.35769,0 9.41541,3.05925 -0.89651,2.75796 -9.41549,-3.05924 z m -18.13329,34.45989 h 2.9001 v 3.02258 a 29.949833,29.950066 0 0 1 12.2375,3.26956 l 1.50641,-2.60914 2.51139,1.44952 -1.50741,2.6112 a 29.949833,29.950066 0 0 1 8.9825,8.94416 l 2.58691,-1.49344 1.45,2.51148 -2.59051,1.4955 a 29.949833,29.950066 0 0 1 3.2721,12.24836 h 3.00091 v 2.90007 h -3.0226 a 29.949833,29.950066 0 0 1 -3.26949,12.23801 l 2.60959,1.50638 -1.45,2.51148 -2.6112,-1.50741 a 29.949833,29.950066 0 0 1 -8.94371,8.98239 l 1.49352,2.58641 -2.5115,1.45005 -1.49551,-2.59054 a 29.949833,29.950066 0 0 1 -12.2489,3.27216 v 3.00135 h -2.9001 v -3.02255 a 29.949833,29.950066 0 0 1 -12.238,-3.26956 l -1.5064,2.60914 -2.5114,-1.45005 1.5074,-2.6107 a 29.949833,29.950066 0 0 1 -8.9819,-8.94416 l -2.5869,1.49347 -1.4501,-2.51148 2.5906,-1.49553 a 29.949833,29.950066 0 0 1 -3.2722,-12.24886 h -3.0008 v -2.89957 h 3.022 a 29.949833,29.950066 0 0 1 3.2696,-12.23801 l -2.6092,-1.50635 1.4501,-2.51148 2.6112,1.50738 a 29.949833,29.950066 0 0 1 8.9436,-8.98239 l -1.4934,-2.58641 2.5114,-1.45002 1.4956,2.59054 a 29.949833,29.950066 0 0 1 12.2488,-3.27216 z m 23.01261,4.34652 7.00058,7.00061 -2.051,2.05052 -7.00018,-7.00061 z m -43.13331,5.1e-4 2.0505,2.05052 -7.0006,7.0001 -2.0505,-2.05052 z m 88.24011,9.31105 2.0583,9.68365 -2.83652,0.60306 -2.0583,-9.68364 z m -133.33091,5.3e-4 2.837,0.60307 -2.0588,9.68364 -2.8365,-0.60306 z m 40.1412,38.77128 7.0001,7.00061 -2.0505,2.05052 -7.0001,-7.00061 z m 53.03249,0 2.051,2.05052 -7.00058,7.00061 -2.0506,-2.05052 z m 21.5387,26.42266 1.9404,2.15543 -7.35708,6.6244 -1.94051,-2.15543 z m -96.09279,5.3e-4 7.3566,6.6244 -1.9404,2.1549 -7.3572,-6.6244 z"
       id="path9524"
       inkscape:connector-curvature="0" />
    <path
       inkscape:connector-curvature="0"
       style="opacity:1;fill:none;fill-opacity:1;fill-rule:nonzero;stroke:#ff0000;stroke-width:0.1;stroke-linecap:butt;stroke-linejoin:miter;stroke-miterlimit:4;stroke-dasharray:none;stroke-dashoffset:0;stroke-opacity:1;paint-order:normal"
       d="M 197.60222,263.73239 C 192.92862,266.86538 188.95262,270.9581 185.95702,275.7301 L 188.55782,277.23183 187.10672,279.74228 184.50602,278.24056 C 181.54332,283.82275 179.86282,290.18947 179.86282,296.95 H 259.75981 C 259.75981,290.18947 258.07912,283.82275 255.11661,278.24056 L 252.51523,279.7428 251.06412,277.23183 253.66503,275.7301 C 250.67021,270.95933 246.69593,266.86762 242.02391,263.73499 M 201.16232,271.25804 H 238.45913 V 289.40525 H 240.50931 V 291.80304 H 238.25932 V 293.94969 H 201.36282 V 291.80304 H 199.11222 V 289.40525 H 201.16232 Z"
       id="path9287-2"
       sodipodi:nodetypes="ccccccccccccccccccccccccc" />
    <path
       style="fill:none;stroke:#ff0000;stroke-width:0.1;stroke-linejoin:round;stroke-miterlimit:4;stroke-dasharray:none;stroke-opacity:1"
       d="m 64.224778,271.25804 v 2.89688 l -1.998501,-0.002 v 2.9 l 1.998501,-0.002 v 2.89688 l -1.998501,-3e-5 v 2.9 l 1.998501,3e-5 v 2.89688 h -9.896901 m 0,-2.89688 1.998401,-3e-5 v -2.9 l -1.998401,3e-5 m 0,-2.89688 1.998401,0.002 v -2.9 l -1.998401,0.002"
       id="rect2935-3-3-3-2-5-1-3-1"
       inkscape:connector-curvature="0"
       sodipodi:nodetypes="ccccccccccccccccccc" />
    <path
       style="fill:none;stroke:#ff0000;stroke-width:0.1;stroke-linejoin:round;stroke-miterlimit:4;stroke-dasharray:none;stroke-opacity:1"
       d="m 74.121677,274.15492 -1.998499,-0.002 v 2.9 l 1.998499,-0.002 m 0,2.89688 -1.998499,-3e-5 v 2.9 l 1.998499,3e-5 m 0,2.89688 h -9.896899 m 0,-2.89688 1.998398,-3e-5 v -2.9 l -1.998398,3e-5 m 0,-2.89688 1.998398,0.002 v -2.9 l -1.998398,0.002"
       id="rect2935-3-3-3-2-5-1-3-8-93"
       inkscape:connector-curvature="0"
       sodipodi:nodetypes="cccccccccccccccccc" />
    <path
       style="fill:none;stroke:#ff0000;stroke-width:0.1;stroke-linejoin:round;stroke-miterlimit:4;stroke-dasharray:none;stroke-opacity:1"
       d="m 84.018578,271.25804 v 2.89688 l -1.998501,-0.002 v 2.9 l 1.998501,-0.002 v 2.89688 l -1.998501,-3e-5 v 2.9 l 1.998501,3e-5 v 2.89688 h -9.896901 v -2.89688 l 1.9984,-3e-5 v -2.9 l -1.9984,3e-5 v -2.89688 l 1.9984,0.002 v -2.9 l -1.9984,0.002 v -2.89688"
       id="rect2935-3-3-3-2-5-1-3-8-6-71"
       inkscape:connector-curvature="0"
       sodipodi:nodetypes="cccccccccccccccccccc" />
    <path
       style="fill:none;stroke:#ff0000;stroke-width:0.1;stroke-linejoin:round;stroke-miterlimit:4;stroke-dasharray:none;stroke-opacity:1"
       d="m 211.05922,271.25804 v 2.89688 l -1.9985,-0.002 v 2.9 l 1.9985,-0.002 v 2.89688 l -1.9985,-3e-5 v 2.9 l 1.9985,3e-5 v 2.89688 h -9.8969 m 0,-2.89688 1.9984,-3e-5 v -2.9 l -1.9984,3e-5 m 0,-2.89688 1.9984,0.002 v -2.9 l -1.9984,0.002"
       id="rect2935-3-3-3-2-5-1-3-2"
       inkscape:connector-curvature="0"
       sodipodi:nodetypes="ccccccccccccccccccc" />
    <path
       style="fill:none;stroke:#ff0000;stroke-width:0.1;stroke-linejoin:round;stroke-miterlimit:4;stroke-dasharray:none;stroke-opacity:1"
       d="m 220.95612,274.15492 -1.9985,-0.002 v 2.9 l 1.9985,-0.002 m 0,2.89688 -1.9985,-3e-5 v 2.9 l 1.9985,3e-5 m 0,2.89688 h -9.8969 m 0,-2.89688 1.9984,-3e-5 v -2.9 l -1.9984,3e-5 m 0,-2.89688 1.9984,0.002 v -2.9 l -1.9984,0.002"
       id="rect2935-3-3-3-2-5-1-3-8-3"
       inkscape:connector-curvature="0"
       sodipodi:nodetypes="cccccccccccccccccc" />
    <path
       style="fill:none;stroke:#ff0000;stroke-width:0.1;stroke-linejoin:round;stroke-miterlimit:4;stroke-dasharray:none;stroke-opacity:1"
       d="m 230.85302,271.25804 v 2.89688 l -1.9985,-0.002 v 2.9 l 1.9985,-0.002 v 2.89688 l -1.9985,-3e-5 v 2.9 l 1.9985,3e-5 v 2.89688 h -9.8969 v -2.89688 l 1.9984,-3e-5 v -2.9 l -1.9984,3e-5 v -2.89688 l 1.9984,0.002 v -2.9 l -1.9984,0.002 v -2.89688"
       id="rect2935-3-3-3-2-5-1-3-8-6-5"
       inkscape:connector-curvature="0"
       sodipodi:nodetypes="cccccccccccccccccccc" />
  </g>
</svg>
